,Label,Service,Predicted Labels
0,Valve Override Enable,Terminals,Terminals
1,Cooling valve,Terminals,Terminals
2,VAV Max Volume,Ignore point,Ignore point
3,VAV Box Size Setting,Ignore point,Ignore point
4,Paper Htg Valve,Ventilation,Ventilation
5,Unit Unoccupied,Ignore point,Ignore point
6,AHU2 Min Fresh Air,Ignore point,Ignore point
7,Space cooling setpoint,Terminals,Terminals
8,Heating Integral,Ignore point,Ignore point
9,VAV Volume Man Ovrd,Ignore point,Ignore point
10,CHW Pumps Flow,Cooling,Cooling
11,VAV Volume Man Ovrd,Ignore point,Ignore point
12,Remote SP Offse,Ignore point,Ignore point
13,Holding Tank B High,Ignore point,Ignore point
14,Boiler No.1 Gas Meter,Metering,Metering
15,SSV08 Supply Flow,Ventilation,Ventilation
16,Heating valve,Terminals,Terminals
17,Heating Flow Temperature,Ignore point,Ignore point
18,Return Flow Status 0=Flow 1=NoFlow,Ventilation,Ventilation
19,Occupancy,Ignore point,Ignore point
20,Cooling Valve,Terminals,Terminals
21,AHU 6 A-H-O,Ignore point,Ignore point
22,Maintenance Test Alarm,Heating,
23,1-2 HeatCool,Ignore point,Ignore point
24,Setpoint Adjust Timeout,Ignore point,Ignore point
25,Unit in Standby,Ignore point,Ignore point
26,Power C,Ignore point,Ignore point
27,Cooling Demand,Ignore point,Ignore point
28,Fire Alarm,Globals,Globals
29,PRE RR TIME PERIOD,Globals,Globals
30,SEV13,Ventilation,Ventilation
31,Boiler 3 Valve Stop,Heating,Heating
32,Spare,Ignore point,Ignore point
33,Potable CWS Booster,Cooling,Cooling
34,AHU 7 S.FAN 1 & 2,Ventilation,Ventilation
35,Voltage B-C,Ignore point,Ignore point
36,UF 3 FANS,Terminals,Terminals
37,CHW Pump Change Hour,Cooling,Cooling
38,Unit in Bypass,Ignore point,Ignore point
39,VAV Damper,Terminals,Terminals
40,Remote Setpoint Offset,Ignore point,Ignore point
41,OCC Deadband,Ignore point,Ignore point
42,SEV28 Extract Flow,Ventilation,Ventilation
43,Enable,Terminals,Terminals
44,Unit Occupied,Terminals,Ignore point
45,Enable,Terminals,Terminals
46,SSV14 Fan and SEV11,Ventilation,Ventilation
47,Local SpaceTemp,Ignore point,Ignore point
48,NOCC Deadbnd,Ignore point,Ignore point
49,2 Boilers in Fault,Heating,Heating
50,Space Atmospheric Pressure,Ventilation,Ventilation
51,Reactive Power,Ignore point,Ignore point
52,Space temp,Terminals,Terminals
53,EC Fan,Terminals,Terminals
54,Space Temp SP,Terminals,Terminals
55,Space Temp SP,Terminals,Terminals
56,VAV FAN RUNNING,Terminals,Ignore point
57,VAV Man Ovrd Min_Max,Ignore point,Ignore point
58,Occupation Relay,Terminals,Terminals
59,Remote Setpoint Offset,Ignore point,Ignore point
60,Space SP Adjust,Ignore point,Ignore point
61,SSV17 Filter Dirty,Ventilation,Ventilation
62,AC4-2 Setpoint,Ignore point,Ignore point
63,Remote Space Temperature,Terminals,Terminals
64,Fan Enabled,Terminals,Terminals
65,NIGHT SETBACK TIMES,Ventilation,Ventilation
66,AHU 9 HUM SIGNAL,Ventilation,Ventilation
67,ECO Mode Deadband Increase,Ignore point,Ignore point
68,AC Unit 3 Critical,Terminals,Terminals
69,Valve Override Enable,Ignore point,Terminals
70,AC6-1 FilterSign,Ignore point,Ignore point
71,AHU 2 Override,Ventilation,Ventilation
72,UPS B Normal Operation,Monitoring,
73,Unit Occupied,Ignore point,Ignore point
74,Boiler 2 Fault,Heating,Heating
75,Remote SP Offse,Ignore point,Ignore point
76,GF Signal from vent Wing 3,Ignore point,Ignore point
77,Min Volume,Ignore point,Ignore point
78,AHU7 & 8 C-Over Time,Ignore point,Ignore point
79,Space Vent SP,Ignore point,Ignore point
80,Cooling Override Value,Ignore point,Ignore point
81,RETURN AIR TEMP,Ventilation,Ventilation
82,AHU 1- MAIN PRODUCTION,Ventilation,Ventilation
83,Damper Volume Scalling Spt,Ignore point,Ignore point
84,Night SP Active Time,Ignore point,
85,Power A,Ignore point,Ignore point
86,AHU 5 EXTRACT FAN,Ventilation,Ventilation
87,GF Water Supply Valve,Ignore point,
88,Enable,Terminals,Terminals
89,SSV13 Fan Fail,Ventilation,Ventilation
90,AHU EXT FAN FAIL,Ventilation,Ventilation
91,2-7 Failure,Ignore point,Ignore point
92,Min Compensated Supply Temp,Ventilation,Ventilation
93,CO2,Terminals,Terminals
94,VAV Volume Man Ovrd,Terminals,Ignore point
95,External Frost SP,Globals,
96,VIP Dining Space,Ventilation,Ventilation
97,Heating Valve,Terminals,Terminals
98,AHU Enabled,Terminals,Terminals
99,Heating Valve,Terminals,Terminals
100,Heating Integral,Ignore point,Ignore point
101,Voltage C-A,Ignore point,Ignore point
102,DHW TIMEZONE,Heating,
103,Space cooling setpoint,Terminals,Terminals
104,PUMP A RUN,Cooling,Cooling
105,Heating Fault,Ventilation,
106,Dehum=50% Cool1=100%,Ventilation,Ignore point
107,SSV12 Supply Flow,Ventilation,Ventilation
108,Heating valve,Terminals,Terminals
109,Space Frost,Ventilation,Ventilation
110,VAV Boost,Ignore point,Ignore point
111,Remote Setpoint,Terminals,Terminals
112,Offset Range,Ignore point,Ignore point
113,Vage B-N,Ignore point,Ignore point
114,Flammable Store Htr Fault,Terminals,Terminals
115,Voltage B-C,Ignore point,Ignore point
116,Pushbutton Status,Ventilation,Ventilation
117,Fan Enabled,Terminals,Terminals
118,Coating Night SP,Ignore point,
119,MANUAL CONTROL,Ventilation,Ventilation
120,Pre RRA conditioning,Globals,Globals
121,OCC Deadbnd,Ignore point,Ignore point
122,Heating Gain,Ignore point,Ignore point
123,DIX11,Ignore point,Ignore point
124,Apparent Power C,Ignore point,Ignore point
125,Enable,Terminals,Terminals
126,OUTSIDE AIR TEMP,Globals,Globals
127,Cooling Demand,Ignore point,Ignore point
128,Space Temp SP,Terminals,Terminals
129,Cooling Valve,Terminals,Terminals
130,TEMPERATURE DEADBAND,Ignore point,Ignore point
131,Unit in Standby,Ignore point,Ignore point
132,Heating Valve,Terminals,Terminals
133,Fan Drive,Ignore point,Ignore point
134,Heating Demand,Ignore point,Ignore point
135,Plant Eng Htr Fan 1,Heating,Heating
136,SEV23 Boost PB,Ventilation,Ventilation
137,Cooling Valve,Ventilation,Terminals
138,Heating Gain,Ignore point,Ignore point
139,Cooling Setpoint,Terminals,Terminals
140,Heating Setpoint,Terminals,Terminals
141,Vage B-N,Ignore point,Ignore point
142,OCC Deadband,Ignore point,Ignore point
143,Cooling Valve,Terminals,Terminals
144,Remote SP Offse,Ignore point,Ignore point
145,HOURS RUN SETPOINT,Ventilation,Ventilation
146,VAV Boost,Ignore point,Ignore point
147,Cooling valve,Terminals,Terminals
148,Night Purge Active,Ignore point,Ignore point
149,AHU1 SUP AFLOW 1=FLW,Ventilation,Ventilation
150,No. Of Heat Stages,Ignore point,Ignore point
151,Boiler Max Flow Temp SP,Heating,Heating
152,AHU 1 RETURN TEMP,Ventilation,Ventilation
153,CHILLER 2 RUN,Cooling,Cooling
154,CHW PRESS UNIT FAULT,Cooling,Cooling
155,Header Fall Press,Ignore point,
156,Min Volume,Ignore point,Ignore point
157,Supply Pressure,Ventilation,Ventilation
158,Process Low Water,Cooling,Cooling
159,Min Volume,Ignore point,Ignore point
160,VAV Damper,Terminals,Terminals
161,Economiser Enable,Ignore point,
162,Enable,Terminals,Terminals
163,NE VT Valve,Heating,Heating
164,Cooling valve,Terminals,Terminals
165,VAV Max Volume,Ignore point,Ignore point
166,CHILLERS CO HRS,Cooling,
167,Space Vent High SP,Ignore point,Ignore point
168,Setpoint Highlimit,Ignore point,Ignore point
169,Enable,Terminals,Terminals
170,Room Display Setpoint,Ignore point,Ignore point
171,Current 3,Ignore point,Ignore point
172,Space temp,Terminals,Terminals
173,Server Rm Hi-temp Override,Globals,
174,UF 6 HUMIDITY,Terminals,Terminals
175,VAV Boost,Ignore point,Ignore point
176,Setpoint Highlimit,Ignore point,Ignore point
177,VAV Box Size Setting,Ignore point,Ignore point
178,Unit Occupied,Ignore point,Ignore point
179,AC3-2 Setpoint,Ignore point,Ignore point
180,RemoteSpaceTemp,Ignore point,Ignore point
181,Apparent Power A,Ignore point,Ignore point
182,AHU 4 E.FAN 1 & 2,Ventilation,Ventilation
183,Space heating setpoint,Terminals,Terminals
184,Room Display Setpoint,Ignore point,Ignore point
185,VAV Boost,Ignore point,Ignore point
186,Unit in Standby,Ignore point,Ignore point
187,Dig Inputs 11,Ignore point,Ignore point
188,Remote Shutdown,Ignore point,Ignore point
189,Heating Flow Temp,Heating,Ignore point
190,Outside Frost SP,Heating,Heating
191,Space heating setpoint,Terminals,Terminals
192,Recirc Fresh Air,Ventilation,Ventilation
193,Space Temp SP,Terminals,Terminals
194,Night Setback Times,Ventilation,Ventilation
195,2nd FLOOR TEMP,Terminals,Terminals
196,Chiller A Flow Temp,Cooling,Cooling
197,Apparent Power B,Ignore point,Ignore point
198,UF 3 COOLING,Terminals,Terminals
199,Outside Air Temp,Globals,Globals
200,Alkali Pump6 Sts,Ignore point,Ignore point
201,VAV Boost,Ignore point,Ignore point
202,AHU 4 Supply Fan 2 Enable,Ventilation,Ventilation
203,Main Prod 1 Vent,Ignore point,Ventilation
204,Cooling valve,Terminals,Terminals
205,Boiler Pumps Flow,Heating,Heating
206,VAV Man Ovrd Min_Max,Ignore point,Ignore point
207,Caustic Tank Level,Ignore point,Ignore point
208,Space heating setpoint,Terminals,Terminals
209,Space temp,Terminals,Terminals
210,Cooling Valve,Terminals,Terminals
211,Unit Unoccupied,Ignore point,Ignore point
212,OCC Deadbnd,Ignore point,Ignore point
213,Space Temp,Terminals,Terminals
214,VAV Box Size Setting,Ignore point,Ignore point
215,COMMON ALARM LAMP,Globals,Globals
216,Unit In Standby,Ignore point,Ignore point
217,Energy at start of period,Ignore point,Ignore point
218,VAV Max Volume,Ignore point,Ignore point
219,AVE SPACE SETPOINT,Ignore point,
220,Communications Fail,Ventilation,Ventilation
221,Paper Supply SP,Ventilation,Ventilation
222,Damper Volume Scalling Spt,Ignore point,Ignore point
223,Energy at end of period,Ignore point,Ignore point
224,AHU MIN SUP FAN SPD,Ventilation,Ignore point
225,Voltage B-N,Ignore point,Ignore point
226,Spare,Ignore point,Ignore point
227,1-13 HeatCool,Ignore point,Ignore point
228,WCFB Low Pressure,Cooling,Cooling
229,Humidifier,Ventilation,Ventilation
230,AHU3 Return Air Temp,Ventilation,Ventilation
231,Auxiliary Alarm,Ignore point,Ignore point
232,OH C COOL DEHUM,Terminals,Terminals
233,Space heating setpoint,Terminals,Terminals
234,Voltage C-N,Ignore point,Ignore point
235,Valve Override Enable,Terminals,Terminals
236,Valve Override Enable,Terminals,Terminals
237,Humidifier,Ventilation,Ventilation
238,AHU 2 Extract Fan No 1,Ventilation,Ventilation
239,CHW Pump 2 Enable,Cooling,Cooling
240,Heating valve,Terminals,Terminals
241,AHU 1 E.FAN 1 & 2,Ventilation,Ventilation
242,Current 2,Ignore point,Ignore point
243,Reactive Power Total,Ignore point,Ignore point
244,Cooling Valve,Terminals,Terminals
245,DIX11,Ignore point,Ignore point
246,FCU Mezz West Offices Temp SP,Ignore point,
247,Local SpaceTemp,Ignore point,Ignore point
248,1st Floor Override,Globals,
249,Toilet Extract Fans,Ventilation,Ventilation
250,Space Temp,Terminals,Terminals
251,Standby Deadbnd,Ignore point,Ignore point
252,Space cooling setpoint,Terminals,Terminals
253,Pri Pump Duty Fail,Heating,
254,Caustic Pp Stop Lvl,Ignore point,Ignore point
255,Reactive Power A,Ignore point,Ignore point
256,AC Unit 2 Running,Terminals,Terminals
257,Production Area Temp3,Ventilation,Ventilation
258,Cooling valve,Terminals,Terminals
259,Chiller 2 Enable,Cooling,Cooling
260,Humidifier,Ventilation,Ventilation
261,Real Energy Total,Ignore point,Ignore point
262,1 STH PERIM LIGHTS 2,Lighting,Lighting
263,Overheat Cut-Out,Ventilation,Ventilation
264,Gen 1 Earth Fault,Ignore point,Ignore point
265,Boiler Manual Seq,Heating,
266,VAV Max Volume,Ignore point,Ignore point
267,NOCC Deadbnd,Ignore point,Ignore point
268,Heating Valve,Terminals,Terminals
269,Space SP Adjust,Ignore point,Ignore point
270,Space Temp,Terminals,Terminals
271,VAV Box Size Setting,Ignore point,Ignore point
272,AHU 1 Frost Coil Temp,Ventilation,Ventilation
273,SSV10,Ventilation,Ventilation
274,2-13 Failure,Ignore point,Ignore point
275,AHU 1 Min Space Temp,Ventilation,Ventilation
276,CO2,Terminals,Terminals
277,HWS Prim P2 Failed,Heating,Heating
278,Minimum Fan Speed Setpoint,Ignore point,Ignore point
279,2F Signal from vent Wing 1,Ignore point,Ignore point
280,Neutralisat Alka Low,Ignore point,Ignore point
281,Boiler 2A Enable,Heating,Heating
282,Spare,Ignore point,Ignore point
283,UPS-SW4 On Bypass,Monitoring,Monitoring
284,VAV Box Size Setting,Ignore point,Ignore point
285,AC4-2 FilterSign,Ignore point,Ignore point
286,Heating valve,Terminals,Terminals
287,North Zone Pump Flow,Heating,Heating
288,ECO Mode Deadband Increase,Ignore point,Ignore point
289,Setpoint,Ignore point,Ignore point
290,No. Of Cool Stages,Ignore point,Ignore point
291,Heating Setpoint,Terminals,Terminals
292,Heating Valve,Terminals,Terminals
293,Space cooling setpoint,Terminals,Terminals
294,Office Times,Ventilation,
295,Unit in Bypass,Ignore point,Ignore point
296,Space SP Adjust,Ignore point,Ignore point
297,Heating Demand,Ignore point,Ignore point
298,VAV Damper,Terminals,Terminals
299,Space cooling setpoint,Terminals,Terminals
300,EF16 FANS 1 & 2,Ventilation,Ventilation
301,GND NORTH PIR 1,Lighting,Lighting
302,Space heating setpoint,Terminals,Terminals
303,SSV22 Fan Fail,Ventilation,Ventilation
304,Power A,Ignore point,Ignore point
305,Power Total,Ignore point,Ignore point
306,Spare,Ignore point,Ignore point
307,Fan Speed Override Value EC,Ignore point,Ignore point
308,Min Volume,Ignore point,Ignore point
309,AHU9,Ventilation,Ventilation
310,Kitchen Htg Valve,Ventilation,Ignore point
311,2F Water Supply Valve,Ignore point,Cooling
312,Fan Drive,Ignore point,Ignore point
313,Space Temp 7_1,Ignore point,Terminals
314,RemoteSpaceTemp,Ignore point,Ignore point
315,FLOW SW B,Cooling,Cooling
316,Remote Occupancy,Ignore point,Ignore point
317,Remote Setpoint,Terminals,Terminals
318,Bottle Change Input,Ventilation,Ventilation
319,Drier 2 Dew Point,Ventilation,Ventilation
320,Remote Occ,Ignore point,Ignore point
321,Offset Range,Ignore point,Ignore point
322,High Temp,Ventilation,Ventilation
323,CO2,Terminals,Terminals
324,REC Intake Elec Meter Pulse,Metering,Metering
325,Valve Override Position,Ignore point,Ignore point
326,NOCC Deadbnd,Ignore point,Ignore point
327,RemoteSpaceTemp,Ignore point,Ignore point
328,AHU 7 DAMPERS,Ventilation,Ventilation
329,Remote SP Offse,Ignore point,Ignore point
330,OH A DEHUM OVERRIDE,Terminals,Terminals
331,Heating valve,Terminals,Terminals
332,Unit In Bypass,Ignore point,Ignore point
333,VAV Volume Man Ovrd,Ignore point,Ignore point
334,Damper Volume Scalling Spt,Ignore point,Ignore point
335,Space cooling setpoint,Terminals,Terminals
336,AHU SUPPLY TEMP,Ventilation,Ventilation
337,BOILER 1 COM FAULT,Heating,Heating
338,Heating valve,Terminals,Terminals
339,EC Fan,Terminals,Terminals
340,Supply air temperature,Ventilation,Ventilation
341,TEMPERATURE DEADBAND,Ignore point,Ignore point
342,Return Temp,Ventilation,
343,Unit in Bypass,Ignore point,Ignore point
344,Valve Override Position,Ignore point,Ignore point
345,Fan Enabled,Terminals,Terminals
346,Overheat Cut-Out,Ventilation,Ventilation
347,AUXILIARY ALARM,Ignore point,Ignore point
348,Cooling Valve,Terminals,Terminals
349,Vage A-B,Ignore point,Ignore point
350,CT Pump Flow,Heating,Heating
351,Coatings Night Purge,Ignore point,Ignore point
352,BOTTLE CHANGE ALARM,Globals,Globals
353,OFFICES C.W RETURN T,Cooling,Cooling
354,SSV02 Supply Flow,Ventilation,Ventilation
355,Space SP Adjust,Ignore point,Ignore point
356,Unit Unoccupied,Ignore point,Ignore point
357,Toilet Fan 1+2 Fail,Ventilation,Ventilation
358,Voltage B-C,Ignore point,Ignore point
359,Honeycomb Vent SP4,Ventilation,Ventilation
360,PLENUM OCC SP,Ignore point,
361,KITCHEN SPACE TEMP,Ignore point,Ignore point
362,OCC Deadbnd,Ignore point,Ignore point
363,Night Purge Active,Ignore point,Ignore point
364,Space Temp,Terminals,Terminals
365,Min Volume,Ignore point,Ignore point
366,VAV Box Size Setting,Ignore point,Ignore point
367,Heating Control,Ventilation,Ventilation
368,Local Discharge Air Temp,Terminals,Terminals
369,Manual Control,Ventilation,Ventilation
370,AHU 3 RETURN HUM,Ventilation,Ventilation
371,Bottle Change Input,Ventilation,Ventilation
372,RTN TEMP LOW LIMIT,Ignore point,Ignore point
373,DHW LTHW DEMAND OK SP,Heating,
374,OHC Cooling Valve,Terminals,Terminals
375,Cooling valve,Terminals,Terminals
376,1-6 HeatCool,Ignore point,Ignore point
377,BOILER 6 LOCKOUT,Heating,Heating
378,AC4-3 FanSpeed,Ignore point,Ignore point
379,AHU 1 and 4  TIMEZONE,Ventilation,Ventilation
380,Bottle Change Alarm,Globals,Globals
381,Enable AHU3,Ignore point,Ventilation
382,RemoteSpaceTemp,Ignore point,Ignore point
383,Voltage C-A,Ignore point,Ignore point
384,Unit in Standby,Ignore point,Ignore point
385,Humidity Gain,Ignore point,Ignore point
386,VAV Boost,Ignore point,Ignore point
387,Boiler Common Flow,Heating,Heating
388,Outside Light Level,Ignore point,Lighting
389,Meeting Room 2 AC,Terminals,Terminals
390,Unit Unoccupied,Ignore point,Ignore point
391,Damper Volume Scalling Spt,Ignore point,Ignore point
392,Heating Valve,Terminals,Terminals
393,VAV Boost,Ignore point,Ignore point
394,Server Room Temp,Monitoring,Ventilation
395,Valve Override Position,Ignore point,Ignore point
396,Apparent Power,Ignore point,Ignore point
397,Enable,Terminals,Terminals
398,Space Temp,Terminals,Terminals
399,Studio AC Units,Terminals,Terminals
400,Room Display Fan Speed,Ignore point,Ignore point
401,Heating Demand,Ignore point,Ignore point
402,Unit in Bypass,Ignore point,Ignore point
403,North Flow Temp,Heating,
404,Frequency,Ignore point,Ignore point
405,Heating Demand,Ignore point,Ignore point
406,Supply Unit No.2 Fault,Ventilation,Ventilation
407,DHWS Flow Temp,Heating,Heating
408,Burner Modulation,Ventilation,Ventilation
409,AHU 5 CLG VALVE,Ventilation,Ventilation
410,AHU 7 MIN SUP Offset,Ignore point,Ignore point
411,Space Temp SP,Terminals,Terminals
412,OCC Deadbnd,Ignore point,Ignore point
413,Damper Volume Scalling Spt,Ignore point,Ignore point
414,LWR GND EXT FAN FAIL,Ventilation,Ventilation
415,Flow Temp,Cooling,Ignore point
416,Fan Enabled,Terminals,Terminals
417,Current A,Ignore point,Ignore point
418,AHU Enabled,Terminals,Terminals
419,Space temp,Terminals,Terminals
420,1ST SOUTH PIR 3,Lighting,Lighting
421,Unit Unoccupied,Ignore point,Ignore point
422,Dehum. Integral,Ignore point,Ignore point
423,GND NORTH PIR 1,Lighting,Lighting
424,Remote SP Offse,Ignore point,Ignore point
425,Space SP Adjust,Ignore point,Ignore point
426,South VT Slope,Heating,Heating
427,SEV12,Ventilation,Ventilation
428,Occupancy,Ignore point,Ignore point
429,Setpoint,Ignore point,Ignore point
430,Heating Valve,Terminals,Terminals
431,Holding Tank B Low,Ignore point,Ignore point
432,Rtn. Hum High Limit,Ignore point,Ignore point
433,Enable,Terminals,Terminals
434,Fire Alarm Active,Globals,Globals
435,Reactive Energy Total,Ignore point,Ignore point
436,Process Tank Level,Cooling,Cooling
437,Male LockersOverride,Ventilation,
438,Unit in Bypass,Ignore point,Ignore point
439,Winter Temp Setpoint,Ventilation,Ventilation
440,Space Temp,Terminals,Terminals
441,OH A CLG OVERRIDE,Terminals,Terminals
442,Unit Unoccupied,Ignore point,Ignore point
443,AHU 5 & 6 OVERRIDE,Ventilation,Ventilation
444,Night Setback Times,Ventilation,Ventilation
445,Outside Light level,Lighting,Lighting
446,Ground Floor VRV,Terminals,Terminals
447,FILTERED PRESSURE,Ventilation,
448,Total Energy,Ignore point,Ignore point
449,Unit In Standby,Ignore point,Ignore point
450,VAV Damper,Terminals,Terminals
451,ZONE E TEMP SETPOINT,Globals,Globals
452,Setpoint Highlimit,Ignore point,Ignore point
453,AHU 1 RETURN CO2,Ventilation,Ventilation
454,Local Space Temperature,Terminals,Terminals
455,Paper Store Supply,Ventilation,Ventilation
456,RemoteSpaceTemp,Ignore point,Ignore point
457,SSV13 Boost Time,Ventilation,Ventilation
458,Extract Fan No.2,Ventilation,Ventilation
459,Space SP Adjust,Ignore point,Ignore point
460,Space Temp,Terminals,Terminals
461,1ST NE Zone Space,Heating,Heating
462,AHU 6 FROST TEMP,Ventilation,Ventilation
463,VAV Volume Man Ovrd,Ignore point,Ignore point
464,Heating Integral,Ignore point,Ignore point
465,Heating Demand,Ignore point,Ignore point
466,Setpoint Highlimit,Ignore point,Ignore point
467,Cool Stage 3,Ventilation,Ventilation
468,AHU 7 HEATING COIL,Ventilation,Ventilation
469,AHU Enabled,Terminals,Terminals
470,AHU 4 HUM ENABLE,Ventilation,Ventilation
471,HWS PRIMARY PUMP 2 ENABLE,Heating,Heating
472,CT Ratio - Secondary,Ignore point,Ignore point
473,AHU 9  FROST VALVE,Ventilation,Ventilation
474,AHU 4 COOLING COIL,Ventilation,Ventilation
475,STAFF CANTEEN 1,Heating,Heating
476,Remote Setpoint,Terminals,Terminals
477,VAV Max Volume,Ignore point,Ignore point
478,Valve Override Position,Ignore point,Ignore point
479,Heating Valve,Terminals,Terminals
480,COMMUNICATIONS FAIL,Ventilation,Ventilation
481,Low Temp Hold Off,Ventilation,Ventilation
482,Boiler Prim Pump 2 Enable,Heating,Heating
483,CR1B - BATT ON LOAD,Monitoring,Monitoring
484,Auxiliary Alarm,Ignore point,Ignore point
485,AC1-3 FilterSign,Ignore point,Ignore point
486,Cooling Override 1=Enabled,Ignore point,Ignore point
487,Cooling valve,Terminals,Terminals
488,Space Temp SP,Terminals,Terminals
489,AHU Enabled,Terminals,Terminals
490,COOL STAGE 3,Ventilation,Ventilation
491,Remote Space Temperature,Terminals,Terminals
492,FLOW TEMP,Heating,Ignore point
493,Rinse Wtr Pump1 Sts,Ignore point,Ignore point
494,Enable,Terminals,Terminals
495,Remote Setpoint,Terminals,Terminals
496,Studio AC Units Common Fault,Terminals,Terminals
497,Burner Fault,Ventilation,Ventilation
498,Space Temp,Ignore point,Terminals
499,Dehum. Gain,Ignore point,Ignore point
500,Setpoint Highlimit,Ignore point,Ignore point
501,High Temp,Ignore point,Ventilation
502,Voltage C-N,Ignore point,Ignore point
503,Space cooling setpoint,Terminals,Terminals
504,Reactive Energy,Ignore point,Ignore point
505,AHU Supply Air Flow,Ventilation,Ventilation
506,Unit Unoccupied,Ignore point,Ignore point
507,Remote SP Offse,Ignore point,Ignore point
508,Acid Waste High Alm,Ignore point,Ignore point
509,SSV17 Boost Time,Ventilation,Ventilation
510,VAV Volume Man Ovrd,Ignore point,Ignore point
511,Remote Setpoint,Terminals,Terminals
512,IO Module 6 Failed,Globals,Globals
513,AHU PREHEAT VALVE,Ventilation,Ventilation
514,Cryo Compressor Fault,Cooling,Cooling
515,VAV Boost,Ignore point,Ignore point
516,AHU Enabled,Terminals,Terminals
517,AHU 6 FROST VALVE,Ventilation,Ventilation
518,Gas Valve Closed,Monitoring,
519,ReHeat Valve,Ignore point,
520,Comp 4 Indicator,Cooling,Cooling
521,Real Power A,Ignore point,Ignore point
522,Offset Range,Ignore point,Ignore point
523,Remote SP Offse,Ignore point,Ignore point
524,Occupancy,Ignore point,Ignore point
525,AHU 1 Extract Fan 1 Enable,Ventilation,Ventilation
526,Space Temp,Terminals,Terminals
527,Occupancy,Ignore point,Ignore point
528,VAV Calc Clg SP,Ignore point,Ignore point
529,OAT Upper Limit,Heating,Heating
530,AC3-5 Setpoint,Ignore point,Ignore point
531,1ST NORTH PIR 1,Lighting,Lighting
532,Dining Supply/Extrac,Ventilation,
533,NOCC Deadbnd,Ignore point,Ignore point
534,SSV10 Filter Dirty,Ventilation,Ventilation
535,Enable,Terminals,Terminals
536,Pressure Unit Fault,Ignore point,
537,Unit Unoccupied,Ignore point,Ignore point
538,Acid Reagent Low,Ignore point,Ignore point
539,EC Fan,Terminals,Terminals
540,Valve Override Position,Ignore point,Ignore point
541,Frost Sp,Ventilation,Ventilation
542,VAV Max Volume,Ignore point,Ignore point
543,First Floor VRV Override,Terminals,Terminals
544,Comms failure,Ventilation,Globals
545,Min Volume,Ignore point,Ignore point
546,Cooling valve,Terminals,Terminals
547,VAV Max Volume,Ignore point,Ignore point
548,CAV COOLING VALVE,Terminals,Ignore point
549,AHU 1 & 2 SPACE TEMP,Ventilation,Ventilation
550,Space Temp,Terminals,Terminals
551,UF 2 FANS,Terminals,Terminals
552,VAV Damper,Terminals,Terminals
553,Pump Speed Man=1,Ignore point,
554,Htdro Acid Pp10 Trip,Ignore point,Ignore point
555,AHU 10 TLT EXTRACT,Ventilation,Ventilation
556,Compressor 1 Trip,Ventilation,Ventilation
557,Dehumidifier,Ventilation,Ventilation
558,Apparent Power A,Ignore point,Ignore point
559,Heating Gain,Ignore point,Ignore point
560,Frost Heaters,Ventilation,Ignore point
561,VAV Volume Man Ovrd,Ignore point,Ignore point
562,Fan Running,Ignore point,Ignore point
563,Electricity Meter 6,Metering,Metering
564,AHU Lo Temp Hold Off,Ventilation,Ventilation
565,Extract Fan No.1 Flow,Ventilation,Ventilation
566,RemoteSpaceTemp,Ignore point,Ignore point
567,Control Valve 2 C4,Cooling,Cooling
568,Voltage B-N,Ignore point,Ignore point
569,AHU Enabled,Terminals,Terminals
570,LPHW RETURN TEMP,Heating,Heating
571,NOCC Deadband,Ignore point,Ignore point
572,DE-HUMIDIFIER,Ventilation,Ventilation
573,Apparent Power,Ignore point,Ignore point
574,RemoteSpaceTemp,Ignore point,Ignore point
575,Unit Unoccupied,Ignore point,Ignore point
576,Space Temp,Terminals,Terminals
577,Paper RRAdisable,Globals,Globals
578,Heating Valve,Terminals,Terminals
579,Space Temp,Terminals,Terminals
580,Return Air Setpoint,Ventilation,Ventilation
581,Energy used in period,Ignore point,Ignore point
582,Burner Enable,Ventilation,Ventilation
583,Water Flow Input,Ventilation,Ventilation
584,LPHW RSCL TO MAX,Heating,Heating
585,Inside Low Limit SP,Heating,Heating
586,Unit Unoccupied,Ignore point,Ignore point
587,G1 AIR VALVES CLOSED,Globals,Globals
588,Humidity Integral,Ignore point,Ignore point
589,Std. Operating Times,Ventilation,Ventilation
590,UPS-LV1A UPS On,Monitoring,Monitoring
591,Space temp,Terminals,Terminals
592,Knob 51,Ignore point,Ignore point
593,Unit In Bypass,Ignore point,Ignore point
594,Cooling Demand,Ignore point,Ignore point
595,Supply DP Switch,Ventilation,Ignore point
596,Cooling valve,Terminals,Terminals
597,CAV DP Switch,Terminals,
598,Dig Inputs 2,Ignore point,Ignore point
599,ATS OCC SETPOINT,Terminals,
600,Dig Inputs 1,Ignore point,Ignore point
601,Toilet Ext Flow,Ventilation,Ventilation
602,Extract Fan No.1,Ventilation,Ventilation
603,Cooling valve,Terminals,Terminals
604,Standby Deadbnd,Ignore point,Ignore point
605,AC Unit1 Not Running,Ignore point,Ignore point
606,AHU Extract Damper Enable,Ventilation,Ventilation
607,Cooling valve,Terminals,Terminals
608,Unit in Standby,Ignore point,Ignore point
609,SSV23A+B Boost Time,Ventilation,Ventilation
610,OVERHEAT CUT-OUT,Ventilation,Ventilation
611,Remote Setpoint,Terminals,Terminals
612,DHW Override,Heating,Heating
613,Humidity Setpoint,Ignore point,Ignore point
614,Remote Occ,Ignore point,Ignore point
615,UPS Rm Fire Sys Fault,Monitoring,
616,No. Of Heat Stages,Ignore point,Ignore point
617,2-13 Filtersign,Ignore point,Ignore point
618,Space Temp SP,Terminals,Terminals
619,Unit in Standby,Ignore point,Ignore point
620,AHU 6 SUPPLY TEMP,Ventilation,Ventilation
621,Active Power P3,Ignore point,Ignore point
622,Active Power P1,Ignore point,Ignore point
623,AHU Supply Air SP,Ventilation,Ventilation
624,OAT SV Hold Off,Ventilation,Ventilation
625,Remote Occupancy,Ignore point,Ignore point
626,CHW Pump 1 Flow Fail,Cooling,Cooling
627,Space heating setpoint,Terminals,Terminals
628,Valve Override Enable,Terminals,Terminals
629,Occupancy,Ignore point,Ignore point
630,Overrides 0=Disabled 1=Enabled,Ignore point,Ignore point
631,AHU 11 Supply 2 Fail,Ventilation,Ventilation
632,Fabric Protection,Globals,
633,South Flow Temp,Heating,
634,Room Display Setpoint,Ignore point,Ignore point
635,AHU Enabled,Terminals,Terminals
636,Space Temp,Terminals,Terminals
637,Fire Alarm Status,Globals,Globals
638,AHU 10 RETURN TEMP,Ventilation,Ventilation
639,Fan Enabled,Terminals,Terminals
640,Space temp,Terminals,Terminals
641,Fan Enabled,Terminals,Terminals
642,Fan Drive,Ignore point,Ignore point
643,Remote SP Offse,Ignore point,Ignore point
644,G2 AIR VALVES CLOSED,Globals,Globals
645,AHU 11 RETURN TEMP,Ventilation,Ventilation
646,Valve Override Enable,Terminals,Terminals
647,Remote Fan Speed,Ignore point,Ignore point
648,Space cooling setpoint,Terminals,Terminals
649,Engineer Attending,Ignore point,Ignore point
650,Join Cell 1-3 AC Flt,Terminals,Terminals
651,VAV Boost,Ignore point,Ignore point
652,PT Ratio - Scale,Ignore point,Ignore point
653,Airflow Alarm Delay,Globals,Ignore point
654,Unit On-Off,Ventilation,Ventilation
655,VAV Damper,Terminals,Terminals
656,Training Room AC,Terminals,Terminals
657,Safety Circuit,Heating,Heating
658,Hotwell Inlet,Ignore point,
659,SSV19 Filter Dirty,Ventilation,Ventilation
660,Fire Damper 7,Globals,Globals
661,Comp Air Hi Press SP,Cooling,
662,ECO Mode Deadband Increase,Ignore point,Ignore point
663,OCC Deadbnd,Ignore point,Ignore point
664,AHU 4 BAG FILTER,Ventilation,Ventilation
665,TEMP OAT,Globals,
666,Damper Volume Scalling Spt,Ignore point,Ignore point
667,Cooling Demand,Ignore point,Ignore point
668,Outside Light Override,Lighting,Lighting
669,Actual Temp Setpoint,Ventilation,Ventilation
670,Space cooling setpoint,Terminals,Terminals
671,2F Signal from vent Wing 3,Ignore point,Ignore point
672,Space Temp SP,Terminals,Terminals
673,Local SpaceTemp,Ignore point,Ignore point
674,VAV ON COIL TEMP,Ignore point,Ignore point
675,Heating Valve,Terminals,Terminals
676,Lift Alarm,Globals,Globals
677,Neutralisation pH,Ignore point,Ignore point
678,AC Unit 3 Enable,Terminals,Terminals
679,Remote Occ,Ignore point,Ignore point
680,Space cooling setpoint,Terminals,Terminals
681,Voltage P2 - P3,Ignore point,Ignore point
682,Power B,Ignore point,Ignore point
683,Genny 1 Failed,Monitoring,Monitoring
684,Fan Override 1=Enabled,Ignore point,Ignore point
685,Voltage B-N,Ignore point,Ignore point
686,Heating Valve,Terminals,Terminals
687,AC4-6 FanSpeed,Ignore point,Ignore point
688,AHU Main Htg Valve,Ventilation,Ventilation
689,AHU3 Heating Fault,Ventilation,Ventilation
690,Remote Occ,Ignore point,Ignore point
691,VAV Max Volume,Ignore point,Ignore point
692,Fan Running,Ignore point,Ignore point
693,RTN HUM HIGH LIMIT,Ignore point,Ignore point
694,Duct Hi-Temp Stat Active,Ventilation,Ventilation
695,AHU CT Pump Speed Manual,Heating,
696,Heating valve,Terminals,Terminals
697,Enable,Terminals,Terminals
698,Fan Enabled,Terminals,Terminals
699,Min Volume,Ignore point,Ignore point
700,Toilet Extract,Ventilation,Ventilation
701,West VT Valve,Heating,Heating
702,BOTTLE CHANGE DELAY,Ignore point,Ignore point
703,Build Stage Vent SP,Ignore point,Ignore point
704,RemoteSpaceTemp,Ignore point,Ignore point
705,Heating Valve,Terminals,Terminals
706,OCC Deadbnd,Ignore point,Ignore point
707,Space temp,Terminals,Terminals
708,Offices Load Shed,Cooling,Cooling
709,RRA Pre Period Activ,Globals,Globals
710,Electricity Meter 3,Metering,Metering
711,Blr 2 Bus1 Voltage,Ignore point,Ignore point
712,VAV Boost,Ignore point,Ignore point
713,2nd FLOOR TEMP,Ignore point,Ignore point
714,Space heating setpoint,Terminals,Terminals
715,AHU Enabled,Terminals,Terminals
716,CO2,Terminals,Terminals
717,Generic Alarm,Ventilation,Ventilation
718,Fan Speed Override Value EC,Ignore point,Ignore point
719,SSV20 Fan Fail,Ventilation,Ventilation
720,Damper Volume Scalling Spt,Ignore point,Ignore point
721,Unit In Bypass,Ignore point,Ignore point
722,Comp 3 Indicator,Cooling,Cooling
723,SW ZoneVT Pump2 Trip,Heating,Heating
724,Voltage C-A,Ignore point,Ignore point
725,Unit Occupied,Ignore point,Ignore point
726,AC4-6 FilterSign,Ignore point,Ignore point
727,Remote Fan Speed,Ignore point,Ignore point
728,Cooling Demand,Ignore point,Ignore point
729,2nd outside air sens,Globals,
730,AHU CT FLOW FAIL,Heating,Heating
731,Min Volume,Ignore point,Ignore point
732,UF 1 TEMPERATURE,Terminals,Terminals
733,AHU 3 EXTRACT FLOW,Ventilation,Ventilation
734,Current B,Ignore point,Ignore point
735,VAV Man Ovrd Min_Max,Ignore point,Ignore point
736,Outside Air Temp,Heating,Globals
737,Heating valve,Terminals,Terminals
738,Water Heater 1 Fault,Heating,Heating
739,Occupancy,Ignore point,Ignore point
740,EC Fan,Terminals,Terminals
741,Space heating setpoint,Terminals,Terminals
742,UPS-CR3A On Bypass,Monitoring,Monitoring
743,First Stage Frost,Globals,
744,Fan Running,Ignore point,Ignore point
745,BMS Service Required,Ignore point,Ignore point
746,VAV Volume Man Ovrd,Ignore point,Ignore point
747,2-14 Failure,Ignore point,Ignore point
748,RTN HUM LOW LIMIT,Ignore point,Ignore point
749,Space Frost,Ventilation,Ventilation
750,Space Temp,Terminals,Terminals
751,Main Kwh Meter 12a,Metering,Metering
752,Min Volume,Ignore point,Ignore point
753,Heating Override Value,Ignore point,Ignore point
754,AHU 4 Ext Fan,Ventilation,Ventilation
755,Critical Test Alarm,Cooling,
756,Boiler Return Temp,Heating,Heating
757,AHU 8 E.FAN ENABLE,Ventilation,Ventilation
758,Hotwell Inlet SP,Ignore point,Ignore point
759,RemoteSpaceTemp,Ignore point,Ignore point
760,HWS Water Meter Pulse,Ignore point,
761,Cooling Demand,Ignore point,Ignore point
762,Apparent Power,Ignore point,Ignore point
763,ATRIUM COND VLV 2,Ventilation,Ventilation
764,2nd South Space K27,Heating,
765,AHU Supply Flow Fail,Ventilation,Ventilation
766,Minimum Fan Speed Setpoint,Ignore point,Ignore point
767,AHU MIXING DAMPERS,Ventilation,Ventilation
768,Local Space Temperature,Terminals,Terminals
769,SEV10 Boost Time,Ventilation,Ventilation
770,VAV Boost,Ignore point,Ignore point
771,STD. OPERATING TIMES,Ventilation,Ventilation
772,Side Stream Filtration Unit,Cooling,
773,Valve Override Enable,Terminals,Terminals
774,MPI Area Times & Override ,Terminals,Terminals
775,OCC Deadbnd,Ignore point,Ignore point
776,Local SpaceTemp,Ignore point,Ignore point
777,HUMIDIFIER,Ventilation,Ventilation
778,OHC Humidity,Terminals,
779,Heating Valve,Terminals,Terminals
780,SEV21 Boost PB,Ventilation,Ventilation
781,2-0 Filtersign,Ignore point,Ignore point
782,LOWER GND EXT FAN,Ventilation,Ventilation
783,Toilets Ahu,Ventilation,Ventilation
784,Remote SP Offse,Ignore point,Ignore point
785,1-8 FanSpeed,Ignore point,Ignore point
786,Unit in Standby,Ignore point,Ignore point
787,AHU 6 RETURN TEMP,Ventilation,Ventilation
788,3rd Floor Wing 3,Ventilation,Ventilation
789,O/H C PRESS FAILED,Terminals,Terminals
790,Hrs.Run Differential,Ignore point,Ignore point
791,2F Heating Valve Wing 3,Ventilation,Ventilation
792,Boiler Pump Failed,Heating,Heating
793,Toilet AHU,Ventilation,Ventilation
794,DIg Inputs 2,Ignore point,Ignore point
795,Valve Override Position,Ignore point,Ignore point
796,OH C TEMP SP,Terminals,Terminals
797,Voltage A-B,Ignore point,Ignore point
798,Reception Door Heater,Ventilation,Ventilation
799,AHU Enabled,Terminals,Terminals
800,VAV Boost,Ignore point,Ignore point
801,Gas Valve Closed,Ventilation,
802,Low Light Lab AC,Lighting,
803,AHU 5 HTG VALVE,Ventilation,Ventilation
804,VAV Damper,Terminals,Terminals
805,Fan Running,Ignore point,Ignore point
806,Space SP Adjust,Ignore point,Ignore point
807,Night Purge SP,Ignore point,Ignore point
808,Fan Running,Ignore point,Ignore point
809,CHILLER 2,Cooling,Cooling
810,AHU Extract Fan No.1,Ventilation,Ventilation
811,Pushbutton Status,Ventilation,Ventilation
812,Voltage B-N,Ignore point,Ignore point
813,Remote Occ,Ignore point,Ignore point
814,UPS-CR2B Comm Fault,Monitoring,Monitoring
815,Enable,Terminals,Terminals
816,Remote SP Offse,Ignore point,Ignore point
817,UPS-LV2A Comm Fault,Monitoring,Monitoring
818,AHU1 Return Air Temp,Ventilation,Ventilation
819,Local Setpoint Adjust,Ignore point,Ignore point
820,Cooling Demand,Ignore point,Ignore point
821,Boiler 1B Enable,Heating,Heating
822,Apparent Power C,Ignore point,Ignore point
823,EC Fan,Terminals,Terminals
824,EF18 FAN 2 FAIL,Ventilation,Ventilation
825,Toilets Ahu,Ventilation,Ventilation
826,Current C,Ignore point,Ignore point
827,VAV Boost,Ignore point,Ignore point
828,SEV07 Fan Fail,Ventilation,Ventilation
829,Heating Valve,Terminals,Terminals
830,AIRFLOW SWITCH INPUT,Ventilation,Ventilation
831,Knob 24,Ignore point,Ignore point
832,Space Temp SP,Terminals,Terminals
833,1ST SOUTH PIR 2,Lighting,Lighting
834,Air Dryer Fault,Globals,Ignore point
835,AC5-7 FilterSign,Ignore point,Ignore point
836,UF 7 TEMP SP,Terminals,Terminals
837,Fan Override 1=Enabled,Ignore point,Ignore point
838,Temperature Deadband,Ignore point,Ignore point
839,Remote Space Temperature,Terminals,Terminals
840,UPS B Failure,Monitoring,Monitoring
841,3F Avg Room Temp North Wing ,Ventilation,Ventilation
842,Blast Area Temp,Terminals,Terminals
843,UF 7 HUMIDITY SP,Terminals,Terminals
844,Unit in Bypass,Ignore point,Ignore point
845,Remote Setpoint,Terminals,Terminals
846,Start AHU,Ignore point,Ventilation
847,Heating Valve,Terminals,Terminals
848,VAV Max Volume,Ignore point,Ignore point
849,Return Air Setpoint,Ventilation,Ventilation
850,AC3-6 Setpoint,Ignore point,Ignore point
851,Minimum Fan Speed Setpoint,Ignore point,Ignore point
852,Header Low Alm Sp,Ignore point,Ignore point
853,VAV Man Ovrd Min_Max,Ignore point,Ignore point
854,1st Disable WC Alarm,Ignore point,
855,CT Pump 2 Enable,Heating,Heating
856,Fire Alarm Active,Globals,Globals
857,LPHW PRIM PUMP FLOW,Heating,Heating
858,AHU 8 FROST TEMP,Ventilation,Ventilation
859,Standby Deadbnd,Ignore point,Ignore point
860,Valve Override Enable,Terminals,Terminals
861,BOILER CHNGOVER HRS,Heating,
862,Valve Override Position,Ignore point,Ignore point
863,Valve Override Enable,Terminals,Terminals
864,Reactive Energy Total,Ignore point,Ignore point
865,Hypo Dose Pp P10A,Ignore point,Ignore point
866,Space heating setpoint,Terminals,Terminals
867,HT C.W CIRC 2 FLOW T,Cooling,Cooling
868,FIRE ALARM NORMAL,Globals,Globals
869,VAV Volume Man Ovrd,Ignore point,Ignore point
870,AHU 8 NORMAL SPEED,Ignore point,
871,VAV Max Volume,Ignore point,Ignore point
872,2nd Flr Disabled Toilet Alarm,Ventilation,Ventilation
873,Fan Drive,Ignore point,Ignore point
874,Discharge Sump Low,Ignore point,Ignore point
875,Fan Enabled,Terminals,Terminals
876,Std. Operating Times,Ventilation,Ventilation
877,Fan Override 1=Enabled,Ignore point,Ignore point
