boilerPlant,Heating
"pump, heating",Heating
vtHeating,Heating
ctHeating,Heating
dhw,Heating
boiler,Heating
calorifier,Heating
pump,Heating
chillerPlant,Cooling
"pump, cooling",Cooling
dxUnit,Cooling
chiller,Cooling
pump,Cooling
ahu,Ventilation
,Ventilation
"fan, supply",Ventilation
"fan, extract",Ventilation
fan,Ventilation
fcu,Terminals
ac,Terminals
vav,Terminals
vrv,Terminals
vrf,Terminals
lightsGroup,Lighting
"meter, thermal",Metering
"meter, elec",Metering
"meter, gas",Metering
"meter, water",Metering
ups,Monitoring