,Tag,Service,Predicted Service,Success
0,Chiller 1 Enable,0,2,False
1,Chiller A Isolation Valve,0,2,False
2,Chiller A Isol Valve OR,0,2,False
3,Chiller A Fault,0,2,False
4,Chiller 2 Enable,0,2,False
5,Chiller B Isolation Valve,0,2,False
6,Chiller B Isol Valve OR,0,2,False
7,Chiller Pumps Flow,0,2,False
8,Chiller B Fault,0,2,False
9,Chiller Pump 1 Enable,0,2,False
10,Chiller Pump 1 Fault,0,2,False
11,Chiller Pump 2 Enable,0,2,False
12,Chiller Pump 2 Fault,0,2,False
13,CONTROL VALVE A,0,7,False
14,ISOLATION VALVE A,0,6,False
15,CONTROL VALVE B,0,7,False
16,ISOLATION VALVE B,0,6,False
17,FLOW TEMP,0,7,False
18,COMMON ALARM,0,0,True
19,FIRE ALARM,0,0,True
20,UNDER FLOOR LEAKAGE,0,6,False
21,RETURN TEMP,0,7,False
22,FLOW SW A,0,2,False
23,FLOW SW B,0,2,False
24,FLOW SETPOINT,0,7,False
25,FLOW TEMP,0,7,False
26,RETURN TEMP,0,7,False
27,Control Valve 1 C1,0,7,False
28,Control Valve 2 C2,0,7,False
29,Control Valve 1 C3,0,7,False
30,Control Valve 2 C4,0,7,False
31,Amenities Load Shed,0,2,False
32,Offices Load Shed,0,2,False
33,Offices+AmenitiesPum,0,7,False
34,High Temp,0,7,False
35,Low Temp,0,7,False
36,Pressurisation Alarm,0,2,False
37,Low Water Alarm,0,0,True
38,OFFICES C.W FLOW TEM,0,7,False
39,OFFICES C.W RETURN T,0,7,False
40,H.T C.W CIRC 1 FLOW,0,2,False
41,H.T C.W CIRC 1 RETUR,0,2,False
42,HT C.W CIRC 2 FLOW T,0,2,False
43,HT C.W CIRC 2 RETURN,0,2,False
44,PRIMARY C.W FLOW,0,2,False
45,PRIMARY C.W RETURN,0,2,False
46,CHILLER1 COMP1,0,2,False
47,CHILLER3 COMP2,0,2,False
48,CHILLER3 COMP3,0,2,False
49,CHILLER3 COMP4,0,2,False
50,FLOWTRONIC COMP1,0,2,False
51,FLOWTRONIC COMP2,0,2,False
52,FLOWTRONIC COMP3,0,2,False
53,FLOWTRONIC COMP4,0,2,False
54,FLOWTRON COMM ALARM,0,2,False
55,CHILLER1 COMP2,0,2,False
56,CHILLER1 COMP3,0,2,False
57,CHILLER1 COMP4,0,2,False
58,CHILLER2 COMP1,0,2,False
59,CHILLER2 COMP2,0,2,False
60,CHILLER2 COMP3,0,2,False
61,CHILLER2 COMP4,0,2,False
62,CHILLER3 COMP1,0,2,False
63,LOAD PER COMPRESSOR,0,2,False
64,PHE 1 Control Valve,0,7,False
65,PHE 2 Control Valve,0,7,False
66,1st Stage Frost ,0,7,False
67,Pressurisation Unit,0,2,False
68,Side Stream Filtration Unit,0,2,False
69,Low Ambient Hold Off,0,7,False
70,Chiller Return Temp,0,2,False
71,PHE Lead Lag Diff,0,2,False
72,PHE Lead Temp Adjust,0,6,False
73,Low Limit Diff,0,7,False
74,First Stage Frost,0,7,False
75,High Ambeint HoldOff,0,2,False
76,PHE 1 Control Temp,0,7,False
77,PHE 2 Control Temp,0,7,False
78,Chillers ,0,7,False
79,PHE No1,0,7,False
80,PHE No2,0,7,False
81,CTPump1Fail,0,7,False
82,CTPump2Fail,0,7,False
83,G1 FAIL TO START,1,2,False
84,G1LOW SPEED/LOW VOLT,1,2,False
85,G2 FAIL TO START,1,2,False
86,G2 HIGH WATER TEMP.,1,7,False
87,G2 LOW OIL PRESSURE,1,2,False
88,G2 OVERSPEED FAULT,1,2,False
89,G2 AIR VALVES CLOSED,1,7,False
90,G2 BREAKER TRIPPED,1,7,False
91,G2 REVERSE POWER,1,2,False
92,G2 RAD FAN TRIPPED,1,7,False
93,G2 LOW FUEL WARNING,1,2,False
94,G1 HIGH TEMP,1,7,False
95,G2 LOWSPEED/LOW VOLT,1,2,False
96,G3 FAIL TO START,1,2,False
97,G3 HIGH WATER TEMP,1,7,False
98,G3 LOW OIL PRESSURE,1,2,False
99,G3 OVERSPEED FAULT,1,2,False
100,G3 AIR VALVES CLOSED,1,7,False
101,G3 BREAKER TRIPPED,1,7,False
102,G3 REVERSE POWER,1,2,False
103,G3 RAD FAN TRIPPED,1,7,False
104,G3 LOW FUEL WARNING,1,2,False
105,G1 LOW OIL PRESSURE,1,2,False
106,G3 LOWSPEED/LOW VOLT,1,2,False
107,SIREN SOUNDING,1,2,False
108,2 HIGH WATER TEMP,1,7,False
109,G1 OVERSPEED FAULT,1,2,False
110,G1 AIR VALVES CLOSED,1,7,False
111,G1 BREAKER TRIPPED,1,7,False
112,G1 REVERSE POWER,1,2,False
113,G1 RAD. FAN TRIPPED,1,7,False
114,G1 LOW FUEL WARNING,1,2,False
115,Gas Valve Fail,1,7,False
116,Fire Alarm,1,0,False
117,OAT DATUM,1,2,False
118,OUTSIDE AIR,1,2,False
119,RRA or Normal SP OS9,1,2,False
120,RRAor NormalSP OS9,1,2,False
121,RRApre Period Activ,1,7,False
122,RRA times,1,7,False
123,RRA pre Period activ,1,2,False
124,RRApre Period Activ,1,7,False
125,RRA Times,1,7,False
126,Fire Damper 1,1,0,False
127,Fire Damper 2,1,0,False
128,Fire Damper 3,1,0,False
129,Fire Damper 4,1,0,False
130,Fire Damper 5,1,0,False
131,Fire Damper 6,1,0,False
132,RRA Pre Period Activ,1,2,False
133,RRA TIMES OS9,1,7,False
134,Fire Damper 10,1,0,False
135,Fire Damper 11,1,7,False
136,Fire Damper 12,1,0,False
137,Fire Damper 13,1,0,False
138,Fire Damper 14,1,2,False
139,Fire Damper 15,1,0,False
140,Fire Damper 16,1,2,False
141,Fire Condition,1,2,False
142,Outside Air Temp,1,2,False
143,RRA Pre Period Activ,1,2,False
144,RRA TIMES OS9,1,7,False
145,Fire Damper 7,1,0,False
146,Fire Damper 8,1,0,False
147,Fire Damper 9,1,0,False
148,RRA Pre Period Activ,1,2,False
149,RRA Pre Period Active,1,7,False
150,RRA Pre Period Active,1,7,False
151,RRA or Normal SP OS9,1,2,False
152,RRAor NormalSP OS9,1,2,False
153,RRApre Period Activ,1,7,False
154,RRA times,1,7,False
155,RRA pre Period activ,1,2,False
156,RRApre Period Activ,1,7,False
157,RRA Times,1,7,False
158,RRA Pre Period Activ,1,2,False
159,RRA TIMES OS9,1,7,False
160,RRA Pre Period Activ,1,2,False
161,RRA TIMES OS9,1,7,False
162,RRA Pre Period Activ,1,2,False
163,RRA Pre Period Active,1,7,False
164,RRA Pre Period Active,1,7,False
165,Pre RRA conditioning,1,6,False
166,RR Max,1,2,False
167,RR Min,1,7,False
168,Pre RRA conditioning,1,6,False
169,OAT,1,2,False
170,RR Max,1,2,False
171,RR Min,1,7,False
172,Pre RRA conditioning,1,6,False
173,Pre RRA conditioning,1,6,False
174,Pre RRA conditioning,1,6,False
175,Pre RRA conditioning,1,6,False
176,Pre RRA conditioning,1,6,False
177,RR Max,1,2,False
178,RR Min,1,7,False
179,Heating OAT Hold Off,1,2,False
180,RR Min,1,7,False
181,RR Max,1,2,False
182,Pre RRA conditioning,1,6,False
183,RR Min,1,7,False
184,Pre RRA conditioning,1,6,False
185,Pre RRA conditioning,1,6,False
186,Pre RRA conditioning,1,6,False
187,RR Max,1,2,False
188,Pre RRA conditioning,1,6,False
189,Pre RRA Time Period,1,7,False
190,Pre RRA conditioning,1,6,False
191,UF2 RRAdisable,1,2,False
192,UF3 RRAdisable,1,2,False
193,OH RRAdisable,1,2,False
194,UF1 RRAdisable,1,2,False
195,UF6 RRAdisable,1,2,False
196,UF7 RRAdisable,1,2,False
197,OH C RRAdisbale,1,6,False
198,Z1 RRAdisable,1,6,False
199,Z2 RRAdisable,1,6,False
200,Z3 RRAdisable,1,2,False
201,Z4 RRAdisable,1,2,False
202,Kit RRAdisable,1,7,False
203,Paper RRAdisable,1,2,False
204,Paper RRAdisable,1,2,False
205,Paper RRAdisable,1,2,False
206,RRA Times,1,7,False
207,GAS VALVE CLOSED,2,2,True
208,OIL VALVE CLOSED,2,7,False
209,OIL TANKS SUMP FAIL,2,2,True
210,BOILER FLOW  MAX,2,2,True
211,BOILER FLOW MIN,2,2,True
212,Boiler Return Setpt,2,2,True
213,Boiler Flow Limit,2,2,True
214,2nd Stage Frost,2,2,True
215,FLOW TEMP,2,7,False
216,RETURN TEMP,2,7,False
217,MANUAL DUTY ROTATE,2,2,True
218,Boilers,2,2,True
219,CALORIFIER TEMP,2,6,False
220,CALORIFIER RETURN TE,2,2,True
221, HOT WATER TEMP,2,7,False
222,UPS A LOW BATTERY,5,2,False
223,UPS C CONDITION,5,2,False
224,UPS C LOW BATTERY,5,2,False
225,UPS ROOM TEMPERATURE,5,2,False
226,BATTERY ROOM TEMP,5,7,False
227,UPS A CONDITION,5,2,False
228,UPS A LOW BATTERY,5,2,False
229,UPS C CONDITION,5,2,False
230,UPS C LOW BATTERY,5,2,False
231,UPS ROOM TEMPERATURE,5,2,False
232,BATTERY ROOM TEMP,5,7,False
233,UPS A CONDITION,5,2,False
234,CAV FAN ENABLE,6,6,True
235,CAV HEATING VALVE,6,6,True
236,CAV COOLING VALVE,6,6,True
237,CAV FAN RUNNING,6,7,False
238,CAV FAN TRIPPED,6,7,False
239,OFFICE CAV FAN FAIL,6,7,False
240,Office OOH Enable SP,6,6,True
241,CAV SupAirLoLimStpt,6,2,False
242,CAV SupAirHiLimStpt,6,2,False
243,CAV NOCC SP,6,2,False
244,2nd FLOOR TEMP,6,6,True
245,3rd FLOOR TEMP,6,6,True
246,CAV FLOW TEMP,6,2,False
247,CAV OFF COIL HUMIDIT,6,7,False
248,CAV DP Switch,6,2,False
249,VAV FAN ENABLE,6,6,True
250,$VAV FAN SPEED CONTR,6,7,False
251,VAV COOLING VALVE,6,6,True
252,VAV FAN RUNNING,6,6,True
253,VAV FAN INVERTOR OK,6,6,True
254,VAV SPEED CONTROL,6,7,False
255,VAV CLG VALVE POSN,6,6,True
256,OFFICE VAV FAN FAIL,6,6,True
257,VAV PRESSURE SP,6,2,False
258,VAV COOLING SP,6,6,True
259,VAV PRESSURE 1,6,2,False
260,VAV PRESSURE 2,6,2,False
261,Min Floor Temp,6,6,True
262,OVERHEAD A HEATING,6,6,True
263,OH A COOL DEHUM,6,7,False
264,OVERHEAD A HUMIDITY,6,7,False
265,OVERHEAD UNIT A FANS,6,7,False
266,OH A PRESSURE,6,2,False
267,OH A AUTO SW STATUS,6,2,False
268,OVERHEAD UNIT A FANS,6,7,False
269,O/H 1 PRESS FAILED,6,2,False
270,OH A Cooling,6,6,True
271,OH A Heating,6,6,True
272,OH A TEMPERATURE,6,6,True
273,OH A HUMIDITY,6,7,False
274,OH A TEMP SP,6,6,True
275,OH A PRESSURE SP,6,2,False
276,OH A HUMIDITY SP,6,7,False
277,OH A PRESSURE,6,2,False
278,OH A TEMPERATURE,6,6,True
279,OH A HUMIDITY,6,7,False
280,OH A HTG OVERRIDE,6,6,True
281,OH A CLG OVERRIDE,6,6,True
282,OH A HUM OVERRIDE,6,7,False
283,OH A DEHUM OVERRIDE,6,2,False
284,OH C HEATING,6,6,True
285,OH C COOL DEHUM,6,7,False
286,OH C HUMIDITY,6,7,False
287,OVERHEAD UNIT C FANS,6,7,False
288,OH C PRESSURE,6,2,False
289,OH C AUTO SW STATUS,6,2,False
290,OHC Heating,6,6,True
291,O/H C PRESS FAILED,6,2,False
292,OHC Cooling Valve,6,6,True
293,OHC Humidity,6,7,False
294,OVERHEAD UNIT C TEMP,6,6,True
295,OH C HUMIDITY,6,7,False
296,OH C PRESSURE SP,6,2,False
297,OH C HUMIDITY SP,6,7,False
298,OH C TEMP SP,6,6,True
299,OH C PRESSURE,6,2,False
300,OVERHEAD UNIT C TEMP,6,6,True
301,OH C HUMIDITY,6,7,False
302,U/F C HTG OVERRIDE,6,6,True
303,U/F C CLG OVERRIDE,6,6,True
304,O/H C HUM OVERRIDE,6,7,False
305,O/H C DEHUM OVERRIDE,6,2,False
306,UF 1 HUMIDITY,6,7,False
307,UF 1 COOLING,6,7,False
308,UF 1 COOLING,6,7,False
309,U/F 1 PRESS FAILED,6,2,False
310,UF 1 TEMPERATURE,6,7,False
311,UF 1 HUMIDITY,6,7,False
312,UF 1 PRESSURE,6,2,False
313,UF 1 AUTO SW STATUS,6,2,False
314,UF 1 HUM SP,6,7,False
315,UF 1 TEMP SP,6,2,False
316,UF 1 PRESSURE SP,6,2,False
317,UF 1 TEMPERATURE,6,7,False
318,UF 1 HUMIDITY,6,7,False
319,UF 1 PRESSURE,6,2,False
320,UF 1 OVERRIDE,6,2,False
321,UF 1 TEMP SP,6,2,False
322,UF 2 COOLING,6,7,False
323,UF 2 HUMIDITY,6,7,False
324,UF 2 FANS,6,7,False
325,UF 2 TEMPERATURE,6,7,False
326,UF 2 PRESSURE,6,2,False
327,UF 2 AUTO SW STATUS,6,2,False
328,UF 2 FANS,6,7,False
329,U/F 2 PRESS FAILED,6,2,False
330,UF 2 HUMIDITY,6,7,False
331,UF 2 PRESSURE SP,6,2,False
332,UF 2 HUM SP,6,7,False
333,UF 2 TEMP SP,6,2,False
334,UF 2 TEMPERATURE,6,7,False
335,UF 2 PRESSURE,6,2,False
336,UF 2 HUMIDITY,6,7,False
337,UF 2 OVERRIDE,6,2,False
338,UF 3 HUMIDITY,6,7,False
339,UF 3 COOLING,6,7,False
340,UF 3 FANS,6,7,False
341,UF 3 HUMIDITY,6,7,False
342,UF 3 PRESSURE,6,2,False
343,UF 3 AUTO SW STATUS,6,2,False
344,UF 3 FANS,6,7,False
345,UF 3 TEMPERATURE,6,7,False
346,U/F 3 PRESS FAILED,6,2,False
347,UF 3 PRESSURE SP,6,0,False
348,UF 3 HUM SP,6,7,False
349,UF 3 TEMP SP,6,2,False
350,UF 3 HUMIDITY,6,7,False
351,UF 3 PRESSURE,6,2,False
352,UF 3 TEMPERATURE,6,7,False
353,UF 3 OVERRIDE,6,2,False
354,UF 6 COOLING,6,7,False
355,UF 6 FANS,6,7,False
356,UF 6 HUMIDITY,6,7,False
357,UF 6 TEMPERATURE,6,7,False
358,UF6 Cooling,6,6,True
359,UF6HUM,6,7,False
360,U/F 6 PRESS FAILED,6,2,False
361,UF 6 HUMIDITY,6,7,False
362,UF 6 PRESSURE,6,7,False
363,UF 6 AUTO SW STATUS,6,2,False
364,UF 6 HUMIDITY SP,6,7,False
365,UF 6 TEMP SP,6,7,False
366,UF 6 TEMP SP,6,7,False
367,UF 6 PRESSURE SP,6,0,False
368,UF 6 TEMPERATURE,6,7,False
369,UF 6 HUMIDITY,6,7,False
370,UF 6 PRESSURE,6,7,False
371,U/F 6 CLG OVERRIDE,6,7,False
372,UF 7 HUMIDITY,6,7,False
373,UF 7 COOLING,6,7,False
374,UF 7 FANS,6,7,False
375,UF 7 PRESSURE,6,7,False
376,UF 7 AUTO SW STATUS,6,2,False
377,UF7 Cooling,6,6,True
378,UF 7 TEMPERATURE,6,7,False
379,U/F 7 PRESS FAILED,6,2,False
380,UF7 Humidity,6,7,False
381,UF 7 HUMIDITY,6,7,False
382,UF 7 HUMIDITY SP,6,7,False
383,UF 7 TEMP SP,6,7,False
384,UF 7 PRESSURE SP,6,0,False
385,UF 7 PRESSURE,6,7,False
386,UF 7 TEMPERATURE,6,7,False
387,UF 7 HUMIDITY,6,7,False
388,U/F 7 CLG OVERRIDE,6,7,False
389,Dining Z2 Damper,7,7,True
390,Dining Z3 Damper,7,7,True
391,Dining Z4 Damper,7,7,True
392,Dining Hot Valve,7,6,False
393,Dining Cold Valve,7,6,False
394,Dining FA Dampers,7,7,True
395,Dining Z1 Damper,7,7,True
396,Dining Sup Flow Fail,7,7,True
397,Dining Space SP,7,7,True
398,Z1 Space Setpoint,7,6,False
399,Frost Sp,7,7,True
400,Z2 Space Setpoint,7,6,False
401,Z3 Space Setpoint,7,6,False
402,Z4 Space Setpoint,7,6,False
403,Min FA Setpoint,7,7,True
404,DINING FROST SP,7,7,True
405,Dine Hot Deck SP,7,7,True
406,Dine Cold Deck SP,7,2,False
407,Dining Space 2,7,7,True
408,Dining Hot Deck,7,7,True
409,Dining Cold Deck,7,2,False
410,Dining Area,7,6,False
411,Dining Clg Valve,7,6,False
412,Games + Dining AHU,7,7,True
413,Dining Supply/Extrac,7,2,False
414,Dining AHU Fans,7,7,True
415,GAMES HOT VALVE,7,6,False
416,GAMES Cold Valve,7,6,False
417,GAMES/VIP FA DAMPERS,7,7,True
418,GAMES ROOM DAMPER,7,7,True
419,Supply DP Switch,7,7,True
420,Games Room Space,7,7,True
421,Games Cold Deck SP,7,2,False
422,Games Hot Deck SP,7,7,True
423,Games Fans,7,7,True
424,Games Htg Valve,7,6,False
425,Games-VIP Dampers,7,7,True
426,Games Hot Deck,7,7,True
427,Games Cold Deck,7,2,False
428,Games Duct Frost,7,7,True
429,GAMES ROOM SP,7,7,True
430,Games Cold Deck SP,7,2,False
431,Games Hot Deck SP,7,7,True
432,Games Hot Deck,7,7,True
433,Games Cold Deck,7,2,False
434,Kitchen Htg Valve,7,6,False
435,Kitchen Clg Valve,7,7,True
436,Frost Heaters,7,2,False
437,Kitchen Supply,7,7,True
438,Kitchen Sup Flow Fai,7,7,True
439,Kitchen Frost,7,7,True
440,Kitchen Occ SP,7,7,True
441,Kitchen Frost Level,7,7,True
442,Kitchen Supply SP,7,7,True
443,Htg/Clg Deadband,7,7,True
444,Kitchen Supply,7,7,True
445,Kitchen Occupation,7,6,False
446,Remote Ex Fan Enable,7,6,False
447,Kitchen Supply/Extra,7,7,True
448,Meeting Ahu Fault,7,7,True
449,Meeting Room Ahu,7,7,True
450,AHU INLET DAMPERS,7,7,True
451,AHU EXTRACT DAMPERS,7,7,True
452,AHU MIXING DAMPERS,7,7,True
453,Recirc Dampers,7,7,True
454,FILTERED PRESSURE,7,2,False
455,OFFICE RTN FAN FAIL,7,7,True
456,OCC SPACE SP,7,6,False
457,RET PRESSURE SP,7,2,False
458,DEAD BAND,7,2,False
459,RETURN AIR TEMP,7,7,True
460,RETURN DUCT PRESSURE,7,7,True
461,Office AHU,7,7,True
462,SPACE HUMIDITY SP,7,7,True
463,1ST FLOOR HUM,7,7,True
464,2ND FLOOR HUM,7,7,True
465,3RD FLOOR HUM,7,7,True
466,RETURN DUCT HUMIDITY,7,7,True
467,Paper Htg Valve,7,6,False
468,Paper Clg Valve,7,6,False
469,Paper Store Supply,7,7,True
470,Paper Store Supply,7,7,True
471,PAPER STORE DP,7,6,False
472,Paper Htg Valve,7,6,False
473,Paper Clg Valve,7,6,False
474,Paper Store Fan,7,6,False
475,Paper Supply SP,7,7,True
476,Paper Store Supply,7,7,True
477,PAPER STORE DP,7,6,False
478,Paper Store,7,6,False
479,TOILET EXT 2 FAILED,7,7,True
480,Office Toilet Ext,7,7,True
481,Toilets Ahu Fault,7,7,True
482,Toilet Extract,7,7,True
483,Toilets Ahu,7,7,True
484,VIP Dining Damper,7,7,True
485,VIP Dining Space,7,6,False
486,Frost Sp,7,7,True
487,VIP Space Setpoint,7,6,False
488,VIP Dining Space,7,6,False
489,PUMP A RUN,0,7,False
490,PUMP A TRIP,0,6,False
491,PUMP B TRIP,0,6,False
492,PUMP B RUN,0,7,False
493,Chiller A Flow Temp,0,2,False
494,Chiller A Return Temp,0,2,False
495,Chiller B Flow Temp,0,2,False
496,Chiller B Return Temp,0,2,False
497,Boiler 1,2,2,True
498,BLR 1 3PORT VALVE,2,2,True
499,BOILER 1 HIGHTEMP,2,2,True
500,BOILER 1 LOCKOUT,2,2,True
501,Boiler 2,2,2,True
502,BLR 2 3PORT VALVE,2,2,True
503,BOILER 2 LOCKOUT,2,2,True
504,BOILER 2 HIGHTEMP,2,2,True
505,Boiler 3,2,2,True
506,BLR 3 3PORT VALVE,2,2,True
507,BOILER 3 LOCKOUT,2,2,True
508,BOILER 3 HIGHTEMP,2,2,True
509,GAMES SUPPLY/EXTRACT,7,2,False
510,Meeting Room  Ahu,7,7,True
511,RETURN FAN ENABLE,7,7,True
512,RETURN FAN SPEED CON,7,7,True
513,RETURN FAN RUNNING,7,7,True
514,RTN FAN INVERTOR OK,7,7,True
515,T/LET EXT FAN ENABLE,7,7,True
516,TOILET EXT FAN FAIL,7,7,True
517,Toilet Extract,7,7,True
518,Toilet Extract Fans,7,7,True
519,Toilets Ahu,7,7,True
