,navName
1968,Chiller 1 Enable
1969,Chiller A Fault
1970,Chiller A Isolation Valve
1971,Chiller A Isol Valve OR
1972,Chiller 2 Enable
1973,Chiller B Fault
1974,Chiller B Isolation Valve
1975,Chiller Pumps Flow
1976,Chiller B Isol Valve OR
1977,Chiller Pump 1 Enable
1978,Chiller Pump 1 Fault
1979,Chiller Pump 2 Enable
1980,Chiller Pump 2 Fault
1981,PUMP A RUN
1982,PUMP A TRIP
1983,PUMP B RUN
1984,PUMP B TRIP
1985,FLOW SETPOINT
1986,FLOW TEMP
1987,RETURN TEMP
1988,COMMON ALARM
1989,CONTROL VALVE A
1990,CONTROL VALVE B
1991,FIRE ALARM
1992,FLOW SW A
1993,FLOW SW B
1994,FLOW TEMP
1995,ISOLATION VALVE A
1996,ISOLATION VALVE B
1997,RETURN TEMP
1998,UNDER FLOOR LEAKAGE
1999,Chiller A Flow Temp
2000,Chiller A Return Temp
2001,Chiller B Flow Temp
2002,Chiller B Return Temp
2003,Chiller Return Temp
2004,Chillers
2005,H.T C.W CIRC 1 FLOW
2006,HT C.W CIRC 2 RETURN
2007,PHE No1
2008,PHE No2
2009,1st Stage Frost
2010,Amenities Load Shed
2011,CHILLER1 COMP1
2012,CHILLER1 COMP2
2013,CHILLER1 COMP3
2014,CHILLER1 COMP4
2015,CHILLER2 COMP1
2016,CHILLER2 COMP2
2017,CHILLER2 COMP3
2018,CHILLER2 COMP4
2019,CHILLER3 COMP1
2020,CHILLER3 COMP2
2021,CHILLER3 COMP3
2022,CHILLER3 COMP4
2023,Control Valve 1 C1
2024,Control Valve 1 C3
2025,Control Valve 2 C2
2026,Control Valve 2 C4
2027,First Stage Frost
2028,FLOWTRON COMM ALARM
2029,FLOWTRONIC COMP1
2030,FLOWTRONIC COMP2
2031,FLOWTRONIC COMP3
2032,FLOWTRONIC COMP4
2033,H.T C.W CIRC 1 RETUR
2034,High Ambeint HoldOff
2035,High Temp
2036,HT C.W CIRC 2 FLOW T
2037,LOAD PER COMPRESSOR
2038,Low Ambient Hold Off
2039,Low Limit Diff
2040,Low Temp
2041,Low Water Alarm
2042,OFFICES C.W FLOW TEM
2043,OFFICES C.W RETURN T
2044,Offices Load Shed
2045,Offices+AmenitiesPum
2046,PHE 1 Control Temp
2047,PHE 1 Control Valve
2048,PHE 2 Control Temp
2049,PHE 2 Control Valve
2050,PHE Lead Lag Diff
2051,PHE Lead Temp Adjust
2052,Pressurisation Alarm
2053,Pressurisation Unit
2054,PRIMARY C.W FLOW
2055,PRIMARY C.W RETURN
2056,Side Stream Filtration Unit
2057,CTPump1Fail
2058,CTPump2Fail
2059,2 HIGH WATER TEMP
2060,Fire Alarm
2061,G1 AIR VALVES CLOSED
2062,G1 BREAKER TRIPPED
2063,G1 FAIL TO START
2064,G1 HIGH TEMP
2065,G1 LOW FUEL WARNING
2066,G1 LOW OIL PRESSURE
2067,G1 OVERSPEED FAULT
2068,G1 RAD. FAN TRIPPED
2069,G1 REVERSE POWER
2070,G1LOW SPEED/LOW VOLT
2071,G2 AIR VALVES CLOSED
2072,G2 BREAKER TRIPPED
2073,G2 FAIL TO START
2074,G2 HIGH WATER TEMP.
2075,G2 LOW FUEL WARNING
2076,G2 LOW OIL PRESSURE
2077,G2 LOWSPEED/LOW VOLT
2078,G2 OVERSPEED FAULT
2079,G2 RAD FAN TRIPPED
2080,G2 REVERSE POWER
2081,G3 AIR VALVES CLOSED
2082,G3 BREAKER TRIPPED
2083,G3 FAIL TO START
2084,G3 HIGH WATER TEMP
2085,G3 LOW FUEL WARNING
2086,G3 LOW OIL PRESSURE
2087,G3 LOWSPEED/LOW VOLT
2088,G3 OVERSPEED FAULT
2089,G3 RAD FAN TRIPPED
2090,G3 REVERSE POWER
2091,Gas Valve Fail
2092,SIREN SOUNDING
2093,OUTSIDE AIR
2094,Fire Condition
2095,Fire Damper 1
2096,Fire Damper 10
2097,Fire Damper 11
2098,Fire Damper 12
2099,Fire Damper 13
2100,Fire Damper 14
2101,Fire Damper 15
2102,Fire Damper 16
2103,Fire Damper 2
2104,Fire Damper 3
2105,Fire Damper 4
2106,Fire Damper 5
2107,Fire Damper 6
2108,Fire Damper 7
2109,Fire Damper 8
2110,Fire Damper 9
2111,OAT DATUM
2112,Outside Air Temp
2113,RRA or Normal SP OS9
2114,RRA pre Period activ
2115,RRA Pre Period Activ
2116,RRA Pre Period Activ
2117,RRA Pre Period Activ
2118,RRA Pre Period Active
2119,RRA Pre Period Active
2120,RRA times
2121,RRA Times
2122,RRA TIMES OS9
2123,RRA TIMES OS9
2124,RRAor NormalSP OS9
2125,RRApre Period Activ
2126,RRApre Period Activ
2127,Heating OAT Hold Off
2128,OAT
2129,Pre RRA conditioning
2130,Pre RRA conditioning
2131,Pre RRA conditioning
2132,Pre RRA conditioning
2133,Pre RRA conditioning
2134,Pre RRA conditioning
2135,Pre RRA conditioning
2136,Pre RRA conditioning
2137,Pre RRA conditioning
2138,Pre RRA conditioning
2139,Pre RRA conditioning
2140,Pre RRA conditioning
2141,Pre RRA conditioning
2142,Pre RRA Time Period
2143,RR Max
2144,RR Max
2145,RR Max
2146,RR Max
2147,RR Max
2148,RR Min
2149,RR Min
2150,RR Min
2151,RR Min
2152,RR Min
2153,Kit RRAdisable
2154,OH C RRAdisbale
2155,OH RRAdisable
2156,Paper RRAdisable
2157,Paper RRAdisable
2158,Paper RRAdisable
2159,UF1 RRAdisable
2160,UF2 RRAdisable
2161,UF3 RRAdisable
2162,UF6 RRAdisable
2163,UF7 RRAdisable
2164,Z1 RRAdisable
2165,Z2 RRAdisable
2166,Z3 RRAdisable
2167,Z4 RRAdisable
2168,RRA Times
2169,BLR 1 3PORT VALVE
2170,BOILER 1 HIGHTEMP
2171,Boiler 1
2172,BOILER 1 LOCKOUT
2173,BLR 2 3PORT VALVE
2174,BOILER 2 HIGHTEMP
2175,Boiler 2
2176,BOILER 2 LOCKOUT
2177,BLR 3 3PORT VALVE
2178,BOILER 3 HIGHTEMP
2179,Boiler 3
2180,BOILER 3 LOCKOUT
2181,BOILER FLOW  MAX
2182,Boiler Flow Limit
2183,BOILER FLOW MIN
2184,Boiler Return Setpt
2185,Boilers
2186,FLOW TEMP
2187,RETURN TEMP
2188,2nd Stage Frost
2189,GAS VALVE CLOSED
2190,MANUAL DUTY ROTATE
2191,OIL TANKS SUMP FAIL
2192,OIL VALVE CLOSED
2193,CALORIFIER RETURN TE
2194,CALORIFIER TEMP
2195,HOT WATER TEMP
2196,BATTERY ROOM TEMP
2197,BATTERY ROOM TEMP
2198,UPS A CONDITION
2199,UPS A LOW BATTERY
2200,UPS C CONDITION
2201,UPS C LOW BATTERY
2202,UPS ROOM TEMPERATURE
2203,UPS ROOM TEMPERATURE
2204,2nd FLOOR TEMP
2205,3rd FLOOR TEMP
2206,CAV COOLING VALVE
2207,CAV DP Switch
2208,CAV FAN ENABLE
2209,CAV FLOW TEMP
2210,CAV HEATING VALVE
2211,CAV NOCC SP
2212,CAV SupAirHiLimStpt
2213,CAV SupAirLoLimStpt
2214,CAV FAN RUNNING
2215,CAV FAN TRIPPED
2216,CAV OFF COIL HUMIDIT
2217,OFFICE CAV FAN FAIL
2218,Office OOH Enable SP
2219,Min Floor Temp
2220,$VAV FAN SPEED CONTR
2221,OFFICE VAV FAN FAIL
2222,VAV FAN INVERTOR OK
2223,VAV FAN RUNNING
2224,VAV PRESSURE 1
2225,VAV PRESSURE 2
2226,VAV PRESSURE SP
2227,VAV SPEED CONTROL
2228,VAV CLG VALVE POSN
2229,VAV COOLING SP
2230,VAV COOLING VALVE
2231,VAV FAN ENABLE
2232,OH A COOL DEHUM
2233,OH A Cooling
2234,OH A Heating
2235,OH A TEMP SP
2236,OH A TEMPERATURE
2237,OVERHEAD A HEATING
2238,OVERHEAD UNIT A FANS
2239,O/H 1 PRESS FAILED
2240,OH A AUTO SW STATUS
2241,OH A CLG OVERRIDE
2242,OH A DEHUM OVERRIDE
2243,OH A HTG OVERRIDE
2244,OH A HUM OVERRIDE
2245,OH A HUMIDITY
2246,OH A HUMIDITY
2247,OH A HUMIDITY SP
2248,OH A PRESSURE
2249,OH A PRESSURE
2250,OH A PRESSURE SP
2251,OH A TEMPERATURE
2252,OVERHEAD A HUMIDITY
2253,OVERHEAD UNIT A FANS
2254,OH C COOL DEHUM
2255,OH C HEATING
2256,OH C TEMP SP
2257,OHC Cooling Valve
2258,OHC Heating
2259,OVERHEAD UNIT C FANS
2260,OVERHEAD UNIT C TEMP
2261,O/H C DEHUM OVERRIDE
2262,O/H C HUM OVERRIDE
2263,O/H C PRESS FAILED
2264,OH C AUTO SW STATUS
2265,OH C HUMIDITY
2266,OH C HUMIDITY
2267,OH C HUMIDITY
2268,OH C HUMIDITY SP
2269,OH C PRESSURE
2270,OH C PRESSURE
2271,OH C PRESSURE SP
2272,OHC Humidity
2273,OVERHEAD UNIT C TEMP
2274,U/F C CLG OVERRIDE
2275,U/F C HTG OVERRIDE
2276,U/F 1 PRESS FAILED
2277,UF 1 AUTO SW STATUS
2278,UF 1 HUM SP
2279,UF 1 HUMIDITY
2280,UF 1 HUMIDITY
2281,UF 1 HUMIDITY
2282,UF 1 OVERRIDE
2283,UF 1 PRESSURE
2284,UF 1 PRESSURE
2285,UF 1 PRESSURE SP
2286,UF 1 TEMP SP
2287,UF 1 TEMPERATURE
2288,UF 1 COOLING
2289,UF 1 COOLING
2290,UF 1 TEMP SP
2291,UF 1 TEMPERATURE
2292,U/F 2 PRESS FAILED
2293,UF 2 AUTO SW STATUS
2294,UF 2 FANS
2295,UF 2 HUM SP
2296,UF 2 HUMIDITY
2297,UF 2 HUMIDITY
2298,UF 2 HUMIDITY
2299,UF 2 OVERRIDE
2300,UF 2 PRESSURE
2301,UF 2 PRESSURE
2302,UF 2 PRESSURE SP
2303,UF 2 TEMPERATURE
2304,UF 2 COOLING
2305,UF 2 FANS
2306,UF 2 TEMP SP
2307,UF 2 TEMPERATURE
2308,U/F 3 PRESS FAILED
2309,UF 3 AUTO SW STATUS
2310,UF 3 FANS
2311,UF 3 HUM SP
2312,UF 3 HUMIDITY
2313,UF 3 HUMIDITY
2314,UF 3 HUMIDITY
2315,UF 3 OVERRIDE
2316,UF 3 PRESSURE
2317,UF 3 PRESSURE
2318,UF 3 PRESSURE SP
2319,UF 3 TEMPERATURE
2320,UF 3 COOLING
2321,UF 3 FANS
2322,UF 3 TEMP SP
2323,UF 3 TEMPERATURE
2324,U/F 6 CLG OVERRIDE
2325,U/F 6 PRESS FAILED
2326,UF 6 AUTO SW STATUS
2327,UF 6 HUMIDITY
2328,UF 6 HUMIDITY
2329,UF 6 HUMIDITY
2330,UF 6 HUMIDITY SP
2331,UF 6 PRESSURE
2332,UF 6 PRESSURE
2333,UF 6 PRESSURE SP
2334,UF 6 TEMP SP
2335,UF 6 TEMPERATURE
2336,UF6HUM
2337,UF 6 COOLING
2338,UF 6 FANS
2339,UF 6 TEMP SP
2340,UF 6 TEMPERATURE
2341,UF6 Cooling
2342,U/F 7 CLG OVERRIDE
2343,U/F 7 PRESS FAILED
2344,UF 7 AUTO SW STATUS
2345,UF 7 HUMIDITY
2346,UF 7 HUMIDITY
2347,UF 7 HUMIDITY
2348,UF 7 HUMIDITY SP
2349,UF 7 PRESSURE
2350,UF 7 PRESSURE
2351,UF 7 PRESSURE SP
2352,UF 7 TEMPERATURE
2353,UF7 Humidity
2354,UF 7 COOLING
2355,UF 7 FANS
2356,UF 7 TEMP SP
2357,UF 7 TEMPERATURE
2358,UF7 Cooling
2359,Dining Area
2360,Dining Clg Valve
2361,Dining Cold Valve
2362,Dining FA Dampers
2363,Dining Hot Valve
2364,Dining Space 2
2365,Dining Space SP
2366,Dining Sup Flow Fail
2367,Dining Z1 Damper
2368,Dining Z2 Damper
2369,Dining Z3 Damper
2370,Dining Z4 Damper
2371,Games + Dining AHU
2372,Dine Cold Deck SP
2373,Dine Hot Deck SP
2374,Dining Cold Deck
2375,DINING FROST SP
2376,Dining Hot Deck
2377,Frost Sp
2378,Min FA Setpoint
2379,Z1 Space Setpoint
2380,Z2 Space Setpoint
2381,Z3 Space Setpoint
2382,Z4 Space Setpoint
2383,Dining AHU Fans
2384,Dining Supply/Extrac
2385,Games Cold Deck SP
2386,GAMES Cold Valve
2387,Games Duct Frost
2388,Games Fans
2389,Games Hot Deck SP
2390,GAMES HOT VALVE
2391,Games Htg Valve
2392,GAMES ROOM DAMPER
2393,GAMES ROOM SP
2394,GAMES SUPPLY/EXTRACT
2395,GAMES/VIP FA DAMPERS
2396,Games-VIP Dampers
2397,Games Cold Deck
2398,Games Cold Deck
2399,Games Cold Deck SP
2400,Games Hot Deck
2401,Games Hot Deck
2402,Games Hot Deck SP
2403,Games Room Space
2404,Supply DP Switch
2405,Frost Heaters
2406,Kitchen Clg Valve
2407,Kitchen Frost
2408,Kitchen Htg Valve
2409,Kitchen Occ SP
2410,Kitchen Occupation
2411,Kitchen Sup Flow Fai
2412,Kitchen Supply
2413,Kitchen Supply
2414,Kitchen Supply SP
2415,Htg/Clg Deadband
2416,Kitchen Frost Level
2417,Remote Ex Fan Enable
2418,Kitchen Supply/Extra
2419,Meeting Ahu Fault
2420,Meeting Room Ahu
2421,Meeting Room  Ahu
2422,1ST FLOOR HUM
2423,2ND FLOOR HUM
2424,3RD FLOOR HUM
2425,AHU EXTRACT DAMPERS
2426,AHU INLET DAMPERS
2427,AHU MIXING DAMPERS
2428,OCC SPACE SP
2429,Office AHU
2430,Recirc Dampers
2431,RETURN AIR TEMP
2432,RETURN DUCT HUMIDITY
2433,RETURN FAN ENABLE
2434,RETURN FAN RUNNING
2435,RETURN FAN SPEED CON
2436,RTN FAN INVERTOR OK
2437,DEAD BAND
2438,FILTERED PRESSURE
2439,OFFICE RTN FAN FAIL
2440,RET PRESSURE SP
2441,RETURN DUCT PRESSURE
2442,SPACE HUMIDITY SP
2443,T/LET EXT FAN ENABLE
2444,TOILET EXT FAN FAIL
2445,Paper Clg Valve
2446,Paper Clg Valve
2447,Paper Htg Valve
2448,Paper Htg Valve
2449,PAPER STORE DP
2450,PAPER STORE DP
2451,Paper Store Fan
2452,Paper Store
2453,Paper Store Supply
2454,Paper Store Supply
2455,Paper Store Supply
2456,Paper Supply SP
2457,Office Toilet Ext
2458,Toilet Extract Fans
2459,Toilet Extract
2460,TOILET EXT 2 FAILED
2461,Toilet Extract
2462,Toilets Ahu Fault
2463,Toilets Ahu
2464,Toilets Ahu
2465,Frost Sp
2466,VIP Dining Damper
2467,VIP Dining Space
2468,VIP Dining Space
2469,VIP Space Setpoint
