,0
0,air
1,alarm
2,chilled
3,co2
4,cool
5,damper
6,discharge
7,enable
8,energy
9,entering
10,extract
11,flow
12,frost
13,heat
14,holdOff
15,hot
16,humidifier
17,humidity
18,leaving
19,mixed
20,occupied
21,oneA
22,outside
23,override
24,pressure
25,recirc
26,return
27,run
28,speed
29,temp
30,valve
31,water
32,zone
