,0
0,0.8538134694099426
1,0.8515605479478836
2,0.9279268085956573
3,0.8589647114276886
4,0.9114342331886292
5,0.8783295452594757
6,0.9398675858974457
7,0.9902914762496948
8,0.992106705904007
9,0.9398675858974457
10,0.9902912974357605
11,0.9921171963214874
12,0.8056793510913849
13,0.9855115056037903
14,0.9957832574844361
15,0.7848518192768097
16,0.9160688817501068
17,0.9761993288993835
18,0.9999575614929199
19,0.9915997684001923
20,0.9993256330490112
21,0.9160688817501068
22,0.9279403984546661
23,0.9832375645637512
24,0.999935507774353
25,0.9915997684001923
26,0.9993694424629211
27,0.9997519850730896
28,0.9279289543628693
29,0.9555623531341553
30,0.9995905756950378
31,0.9510884582996368
32,0.7644660472869873
33,0.8957821875810623
34,0.99997878074646
35,0.969978928565979
36,0.969978928565979
37,0.9999692440032959
38,0.9621812999248505
39,0.969978928565979
40,0.9999587535858154
41,0.7932919065157572
42,0.9999579191207886
43,0.796730101108551
44,0.7819143533706665
45,0.9541979134082794
46,0.9541711509227753
47,0.9293762743473053
48,0.9541929662227631
49,0.911979615688324
50,0.9541979134082794
51,0.8730346858501434
52,0.9319992959499359
53,0.9999370574951172
54,0.9998563528060913
55,0.9876775443553925
56,0.8721786737442017
57,0.9941880404949188
58,0.9945888221263885
59,0.9896219372749329
60,0.9708166718482971
61,0.9821817278862
62,0.9693961143493652
63,0.9834131300449371
64,0.9332422167062759
65,0.8888855099678039
66,0.9810537397861481
67,0.9210001349449157
68,0.9490098208189011
69,0.8709115147590637
70,0.8865653514862061
71,0.9534984081983566
72,0.9999411106109619
73,0.9998834133148193
74,0.9999935626983643
75,0.9999886751174927
76,0.9999886751174927
77,0.9999886751174927
78,0.9999886751174927
79,0.9999886751174927
80,0.8800988644361496
81,0.9498351017634074
82,0.9157954007387161
83,0.9820601940155029
84,0.8882046490907669
85,0.9742148915926615
86,0.8872548192739487
87,0.951479434967041
88,0.8796350210905075
89,0.9311308264732361
90,0.8773586004972458
91,0.9535982012748718
92,0.9347965717315674
93,0.9999898672103882
94,0.9999886751174927
95,0.9999758005142212
96,0.9999758005142212
97,0.9999758005142212
98,0.9999758005142212
99,0.9999758005142212
100,0.9999744892120361
101,0.999962568283081
102,0.9999489784240723
103,0.9999489784240723
104,0.9999375343322754
105,0.9999489784240723
106,0.9999489784240723
107,0.9999489784240723
108,0.9999934434890747
109,0.9999489784240723
110,0.9998804330825806
111,0.9999489784240723
112,0.9999489784240723
113,0.9999843835830688
114,0.9999489784240723
115,0.9999803304672241
116,0.7169674634933472
117,0.7710280815760294
118,0.8622416456540426
119,0.7393639882405599
120,0.7851301829020182
121,0.7946948806444804
122,0.6932288209597269
123,0.9999884366989136
124,0.9999884366989136
125,0.9999688863754272
126,0.9578869938850403
127,0.9578869938850403
128,0.9134151339530945
129,0.9818248748779297
130,0.9817079901695251
131,0.9591719508171082
132,0.9578661322593689
133,0.9557540714740753
134,0.9735130071640015
135,0.9519015848636627
136,0.9726243913173676
137,0.9520246982574463
138,0.9578661322593689
139,0.9645178616046906
140,0.9661181271076202
141,0.9726488292217255
142,0.9484358131885529
143,0.972630113363266
144,0.9578661322593689
145,0.9578661322593689
146,0.9278328120708466
147,0.9726227223873138
148,0.9162319898605347
149,0.9628629982471466
150,0.9578661322593689
151,0.9578661322593689
152,0.9588895738124847
153,0.9289478063583374
154,0.9524984061717987
155,0.9726243913173676
156,0.9578661322593689
157,0.9578661322593689
158,0.9750520586967468
159,0.9726243913173676
160,0.9524984061717987
161,0.9726243913173676
162,0.9578661322593689
163,0.9536656141281128
164,0.9923226535320282
165,0.799709677696228
166,0.799709677696228
167,0.7754027843475342
168,0.7754027843475342
169,0.7754027843475342
170,0.7945285737514496
171,0.7754027843475342
172,0.7754027843475342
173,0.7754027843475342
174,0.7754027843475342
175,0.7754027843475342
176,0.7754027843475342
177,0.7754027843475342
178,0.7754027843475342
179,0.7754027843475342
180,0.7754027843475342
181,0.7754027843475342
182,0.799709677696228
183,0.799709677696228
184,0.799709677696228
185,0.9990160465240479
186,0.9988337457180023
187,0.9922730624675751
188,0.9953702092170715
189,0.9968550205230713
190,0.998029887676239
191,0.9969881474971771
192,0.9970239400863647
193,0.9962138533592224
194,0.9982923567295074
195,0.9976880550384521
196,0.9979582130908966
197,0.9972817301750183
198,0.9971611201763153
199,0.976884126663208
200,0.9048260450363159
201,0.9999653100967407
202,0.8437886834144592
203,0.988653689622879
204,0.999962568283081
205,0.9999758005142212
206,0.8824324309825897
207,0.7759910672903061
208,0.9842959046363831
209,0.7644689083099365
210,0.9999852180480957
211,0.9652221202850342
212,0.8370930254459381
213,0.98780357837677
214,0.9800559282302856
215,0.999994158744812
216,0.9887499511241913
217,0.9772197008132935
218,0.8888690769672394
219,0.9999594688415527
220,0.9997864365577698
221,0.9999853372573853
222,0.9999403953552246
223,0.9887499511241913
224,0.991446852684021
225,0.9213594049215317
226,0.9999594688415527
227,0.9995540976524353
228,0.7588445544242859
229,0.7388047575950623
230,0.9450976997613907
231,0.9938129186630249
232,0.9998148083686829
233,0.9963194727897644
234,0.9351724982261658
235,0.9771188795566559
236,0.9818563461303711
237,0.8948673009872437
238,0.9999558925628662
239,0.9351705312728882
240,0.9867523610591888
241,0.9777652323246002
242,0.9036160409450531
243,0.9999135732650757
244,0.9999862909317017
245,0.9999607801437378
246,0.9999946355819702
247,0.9999828338623047
248,0.960241362452507
249,0.9951956272125244
250,0.9999189376831055
251,0.9942246079444885
252,0.9436411559581757
253,0.9411588311195374
254,0.896420955657959
255,0.9998264908790588
256,0.999824583530426
257,0.9999643564224243
258,0.9999574422836304
259,0.9999574422836304
260,0.9999574422836304
261,0.9997322857379913
262,0.9899910092353821
263,0.9990372359752655
264,0.9958771824836731
265,0.9970489859580993
266,0.9783281683921814
267,0.9996336400508881
268,0.989874541759491
269,0.9994101822376251
270,0.9971798300743103
271,0.9972262501716613
272,0.9775857180356979
273,0.9993873834609985
274,0.9888785481452942
275,0.9993493556976318
276,0.9966108083724976
277,0.9971585750579834
278,0.971701443195343
279,0.9997586607933044
280,0.9881383776664734
281,0.9993080794811249
282,0.9966737151145935
283,0.9970351219177246
284,0.9706762284040451
285,0.9991374909877777
286,0.979681670665741
287,0.9983175098896027
288,0.996821129322052
289,0.9967751264572143
290,0.9725543707609177
291,0.9997235238552094
292,0.997320681810379
293,0.9993488490581512
294,0.9967738270759583
295,0.9970855593681336
296,0.970900222659111
297,0.9994204342365265
298,0.9890339374542236
299,0.9991920590400696
300,0.9970315098762512
301,0.9973781108856201
302,0.9683670699596405
303,0.9997235238552094
304,0.9909237027168274
305,0.9994729459285736
306,0.9967892885208129
307,0.9969821810722351
308,0.9723364114761353
309,0.9997235238552094
310,0.9899690747261047
311,0.999344140291214
312,0.9961426019668579
313,0.9968883514404296
314,0.972595751285553
315,0.9997386634349823
316,0.9924357831478119
317,0.9993588924407959
318,0.9967702984809875
319,0.9964351058006287
320,0.9723341763019562
321,0.9997322857379913
322,0.9981882870197296
323,0.9936879575252533
324,0.9874565482139588
325,0.9909179210662842
326,0.9899222254753113
327,0.9996336400508881
328,0.9980718195438385
329,0.9968588650226593
330,0.9938818097114563
331,0.9922035098075866
332,0.9907993872960409
333,0.9996432960033417
334,0.9983766078948975
335,0.9963879287242889
336,0.9870372295379639
337,0.9876342296600342
338,0.9907505114873251
339,0.9996885657310486
340,0.994247317314148
341,0.9992704689502716
342,0.9968791365623474
343,0.9973382472991943
344,0.9720199555158615
345,0.9993725121021271
346,0.9892668426036835
347,0.9990332126617432
348,0.9967752575874329
349,0.9971046328544617
350,0.9723353981971741
351,0.9997225701808929
352,0.979030042886734
353,0.9985010325908661
354,0.9942642211914062
355,0.9957527756690979
356,0.9812870621681213
357,0.9996163249015808
358,0.9810730218887329
359,0.9990454912185669
360,0.9954702138900757
361,0.9956333041191101
362,0.9796802699565887
363,0.9996274411678314
364,0.9820391237735748
365,0.9988719522953033
366,0.995069432258606
367,0.9955821514129639
368,0.9762258231639862
369,0.9993671774864197
370,0.9809530973434448
371,0.9989599585533142
372,0.9937194228172302
373,0.9949575662612915
374,0.9709186255931854
375,0.9997390508651733
376,0.9800100922584534
377,0.9989914000034332
378,0.9946665048599244
379,0.9953588128089905
380,0.9719418287277222
381,0.9990934133529663
382,0.8579946756362915
383,0.9970611035823822
384,0.9951108932495117
385,0.994946277141571
386,0.976196900010109
387,0.9997032582759857
388,0.987034946680069
389,0.9989646971225739
390,0.9948763728141785
391,0.9954510569572449
392,0.974598303437233
393,0.9994001686573029
394,0.9800800681114197
395,0.998715341091156
396,0.9952847123146057
397,0.9958545804023743
398,0.9682696461677551
399,0.9997032582759857
400,0.9816694259643555
401,0.9991999566555023
402,0.9948975801467895
403,0.9952894926071167
404,0.9757798761129379
405,0.9997032582759857
406,0.9808667898178101
407,0.9989572465419769
408,0.9939751267433167
409,0.995212197303772
410,0.975486695766449
411,0.9997200071811676
412,0.9891929626464844
413,0.9989780485630035
414,0.9956859469413757
415,0.9950822114944458
416,0.9789565205574036
417,0.999660313129425
418,0.9888033866882324
419,0.9989307522773743
420,0.9948626041412354
421,0.9957109808921814
422,0.9754690676927567
423,0.999346911907196
424,0.9758069813251495
425,0.9985086619853973
426,0.9948862671852112
427,0.995479428768158
428,0.9757785052061081
429,0.9990501701831818
430,0.977198988199234
431,0.9958462715148926
432,0.9932527899742126
433,0.9940934300422668
434,0.9678213000297546
435,0.9993248879909515
436,0.9927655160427094
437,0.998460054397583
438,0.9955065608024597
439,0.9974021553993225
440,0.9871643483638763
441,0.9990479350090027
442,0.9926490485668182
443,0.9991362690925598
444,0.9967056751251221
445,0.9972907543182373
446,0.9874202013015747
447,0.9992792308330536
448,0.9943017959594727
449,0.9989696741104126
450,0.996537184715271
451,0.9974317073822021
452,0.984481930732727
453,0.9980489611625671
454,0.9919965267181396
455,0.9990810751914978
456,0.9962629795074462
457,0.9974955797195435
458,0.9836178869009018
459,0.99946528673172
460,0.9914474189281464
461,0.9991460144519806
462,0.9963497996330262
463,0.9973504900932312
464,0.9825926721096039
465,0.997839093208313
466,0.9824561774730682
467,0.9975263178348541
468,0.9964708685874939
469,0.9968433856964112
470,0.9844708144664764
471,0.9993258118629456
472,0.9934166669845581
473,0.9993847012519836
474,0.9964635610580445
475,0.9972969055175781
476,0.984252855181694
477,0.9993258118629456
478,0.992743581533432
479,0.999096542596817
480,0.995764970779419
481,0.9973547101020813
482,0.9838863164186478
483,0.9993409514427185
484,0.9945939481258392
485,0.9990600645542145
486,0.996444571018219
487,0.9966105937957763
488,0.984250620007515
489,0.9996550679206848
490,0.9765371084213257
491,0.9981550872325897
492,0.9771404147148133
493,0.9850069403648376
494,0.9914757013320923
495,0.9994691610336304
496,0.976535439491272
497,0.9988552927970886
498,0.9874225497245789
499,0.9886724948883057
500,0.9925331075986227
501,0.9995716512203217
502,0.982081949710846
503,0.9988034963607788
504,0.9839153409004211
505,0.9859706997871399
506,0.9925481279691061
507,0.999355137348175
508,0.9740705192089081
509,0.9989922344684601
510,0.9836854577064514
511,0.9861021757125854
512,0.9914048910140991
513,0.9992908537387848
514,0.995843768119812
515,0.9991793632507324
516,0.9965810179710388
517,0.9975054860115051
518,0.9840822815895081
519,0.9985930621623993
520,0.9920413494110107
521,0.9987552762031555
522,0.9964590430259704
523,0.997389304637909
524,0.9842518419027328
525,0.9988504350185394
526,0.9907739162445068
527,0.9971528053283691
528,0.9947967886924743
529,0.9965384006500244
530,0.9786046296358109
531,0.9993258118629456
532,0.991126537322998
533,0.9990793466567993
534,0.9966140031814575
535,0.9975064158439636
536,0.984523132443428
537,0.999337375164032
538,0.9907535910606384
539,0.999210387468338
540,0.9964706182479859
541,0.9973646402359009
542,0.9829287379980087
543,0.9994044005870819
544,0.9932548403739929
545,0.9992815852165222
546,0.9967924356460571
547,0.9975893497467041
548,0.9795166552066803
549,0.9993258118629456
550,0.9888536930084229
551,0.9991053938865662
552,0.9955936074256897
553,0.9968015432357789
554,0.9832704961299896
555,0.9993258118629456
556,0.9946151971817017
557,0.9991053938865662
558,0.9963065266609192
559,0.9972785711288452
560,0.9818792343139648
561,0.9992883503437042
562,0.992978423833847
563,0.9987758696079254
564,0.9963167071342468
565,0.997147536277771
566,0.9842580705881119
567,0.9993230104446411
568,0.9928278625011444
569,0.9993002414703369
570,0.9961214423179626
571,0.9972235321998596
572,0.9839084595441818
573,0.9993258118629456
574,0.9923373162746429
575,0.9992528259754181
576,0.996421504020691
577,0.9974372625350952
578,0.9837142676115036
579,0.9993258118629456
580,0.992743581533432
581,0.9991053938865662
582,0.9954861760139465
583,0.9967228174209595
584,0.981718510389328
585,0.9997708201408386
586,0.9826976358890533
587,0.9984595775604248
588,0.9931549310684205
589,0.9946526288986206
590,0.9823458641767502
591,0.9996906220912933
592,0.9826038479804993
593,0.9991258680820465
594,0.9954638361930848
595,0.99551442861557
596,0.9877339154481888
597,0.9996990859508514
598,0.9866991341114044
599,0.9989688396453857
600,0.9950610756874084
601,0.9954306721687317
602,0.9870351701974869
603,0.9994892477989197
604,0.9807231724262238
605,0.9990882277488708
606,0.9947230219841003
607,0.9954426288604736
608,0.9853579849004745
609,0.9997871220111847
610,0.979495644569397
611,0.9991495907306671
612,0.9946733832359314
613,0.9952275633811951
614,0.9833878129720688
615,0.9992924928665161
616,0.9728465378284454
617,0.9975376725196838
618,0.9951205611228943
619,0.9948386788368225
620,0.9870076924562454
621,0.9997632503509521
622,0.9957796037197113
623,0.9991107881069183
624,0.9948696613311767
625,0.9953067541122437
626,0.9862944185733795
627,0.9995398819446564
628,0.9835748970508575
629,0.9988147914409637
630,0.9954373478889466
631,0.9958873510360717
632,0.9789925068616867
633,0.9997632503509521
634,0.984378844499588
635,0.9993900954723358
636,0.994896125793457
637,0.995260751247406
638,0.9865857660770416
639,0.9997632503509521
640,0.9826975166797638
641,0.9991019368171692
642,0.9939198017120361
643,0.9947592854499817
644,0.9882945865392685
645,0.9997790455818176
646,0.9950006306171417
647,0.9990653693675995
648,0.9948778986930847
649,0.994429349899292
650,0.9865835309028625
651,0.9997288882732391
652,0.9900262355804443
653,0.9991887509822845
654,0.9949220418930054
655,0.9956312775611877
656,0.9861803203821182
657,0.9994774162769318
658,0.981952041387558
659,0.9987615644931793
660,0.994884705543518
661,0.9953346610069275
662,0.986584484577179
663,0.9995593130588531
664,0.9757328629493713
665,0.9983004629611969
666,0.9956264972686768
667,0.9965148329734802
668,0.9738606512546539
669,0.9993954598903656
670,0.9732636511325836
671,0.998798131942749
672,0.9967936158180237
673,0.9967520594596863
674,0.9744945466518402
675,0.9994567930698395
676,0.9750728607177734
677,0.9986332952976227
678,0.9965516567230225
679,0.9967613458633423
680,0.9702988117933273
681,0.9992150664329529
682,0.973297119140625
683,0.9986709654331207
684,0.9962834239006042
685,0.9967301607131958
686,0.9681574702262878
687,0.9995642304420471
688,0.9718374311923981
689,0.9986160397529602
690,0.996293580532074
691,0.9965523838996887
692,0.9656558483839035
693,0.9988097250461578
694,0.8962251543998718
695,0.9965177178382874
696,0.9965412855148316
697,0.9961095690727234
698,0.9702588766813278
699,0.9995391964912415
700,0.9822122752666473
701,0.9986439943313599
702,0.9964319348335267
703,0.9966338753700257
704,0.9683677703142166
705,0.9992361068725586
706,0.9721505343914032
707,0.9984376132488251
708,0.9966896176338196
709,0.9969229340553284
710,0.9632962644100189
711,0.9995391964912415
712,0.9744386374950409
713,0.9987980723381042
714,0.9964473962783813
715,0.9965326666831971
716,0.9697219580411911
717,0.9995391964912415
718,0.9732823371887207
719,0.998637855052948
720,0.9958007097244262
721,0.996439516544342
722,0.9700849950313568
723,0.9995792210102081
724,0.9835697114467621
725,0.9987559914588928
726,0.9964350700378418
727,0.9958533763885498
728,0.969722107052803
729,0.9997322857379913
730,0.9686005711555481
731,0.998460054397583
732,0.9958771824836731
733,0.9969841599464416
734,0.9745038598775864
735,0.9996336400508881
736,0.968484103679657
737,0.9991362690925598
738,0.9971798300743103
739,0.9970507383346557
740,0.9734126031398773
741,0.9996432960033417
742,0.975869208574295
743,0.9989696741104126
744,0.9968671798706055
745,0.9970730304718017
746,0.9672080129384995
747,0.9993873834609985
748,0.9649876058101654
749,0.9990810751914978
750,0.9966108083724976
751,0.997136902809143
752,0.9663439691066742
753,0.9994146227836609
754,0.9899816513061523
755,0.9983079433441162
756,0.9964266419410706
757,0.9967359185218811
758,0.9692684262990952
759,0.9990639686584473
760,0.9654520452022552
761,0.997948169708252
762,0.9964316964149476
763,0.996653938293457
764,0.9697198122739792
765,0.9984486401081085
766,0.9683420658111572
767,0.9947013258934021
768,0.995204484462738
769,0.9956879854202271
770,0.9599007815122604
771,0.9995391964912415
772,0.9705137014389038
773,0.9986258447170258
774,0.9965866088867188
775,0.9967944741249084
776,0.9704237282276154
777,0.9995647370815277
778,0.9721426963806152
779,0.9988013803958893
780,0.9965403795242309
781,0.9966737031936646
782,0.9681827276945114
783,0.9995391964912415
784,0.9666447043418884
785,0.9986439943313599
786,0.9960096836090088
787,0.9960870385169983
788,0.9678736925125122
789,0.9995391964912415
790,0.9774768948554993
791,0.9986439943313599
792,0.9961880564689636
793,0.9964494824409484
794,0.9659402072429657
795,0.9994592666625977
796,0.9657227396965027
797,0.9981287121772766
798,0.9963481903076172
799,0.9964605808258057
800,0.9697283357381821
801,0.9995312392711639
802,0.9770558178424835
803,0.9990338981151581
804,0.9962997198104858
805,0.9964911103248596
806,0.968727707862854
807,0.9995391964912415
808,0.9706573188304901
809,0.998746782541275
810,0.9963911533355713
811,0.9966614127159119
812,0.9683907181024551
813,0.9995391964912415
814,0.9732823371887207
815,0.9986439943313599
816,0.995723819732666
817,0.9958897709846497
818,0.9648427665233612
819,0.9997322857379913
820,0.9980815052986145
821,0.998460054397583
822,0.9979783892631531
823,0.9983452916145324
824,0.9936778545379639
825,0.9996336400508881
826,0.9979650378227234
827,0.9991362690925598
828,0.9982712626457214
829,0.9982974410057068
830,0.9946198016405106
831,0.9996432960033417
832,0.9982966184616089
833,0.9989696741104126
834,0.9981595635414123
835,0.9985015273094178
836,0.9938744455575943
837,0.9993873834609985
838,0.9979831278324127
839,0.9990810751914978
840,0.9979031920433045
841,0.998565399646759
842,0.993010401725769
843,0.9997586607933044
844,0.9978080987930298
845,0.9991460144519806
846,0.9979660987854004
847,0.9984203100204467
848,0.9919851869344711
849,0.9991374909877777
850,0.9877721667289734
851,0.9975263178348541
852,0.9981135129928589
853,0.9979132056236267
854,0.9938633292913437
855,0.9997235238552094
856,0.9990156292915344
857,0.9991053938865662
858,0.9980749726295471
859,0.9984310746192933
860,0.9934361428022385
861,0.9994204342365265
862,0.9979361593723297
863,0.9988093972206116
864,0.9981036186218262
865,0.9985036849975586
866,0.9896760284900665
867,0.9997235238552094
868,0.9981850981712341
869,0.9993847012519836
870,0.9980816721916199
871,0.9985124945640564
872,0.9936453700065613
873,0.9997235238552094
874,0.9980595707893372
875,0.999096542596817
876,0.9978396654129028
877,0.9983644485473633
878,0.9937524199485779
879,0.9997386634349823
880,0.9990530014038086
881,0.9990600645542145
882,0.9973252654075623
883,0.997244369983673
884,0.990372359752655
885,0.9996885657310486
886,0.9985191524028778
887,0.9991793632507324
888,0.9977098941802979
889,0.9982228755950928
890,0.9923003166913986
891,0.9993725121021271
892,0.9973573386669159
893,0.9987552762031555
894,0.9980676412582398
895,0.9984591245651245
896,0.9936443567276001
897,0.9991220831871033
898,0.9976131021976471
899,0.9971528053283691
900,0.9974610090255738
901,0.9982425928115845
902,0.9928554147481918
903,0.9997322857379913
904,0.989957720041275
905,0.998460054397583
906,0.998532772064209
907,0.998815381526947
908,0.9942304491996765
909,0.9996336400508881
910,0.9898412525653839
911,0.9991362690925598
912,0.9986953616142273
913,0.9986661076545715
914,0.9955039322376251
915,0.9996432960033417
916,0.9921831786632538
917,0.9989696741104126
918,0.9987046122550964
919,0.9989603519439697
920,0.9949423521757126
921,0.9993873834609985
922,0.9888410568237305
923,0.9990810751914978
924,0.9984482407569886
925,0.999024224281311
926,0.9940783083438873
927,0.9997586607933044
928,0.988098680973053
929,0.9991460144519806
930,0.9985111474990844
931,0.9988791346549988
932,0.9930530935525894
933,0.9991374909877777
934,0.9796483814716339
935,0.9975263178348541
936,0.998658561706543
937,0.9983720302581787
938,0.994931235909462
939,0.9997235238552094
940,0.9973135590553284
941,0.9991053938865662
942,0.9986252903938293
943,0.9988898992538452
944,0.9945581704378128
945,0.9994204342365265
946,0.9889973402023315
947,0.9988093972206116
948,0.9985161066055298
949,0.998863697052002
950,0.9907439351081848
951,0.9997235238552094
952,0.9908937215805054
953,0.9993847012519836
954,0.9986267209053039
955,0.9989906668663024
956,0.9947132766246796
957,0.9997235238552094
958,0.9899357855319977
959,0.999096542596817
960,0.9986074209213257
961,0.9989587187767028
962,0.9950211048126221
963,0.9997386634349823
964,0.9924098253250122
965,0.9990600645542145
966,0.9986077308654785
967,0.998474943637848
968,0.9947110414505005
969,0.9997322857379913
970,0.989957720041275
971,0.998460054397583
972,0.9958771824836731
973,0.9969841599464416
974,0.9745038598775864
975,0.9996336400508881
976,0.9898412525653839
977,0.9991362690925598
978,0.9971798300743103
979,0.9970507383346557
980,0.9734126031398773
981,0.9996885657310486
982,0.9942280650138855
983,0.9991793632507324
984,0.9983455896377563
985,0.9987299799919128
986,0.9945853799581528
987,0.9993725121021271
988,0.9892335534095764
989,0.9987552762031555
990,0.9986126899719239
991,0.9989179491996765
992,0.9947122633457184
993,0.9991220831871033
994,0.9871786534786224
995,0.9971528053283691
996,0.9979884624481201
997,0.9987170338630676
998,0.993645966053009
999,0.9997235238552094
1000,0.9876387715339661
1001,0.9990793466567993
1002,0.9987117052078247
1003,0.9989926099777222
1004,0.9949447512626648
1005,0.9997350871562958
1006,0.987063467502594
1007,0.999210387468338
1008,0.9989767909049988
1009,0.9991511821746826
1010,0.9951885789632797
1011,0.9998021125793457
1012,0.9904470443725586
1013,0.9992815852165222
1014,0.9984760403633117
1015,0.9987892746925354
1016,0.9940057396888733
1017,0.9997235238552094
1018,0.9844212532043457
1019,0.9991053938865662
1020,0.9985692739486695
1021,0.9988879442214966
1022,0.9947271198034286
1023,0.9997235238552094
1024,0.9926023781299591
1025,0.9991053938865662
1026,0.9986025333404541
1027,0.9989193320274353
1028,0.9942760020494461
1029,0.999686062335968
1030,0.990437775850296
1031,0.9987758696079254
1032,0.9984798669815064
1033,0.9986761808395386
1034,0.9947184920310974
1035,0.9997207224369049
1036,0.9899829626083374
1037,0.9993002414703369
1038,0.9986074090003967
1039,0.9989616274833679
1040,0.9945601969957352
1041,0.9997235238552094
1042,0.9877579808235168
1043,0.9992528259754181
1044,0.9985846638679504
1045,0.9989659070968628
1046,0.9941746890544891
1047,0.9997235238552094
1048,0.9899357855319977
1049,0.9991053938865662
1050,0.9984234690666198
1051,0.9987760305404663
1052,0.9938477426767349
1053,0.9997322857379913
1054,0.989957720041275
1055,0.998460054397583
1056,0.9958771824836731
1057,0.9969841599464416
1058,0.9745038598775864
1059,0.9996336400508881
1060,0.9898412525653839
1061,0.9991362690925598
1062,0.9971798300743103
1063,0.9970507383346557
1064,0.9734126031398773
1065,0.9996432960033417
1066,0.9921831786632538
1067,0.9989696741104126
1068,0.9968671798706055
1069,0.9970730304718017
1070,0.9672080129384995
1071,0.9993873834609985
1072,0.9888410568237305
1073,0.9990810751914978
1074,0.9966108083724976
1075,0.997136902809143
1076,0.9663439691066742
1077,0.9997586607933044
1078,0.988098680973053
1079,0.9991460144519806
1080,0.9966737151145935
1081,0.9969918131828308
1082,0.9653187543153763
1083,0.9991374909877777
1084,0.9796483814716339
1085,0.9975263178348541
1086,0.996821129322052
1087,0.9964847087860107
1088,0.9671968966722488
1089,0.9997235238552094
1090,0.9973135590553284
1091,0.9991053938865662
1092,0.9967738270759583
1093,0.9970025777816772
1094,0.9652143120765686
1095,0.9994204342365265
1096,0.9889973402023315
1097,0.9988093972206116
1098,0.9970315098762512
1099,0.9972744703292846
1100,0.9630095958709717
1101,0.9997235238552094
1102,0.9908937215805054
1103,0.9993847012519836
1104,0.9967892885208129
1105,0.9969565749168396
1106,0.9669789373874664
1107,0.9997235238552094
1108,0.9899357855319977
1109,0.999096542596817
1110,0.9961426019668579
1111,0.9968224287033081
1112,0.9668233096599579
1113,0.9997386634349823
1114,0.9924098253250122
1115,0.9990600645542145
1116,0.9967702984809875
1117,0.9962891936302185
1118,0.9669767022132874
1119,0.9996885657310486
1120,0.9942280650138855
1121,0.9991793632507324
1122,0.9968791365623474
1123,0.9972412824630738
1124,0.9666624814271927
1125,0.9993725121021271
1126,0.9892335534095764
1127,0.9987552762031555
1128,0.9967752575874329
1129,0.9970306277275085
1130,0.9669779241085052
1131,0.9991220831871033
1132,0.9871786534786224
1133,0.9971528053283691
1134,0.9956035614013672
1135,0.9961678981781006
1136,0.9544902741909027
1137,0.9974247813224792
1138,0.9822676181793213
1139,0.9930880665779114
1140,0.9926326870918274
1141,0.9944012522697449
1142,0.857299268245697
1143,0.9970308840274811
1144,0.983656257390976
1145,0.9966019093990326
1146,0.9948612570762634
1147,0.9948042511940003
1148,0.964264969031016
1149,0.9971933960914612
1150,0.9873133897781372
1151,0.9945412576198578
1152,0.9946853041648864
1153,0.9950152397155761
1154,0.9673080643018087
1155,0.9938527345657349
1156,0.9820347130298615
1157,0.99708092212677
1158,0.9935205101966857
1159,0.9951314568519593
1160,0.8854451477527618
1161,0.9982533752918243
1162,0.9808933138847351
1163,0.996023565530777
1164,0.9934033989906311
1165,0.9940322637557983
1166,0.8403592854738235
1167,0.9915514290332794
1168,0.9652506113052368
1169,0.9798310101032257
1170,0.9939635872840882
1171,0.9932363033294678
1172,0.9638106028238932
1173,0.9977061152458191
1174,0.9955250024795532
1175,0.9955722093582153
1176,0.9940536618232727
1177,0.994760525226593
1178,0.9623158971468607
1179,0.9945021867752075
1180,0.9822694063186646
1181,0.9933825731277466
1182,0.9942789912223816
1183,0.9948907375335694
1184,0.936782439549764
1185,0.9977061152458191
1186,0.9852684140205383
1187,0.9976541697978973
1188,0.9940771698951721
1189,0.9947819232940673
1190,0.9623158971468607
1191,0.9977061152458191
1192,0.9837517440319061
1193,0.995506763458252
1194,0.9931193113327026
1195,0.9943817496299744
1196,0.9709842999776205
1197,0.9977261424064636
1198,0.9877564609050751
1199,0.9948048889636993
1200,0.9940560936927796
1201,0.993072259426117
1202,0.9623141487439474
1203,0.9971064627170563
1204,0.8200967013835907
1205,0.9979307651519775
1206,0.9828838229179382
1207,0.9893306255340576
1208,0.963657001654307
1209,0.9976536333560944
1210,0.9906372129917145
1211,0.9968387484550476
1212,0.9939233422279358
1213,0.9947347044944763
1214,0.9607593417167664
1215,0.9840963780879974
1216,0.9827432930469513
1217,0.977808952331543
1218,0.9940235376358032
1219,0.9946766138076782
1220,0.9623149434725443
1221,0.997277557849884
1222,0.9793844521045685
1223,0.992644727230072
1224,0.9917622089385987
1225,0.993711256980896
1226,0.9542936086654663
1227,0.9977061152458191
1228,0.9801294505596161
1229,0.9953791499137878
1230,0.9943142652511596
1231,0.9949332475662231
1232,0.9645351568857828
1233,0.9977201819419861
1234,0.9792056381702423
1235,0.996484249830246
1236,0.9944410204887391
1237,0.9949527382850647
1238,0.9679029782613119
1239,0.9978095889091492
1240,0.984684556722641
1241,0.9956227838993073
1242,0.9944159746170044
1243,0.9950557947158813
1244,0.9684070348739624
1245,0.9977061152458191
1246,0.9750895202159882
1247,0.9955722093582153
1248,0.9934454441070557
1249,0.9939529061317444
1250,0.9597121874491373
1251,0.997648149728775
1252,0.984508216381073
1253,0.9961264133453369
1254,0.9949061155319214
1255,0.9956079959869385
1256,0.9775543808937073
1257,0.9977540075778961
1258,0.990313857793808
1259,0.9973553419113159
1260,0.994024646282196
1261,0.9949963331222534
1262,0.9692026774088541
1263,0.9977061152458191
1264,0.9803169965744019
1265,0.9966696500778198
1266,0.9940771698951721
1267,0.9949373245239258
1268,0.9623158971468607
1269,0.9977061152458191
1270,0.9837517440319061
1271,0.9955722093582153
1272,0.9929646253585815
1273,0.993656849861145
1274,0.9552243749300638
1275,0.9997252523899078
1276,0.9898886680603027
1277,0.9987757503986359
1278,0.9957781314849854
1279,0.9968826532363891
1280,0.9900410572687784
1281,0.9996284544467926
1282,0.9897466003894806
1283,0.9992809295654297
1284,0.9975005030632019
1285,0.9973869800567627
1286,0.9925789833068848
1287,0.9996350705623627
1288,0.9920922815799713
1289,0.9992740750312805
1290,0.9968015551567078
1291,0.9970527172088623
1292,0.9908874829610189
1293,0.9993783235549927
1294,0.9887637197971344
1295,0.9992060363292694
1296,0.9965414643287659
1297,0.9970189690589905
1298,0.9897351463635763
1299,0.9997490048408508
1300,0.9880123734474182
1301,0.9992355108261108
1302,0.9966065645217895
1303,0.9968979954719543
1304,0.9883689483006796
1305,0.9991171061992645
1306,0.9783478081226349
1307,0.9979208409786224
1308,0.9967544794082641
1309,0.9965269804000855
1310,0.9908716678619385
1311,0.9997141659259796
1312,0.9972281754016876
1313,0.999214231967926
1314,0.996706485748291
1315,0.9969240188598633
1316,0.9905813336372375
1317,0.9994110763072968
1318,0.9889119565486908
1319,0.9990007877349854
1320,0.996982741355896
1321,0.9972422480583191
1322,0.9852888782819113
1323,0.9997141659259796
1324,0.9908083379268646
1325,0.9994003474712372
1326,0.9967226505279541
1327,0.9968445420265197
1328,0.9905813336372375
1329,0.9997141659259796
1330,0.9898504018783569
1331,0.9992078840732574
1332,0.9954659461975097
1333,0.9961363196372985
1334,0.9911072055498759
1335,0.9997301995754242
1336,0.99236860871315
1337,0.9991207718849182
1338,0.9967018842697144
1339,0.99633709192276
1340,0.9905786315600077
1341,0.9996758103370667
1342,0.9941529035568237
1343,0.9992210268974304
1344,0.9968257546424866
1345,0.9971949458122253
1346,0.9901594320933024
1347,0.999363511800766
1348,0.9891603887081146
1349,0.9988860487937927
1350,0.9967099905014039
1351,0.9969489455223084
1352,0.9905794262886047
1353,0.9990602135658264
1354,0.9870822131633759
1355,0.9970731437206268
1356,0.9958486437797547
1357,0.9963464856147766
1358,0.9876860777537028
1359,0.999702662229538
1360,0.989812582731247
1361,0.9983739852905273
1362,0.9962099432945252
1363,0.9973617196083069
1364,0.8728445023298264
1365,0.9995892643928528
1366,0.9896425604820251
1367,0.9990440011024475
1368,0.9973573446273803
1369,0.9973678946495056
1370,0.9909051656723022
1371,0.9993576407432556
1372,0.9887173771858215
1373,0.9989852011203766
1374,0.9968369483947754
1375,0.9974903464317322
1376,0.9896212220191956
1377,0.9997240006923676
1378,0.9879573583602905
1379,0.9990354776382446
1380,0.9968990325927735
1381,0.9973563432693482
1382,0.988162616888682
1383,0.9990656673908234
1384,0.9776520729064941
1385,0.9979532659053802
1386,0.9977079153060913
1387,0.9976349472999573
1388,0.8849399387836456
1389,0.9996905326843262
1390,0.9976450204849243
1391,0.9990017414093018
1392,0.9972789287567139
1393,0.9973717927932739
1394,0.9905245105425516
1395,0.9997256696224213
1396,0.987535297870636
1397,0.9979492425918579
1398,0.9948511242866516
1399,0.9969477176666259
1400,0.9872041344642639
1401,0.9996287524700165
1402,0.9873966574668884
1403,0.9988886713981628
1404,0.9970622897148133
1405,0.9970327734947204
1406,0.9875631729761759
1407,0.9996355473995209
1408,0.9903170466423035
1409,0.9986785650253296
1410,0.9967383742332458
1411,0.9970378518104553
1412,0.9875155886014303
1413,0.9993788599967957
1414,0.9861225485801697
1415,0.9988228976726532
1416,0.9964912533760071
1417,0.997178316116333
1418,0.9864147901535034
1419,0.9997322857379913
1420,0.989957720041275
1421,0.998460054397583
1422,0.9958771824836731
1423,0.9969841599464416
1424,0.9745038598775864
1425,0.9996336400508881
1426,0.9898412525653839
1427,0.9991362690925598
1428,0.9971798300743103
1429,0.9970507383346557
1430,0.9734126031398773
1431,0.9996432960033417
1432,0.9921831786632538
1433,0.9989696741104126
1434,0.9968671798706055
1435,0.9970730304718017
1436,0.9672080129384995
1437,0.9993873834609985
1438,0.9888410568237305
1439,0.9990810751914978
1440,0.9966108083724976
1441,0.997136902809143
1442,0.9663439691066742
1443,0.9997586607933044
1444,0.988098680973053
1445,0.9991460144519806
1446,0.9966737151145935
1447,0.9969918131828308
1448,0.9653187543153763
1449,0.9991374909877777
1450,0.9796483814716339
1451,0.9975263178348541
1452,0.996821129322052
1453,0.9964847087860107
1454,0.9671968966722488
1455,0.9997235238552094
1456,0.9973135590553284
1457,0.9991053938865662
1458,0.9967738270759583
1459,0.9970025777816772
1460,0.9652143120765686
1461,0.9041652679443359
1462,0.9994528889656067
1463,0.989957720041275
1464,0.9944114983081818
1465,0.998442530632019
1466,0.9984571933746338
1467,0.9931831806898117
1468,0.999253123998642
1469,0.9898412525653839
1470,0.9985321164131165
1471,0.9969493627548218
1472,0.997044050693512
1473,0.9844857752323151
1474,0.9991955161094666
1475,0.9921831786632538
1476,0.9977710843086243
1477,0.9970950722694397
1478,0.9971629500389099
1479,0.980255663394928
1480,0.9981618523597717
1481,0.9888410568237305
1482,0.987511396408081
1483,0.9963356971740722
1484,0.997084093093872
1485,0.9765724390745163
1486,0.9994684755802155
1487,0.988098680973053
1488,0.9986065030097961
1489,0.9970078587532043
1490,0.9972037553787232
1491,0.980275496840477
1492,0.9981103539466858
1493,0.9796483814716339
1494,0.9957945942878723
1495,0.996728777885437
1496,0.9966499090194703
1497,0.9816212505102158
1498,0.9993495941162109
1499,0.9973135590553284
1500,0.9985195994377136
1501,0.9967203378677368
1502,0.997002124786377
1503,0.9799109846353531
1504,0.9993495941162109
1505,0.9908937215805054
1506,0.9990368783473969
1507,0.9970621943473816
1508,0.9970521807670594
1509,0.981465220451355
1510,0.9993495941162109
1511,0.9899357855319977
1512,0.9985032677650452
1513,0.996575140953064
1514,0.9973540067672729
1515,0.982875794172287
1516,0.9993705451488495
1517,0.9924098253250122
1518,0.9984020292758942
1519,0.9970434188842774
1520,0.9962985038757324
1521,0.9814631640911102
1522,0.9992871284484863
1523,0.9934446513652802
1524,0.9987230896949768
1525,0.9971282958984375
1526,0.9975692510604859
1527,0.9743612557649612
1528,0.9984232187271118
1529,0.9892335534095764
1530,0.9980010092258453
1531,0.9969907641410828
1532,0.99722740650177
1533,0.9814641773700714
1534,0.999717503786087
1535,0.9782825708389282
1536,0.9981896877288818
1537,0.9805781841278076
1538,0.9870860338211059
1539,0.991943379243215
1540,0.9996060729026794
1541,0.9782210886478424
1542,0.9989739656448364
1543,0.9924618005752563
1544,0.9926151871681214
1545,0.9926077723503113
1546,0.8521279841661453
1547,0.9999798536300659
1548,0.9999858140945435
1549,0.9999688863754272
1550,0.9999855756759644
1551,0.8865837901830673
1552,0.9825632572174072
1553,0.928330659866333
1554,0.9205670952796936
1555,0.9205670952796936
1556,0.9999465942382812
1557,0.9639163315296173
1558,0.9999575614929199
1559,0.9742909073829651
1560,0.8954175710678101
1561,0.9999176263809204
1562,0.8705604473749796
1563,0.989111989736557
1564,0.7605840861797333
1565,0.9826026260852814
1566,0.9999706745147705
1567,0.8903465569019318
1568,0.938768744468689
1569,0.9999765157699585
1570,0.9605934321880341
1571,0.7605840861797333
1572,0.967757910490036
1573,0.9999706745147705
1574,0.8230890035629272
1575,0.9525076448917389
1576,0.9999524354934692
1577,0.9999685287475586
1578,0.9839494824409485
1579,0.9999706745147705
1580,0.9221134185791016
1581,0.9598256647586823
1582,0.8903375566005707
1583,0.8903426229953766
1584,0.8608664870262146
1585,0.8315733075141907
1586,0.9960325658321381
1587,0.8915947079658508
1588,0.9960325658321381
1589,0.8989632278680801
1590,0.9987817406654358
1591,0.8191591024398803
1592,0.9987817406654358
1593,0.8989036679267883
1594,0.9987817406654358
1595,0.9363027413686117
1596,0.9998898506164551
1597,0.9180315136909485
1598,0.8574070781469345
1599,0.9689397811889648
1600,0.9983978271484375
1601,0.999962568283081
1602,0.9999525547027588
1603,0.9999035596847534
1604,0.9999545812606812
1605,0.9748034775257111
1606,0.9016611456871033
1607,0.9173027396202087
1608,0.7752940456072489
1609,0.726174553235372
1610,0.9986706078052521
1611,0.8932343324025472
1612,0.9388483464717865
1613,0.9826352149248123
1614,0.9312199354171753
1615,0.8875254988670349
1616,0.999606192111969
1617,0.9815874844789505
1618,0.9714516202608744
1619,0.8213237673044205
1620,0.9999179840087891
1621,0.9597056210041046
1622,0.8684537410736084
1623,0.9999628067016602
1624,0.9998406171798706
1625,0.882720947265625
1626,0.999606192111969
1627,0.9996042847633362
1628,0.9995297193527222
1629,0.9996424913406372
1630,0.9998712539672852
1631,0.9993165731430054
1632,0.9877301454544067
1633,0.9998063445091248
1634,0.9275086323420206
1635,0.8641173044840494
1636,0.9999911785125732
1637,0.9999617338180542
1638,0.9999945163726807
1639,0.9683061838150024
1640,0.9791158239046732
1641,0.9634071588516235
1642,0.9636784791946411
1643,0.9999628067016602
1644,0.9680452048778534
1645,0.9999649524688721
1646,0.9573147594928741
1647,0.9995049238204956
1648,0.9998712539672852
1649,0.9999443292617798
1650,0.9877301454544067
1651,0.9994660019874573
1652,0.9984884262084961
1653,0.888033002614975
1654,0.9999576807022095
1655,0.999971866607666
1656,0.9998291730880737
1657,0.9724013805389404
1658,0.9138630330562592
1659,0.9311969131231308
1660,0.9818360606829325
1661,0.9999679327011108
1662,0.9561449885368347
1663,0.9742754101753235
1664,0.9994340538978577
1665,0.999619722366333
1666,0.9887153208255768
1667,0.9923485815525055
1668,0.9867754578590393
1669,0.992646187543869
1670,0.9829298257827759
1671,0.9811375141143799
1672,0.9985091090202332
1673,0.984455406665802
1674,0.9665429294109344
1675,0.999921441078186
1676,0.9789037704467773
1677,0.9999576807022095
1678,0.9999727010726929
1679,0.9998291730880737
1680,0.8702183365821838
1681,0.982982337474823
1682,0.971563845872879
1683,0.6842941443125407
1684,0.9996567964553833
1685,0.9696876108646393
1686,0.9999444484710693
1687,0.9742633700370789
1688,0.9999444484710693
1689,0.9839743673801422
1690,0.9955353736877441
1691,0.9129121601581573
1692,0.8115565478801727
1693,0.9999456405639648
1694,0.9374352991580963
1695,0.9648989886045456
1696,0.9996160268783569
1697,0.8450736999511719
1698,0.88135826587677
1699,0.9950837194919586
1700,0.9999933242797852
1701,0.9844113290309906
1702,0.9999548196792603
1703,0.9902697503566742
1704,0.9230073094367981
1705,0.9865271747112274
1706,0.9997983574867249
1707,0.9999455213546753
1708,0.8515194356441498
1709,0.9998757839202881
1710,0.9999444484710693
1711,0.9999511241912842
1712,0.9929294288158417
1713,0.9810067117214203
1714,0.9910000860691071
1715,0.8741744458675385
1716,0.997865617275238
1717,0.9972510635852814
1718,0.9999511241912842
1719,0.9999444484710693
1720,0.9683469235897064
1721,0.9084749966859818
1722,0.9225428849458694
1723,0.9396211206912994
1724,0.9999533891677856
1725,0.9999533891677856
1726,0.999904990196228
1727,0.9999370574951172
1728,0.9838148653507233
1729,0.9995872378349304
1730,0.999904990196228
1731,0.9999370574951172
1732,0.9865582883358002
1733,0.9058919697999954
1734,0.910426676273346
1735,0.9823707640171051
1736,0.9994832277297974
1737,0.7822630107402802
1738,0.9865201910336813
1739,0.8292707651853561
1740,0.8817245960235596
1741,0.9828773438930511
1742,0.8255913555622101
1743,0.9828861057758331
1744,0.8654812574386597
1745,0.9828734695911407
1746,0.9488831758499146
1747,0.9961991310119629
1748,0.8588414937257767
1749,0.9944639503955841
1750,0.947358176112175
1751,0.990666538476944
1752,0.9999370574951172
1753,0.9991986155509949
1754,0.8879590034484863
1755,0.9901483356952667
1756,0.9800204932689667
1757,0.9972510635852814
1758,0.9999464750289917
1759,0.9997143149375916
1760,0.9992355108261108
1761,0.9997143149375916
1762,0.9999547004699707
1763,0.9996594190597534
1764,0.9998868703842163
1765,0.9999595880508423
1766,0.8899087607860565
1767,0.9569185525178909
1768,0.9519504606723785
1769,0.9652369320392609
1770,0.9998021721839905
1771,0.9594963788986206
1772,0.9998832941055298
1773,0.9920539061228434
1774,0.9365541487932205
1775,0.9760438948869705
1776,0.9728118032217026
1777,0.9454304128885269
1778,0.9934434294700623
1779,0.9998171925544739
1780,0.9997140765190125
1781,0.9998712539672852
1782,0.9996702671051025
1783,0.9999911785125732
1784,0.9955933392047882
1785,0.9999617338180542
1786,0.9999945163726807
1787,0.9934422373771667
1788,0.9540892243385315
1789,0.9498766859372457
1790,0.9999628067016602
1791,0.9783036410808563
1792,0.9998899698257446
1793,0.9877301454544067
1794,0.9998114705085754
1795,0.9997360110282898
1796,0.9998712539672852
1797,0.9998478889465332
1798,0.8510967791080475
1799,0.7979250550270081
1800,0.8846490681171417
1801,0.9979401528835297
1802,0.9131868481636047
1803,0.9699473679065704
1804,0.8081648747126261
1805,0.7918049395084381
1806,0.999606192111969
1807,0.9840056151151657
1808,0.9714516202608744
1809,0.7919920384883881
1810,0.9960447549819946
1811,0.9010655283927917
1812,0.9547005891799927
1813,0.9999786615371704
1814,0.9998890161514282
1815,0.7918049395084381
1816,0.999606192111969
1817,0.9716106057167053
1818,0.9994558691978455
1819,0.9986181259155273
