,Label,Predicted Category,Prob.,Real Cateogry,Prob.,Success?,Discard?
0,compressor house fans d,Terminals,0.9731165170669556,Heating,0.016903014853596687,False,False
1,compressed air pressure s,Heating,0.9992468357086182,Heating,0.9992468357086182,True,False
2,compressions air met s,Ventilation,1.0,Ventilation,1.0,True,False
3,compressor air high pressure sp k,Terminals,0.9875511527061462,Terminals,0.9875511527061462,True,False
4,compressor air low pressure sp k,Terminals,0.999760091304779,Terminals,0.999760091304779,True,False
5,compressor extract fan sp k,Terminals,0.9814985394477844,Terminals,0.9814985394477844,True,False
6,compressor house temp s,Terminals,0.9812830686569214,Terminals,0.9812830686569214,True,False
7,compressor fault i,Ventilation,0.9999310970306396,Ventilation,0.9999310970306396,True,False
8,compressor fault i,Ventilation,0.9999995231628418,Ventilation,0.9999995231628418,True,False
9,compressor fault i,Ventilation,0.9891198873519897,Ventilation,0.9891198873519897,True,False
10,compressor fault i,Terminals,0.7975032925605774,Ventilation,0.2022227644920349,False,False
11,compressor fault i,Ventilation,0.9992819428443909,Ventilation,0.9992819428443909,True,False
12,compressor extract fans fault i,Heating,0.8452723026275635,Heating,0.8452723026275635,True,False
13,condenser unit fault i,Terminals,0.9991605281829834,Terminals,0.9991605281829834,True,False
14,cryo compressor fault i,Ventilation,0.9094282388687134,Heating,0.07662505656480789,False,False
15,cryo unit fault i,Terminals,0.9999980926513672,Terminals,0.9999980926513672,True,False
16,compressor air hi-pressure i,Ventilation,0.9999653100967407,Ventilation,0.9999653100967407,True,False
17,compressor air lo-pressure i,Terminals,0.9999737739562988,Terminals,0.9999737739562988,True,False
18,compress air pulse i,Ventilation,0.9999709129333496,Ventilation,0.9999709129333496,True,False
19,compressor running i,Terminals,0.9992411136627197,Terminals,0.9992411136627197,True,False
20,compressor running i,Ventilation,0.897614061832428,Ventilation,0.897614061832428,True,False
21,compressor running i,Cooling,0.9998605251312256,Cooling,0.9998605251312256,True,False
22,compressor running i,Ventilation,0.9999725818634033,Ventilation,0.9999725818634033,True,False
23,compressor running i,Ventilation,0.9999295473098755,Ventilation,0.9999295473098755,True,False
24,compressor extract fans running i,Ventilation,0.9999977350234985,Ventilation,0.9999977350234985,True,False
25,condenser high ph level i,Ventilation,0.9999998807907104,Ventilation,0.9999998807907104,True,False
26,potable cws booster d,Terminals,0.9999980926513672,Terminals,0.9999980926513672,True,False
27,potable low water d,Ventilation,0.8083603382110596,Globals,0.04625391587615013,False,False
28,potable tank level k,Ventilation,0.9998779296875,Ventilation,0.9998779296875,True,False
29,potable booster fault i,Terminals,0.8996289372444153,Ventilation,0.10004106909036636,False,False
30,potable tracehtg fault i,Ventilation,0.9999418258666992,Ventilation,0.9999418258666992,True,False
31,potable tank level s,Heating,0.9996203184127808,Heating,0.9996203184127808,True,False
32,potable water tank temp s,Ventilation,0.9998868703842163,Ventilation,0.9998868703842163,True,False
33,potable cws booster z,Ventilation,0.9999934434890747,Ventilation,0.9999934434890747,True,False
34,process cws booster d,Terminals,0.8996289372444153,Terminals,0.8996289372444153,True,False
35,process low water d,Ventilation,0.999996542930603,Ventilation,0.999996542930603,True,False
36,process tank level k,Terminals,0.8219982385635376,Terminals,0.8219982385635376,True,False
37,process booster fault i,Ventilation,1.0,Ventilation,1.0,True,False
38,process tracehtg fault i,Ventilation,0.8083603382110596,Heating,0.00026147771859541535,False,False
39,process tank level s,Ventilation,0.9999994039535522,Ventilation,0.9999994039535522,True,False
40,process tank temp s,Terminals,0.8996289372444153,Terminals,0.8996289372444153,True,False
41,process cws booster z,Terminals,0.9999980926513672,Terminals,0.9999980926513672,True,False
42,server room hi-temp alarm d,Ventilation,0.999996542930603,Ventilation,0.999996542930603,True,False
43,server room hi-temp delay k,Ventilation,0.9999310970306396,Ventilation,0.9999310970306396,True,False
44,server room hi-temp sp k,Ventilation,0.9999710321426392,Ventilation,0.9999710321426392,True,False
45,server room space temp s,Ventilation,0.5638833045959473,Ventilation,0.5638833045959473,True,True
46,fire alarm active i,Cooling,0.9999500513076782,Cooling,0.9999500513076782,True,False
47,fire alarm active i,Ventilation,0.9994658827781677,Heating,5.329482155502774e-05,False,False
48,fire alarm active i,Heating,0.897084653377533,Heating,0.897084653377533,True,False
49,fire alarm active i,Terminals,0.9999980926513672,Terminals,0.9999980926513672,True,False
50,fire alarm active i,Terminals,0.9998974800109863,Terminals,0.9998974800109863,True,False
51,fire alarm active i,Ventilation,0.9999992847442627,Ventilation,0.9999992847442627,True,False
52,fire alarm i,Ventilation,0.9999240636825562,Ventilation,0.9999240636825562,True,False
53,fire alarm i,Terminals,0.9812830686569214,Terminals,0.9812830686569214,True,False
54,fire alarm active i,Ventilation,1.0,Ventilation,1.0,True,False
55,fire alarm active i,Ventilation,0.9999998807907104,Ventilation,0.9999998807907104,True,False
56,fire alarm i,Terminals,0.9994823932647705,Terminals,0.9994823932647705,True,False
57,fire alarm status i,Ventilation,0.9999988079071045,Ventilation,0.9999988079071045,True,False
58,fire alarm active i,Ventilation,0.9999977350234985,Ventilation,0.9999977350234985,True,False
59,fire alarm active i,Heating,0.9879394769668579,Heating,0.9879394769668579,True,False
60,fire alarm active i,Terminals,0.8996289372444153,Terminals,0.8996289372444153,True,False
61,fire alarm active i,Ventilation,0.9997890591621399,Ventilation,0.9997890591621399,True,False
62,fire alarm active i,Ventilation,0.9999992847442627,Ventilation,0.9999992847442627,True,False
63,fire alarm active i,Ventilation,0.9581279754638672,Terminals,0.015733329579234123,False,False
64,fire alarm active i,Terminals,0.999760091304779,Terminals,0.999760091304779,True,False
65,fire alarm i,Metering,0.9996343851089478,Metering,0.9996343851089478,True,False
66,fire alarm active i,Terminals,0.999760091304779,Terminals,0.999760091304779,True,False
67,fire alarm i,Ventilation,1.0,Ventilation,1.0,True,False
68,fire alarm i,Ventilation,0.8217315673828125,Ventilation,0.8217315673828125,True,False
69,fire alarm active i,Ventilation,0.9999258518218994,Ventilation,0.9999258518218994,True,False
70,effluient heater fault i,Terminals,0.9978083968162537,Terminals,0.9978083968162537,True,False
71,emergency ltg fault i,Ventilation,1.0,Ventilation,1.0,True,False
72,generator fault i,Metering,0.9998313188552856,Metering,0.9998313188552856,True,False
73,lift alarm fault i,Ventilation,1.0,Ventilation,1.0,True,False
74,emergency ltg fault i,Ventilation,0.9999994039535522,Ventilation,0.9999994039535522,True,False
75,emergency ltg fault i,Terminals,0.9812830686569214,Terminals,0.9812830686569214,True,False
76,lift alarm i,Terminals,0.9995256662368774,Terminals,0.9995256662368774,True,False
77,unit heater fault i,Cooling,0.9999415874481201,Cooling,0.9999415874481201,True,False
78,unit heater fault i,Ventilation,0.9997896552085876,Ventilation,0.9997896552085876,True,False
79,unit heater fault i,Globals,0.9907318949699402,Globals,0.9907318949699402,True,False
80,unit heater fault i,Ventilation,1.0,Ventilation,1.0,True,False
81,unit heater fault i,Ventilation,0.9996170997619629,Ventilation,0.9996170997619629,True,False
82,unit heater fault i,Terminals,0.9812830686569214,Terminals,0.9812830686569214,True,False
83,unit heater fault i,Heating,0.9906737208366394,Heating,0.9906737208366394,True,False
84,denco unit fault i,Terminals,0.9999643564224243,Terminals,0.9999643564224243,True,False
85,denco unit fault i,Ventilation,0.45920488238334656,Ventilation,0.45920488238334656,True,True
86,ground floor disabled toilet alarm i,Ventilation,0.9998458623886108,Ventilation,0.9998458623886108,True,False
87,ground floor disabled toilet fault i,Ventilation,0.9999856948852539,Ventilation,0.9999856948852539,True,False
88,lift alarm i,Terminals,0.9991289973258972,Terminals,0.9991289973258972,True,False
89,gas valve closed i,Terminals,0.9957072138786316,Ventilation,0.002073989249765873,False,False
90,hv room smoke damper i,Ventilation,0.9999905824661255,Ventilation,0.9999905824661255,True,False
91,lv roomsmoke damper i,Globals,0.9999972581863403,Globals,0.9999972581863403,True,False
92,lv roomsmoke damper i,Terminals,0.9994823932647705,Terminals,0.9994823932647705,True,False
93,server room fault alarm d,Terminals,0.9999836683273315,Terminals,0.9999836683273315,True,False
94,server room alarm override w,Ventilation,0.9999600648880005,Ventilation,0.9999600648880005,True,False
95,server room hi-temp override w,Ventilation,0.9999984502792358,Ventilation,0.9999984502792358,True,False
96,first stage frost i,Ventilation,0.9999996423721313,Ventilation,0.9999996423721313,True,False
97,honeycomb cell s,Ventilation,0.9999147653579712,Ventilation,0.9999147653579712,True,False
98,honeycomb cell s,Ventilation,0.9991719722747803,Ventilation,0.9991719722747803,True,False
99,outside air temp s,Heating,0.9984910488128662,Heating,0.9984910488128662,True,False
100,outside air temp s,Terminals,0.9999984502792358,Terminals,0.9999984502792358,True,False
101,outside air temp s,Ventilation,0.9980025887489319,Ventilation,0.9980025887489319,True,False
102,ahu heat recovery pump d,Terminals,0.9998353719711304,Terminals,0.9998353719711304,True,False
103,boiler i,Monitoring,0.9998650550842285,Monitoring,0.9998650550842285,True,False
104,boiler i,Cooling,0.8885728716850281,Ventilation,0.10884133726358414,False,False
105,boiler i,Ventilation,1.0,Ventilation,1.0,True,False
106,pressure unit fault i,Terminals,0.9995256662368774,Terminals,0.9995256662368774,True,False
107,primary pump duty fail i,Ventilation,0.9999983310699463,Ventilation,0.9999983310699463,True,False
108,primary pumps + fail i,Terminals,0.9998353719711304,Terminals,0.9998353719711304,True,False
109,gas valve closed i,Ventilation,0.9999984502792358,Ventilation,0.9999984502792358,True,False
110,nd stage frost off k,Globals,0.994799017906189,Globals,0.994799017906189,True,False
111,nd stage frost on k,Terminals,0.9999328851699829,Terminals,0.9999328851699829,True,False
112,first stage frost k,Metering,0.9999994039535522,Metering,0.9999994039535522,True,False
113,third stage frost k,Globals,0.9942193031311035,Globals,0.9942193031311035,True,False
114,summer oat holdoffsp k,Terminals,0.9985272884368896,Terminals,0.9985272884368896,True,False
115,primarypumpsoverride w,Ventilation,0.9998898506164551,Ventilation,0.9998898506164551,True,False
116,heating override w,Ventilation,0.9103546738624573,Ventilation,0.9103546738624573,True,False
117,boiler set point k,Terminals,0.9991289973258972,Terminals,0.9991289973258972,True,False
118,boiler flow temp s,Heating,0.9999997615814209,Heating,0.9999997615814209,True,False
119,boiler return temp s,Heating,0.931192934513092,Heating,0.931192934513092,True,False
120,time schedule z,Ventilation,1.0,Ventilation,1.0,True,False
121,boiler set point k,Ventilation,0.9999977350234985,Ventilation,0.9999977350234985,True,False
122,boiler primary pumps flow i,Terminals,0.9999328851699829,Terminals,0.9999328851699829,True,False
123,gas valve closed i,Terminals,0.9998974800109863,Terminals,0.9998974800109863,True,False
124,boiler temp healthy k,Ventilation,0.99993896484375,Ventilation,0.99993896484375,True,False
125,boiler flow temp s,Terminals,0.9999980926513672,Terminals,0.9999980926513672,True,False
126,boiler return temp s,Terminals,0.9812830686569214,Terminals,0.9812830686569214,True,False
127,water heater d,Terminals,0.9997736811637878,Terminals,0.9997736811637878,True,False
128,water heater d,Ventilation,0.9999208450317383,Ventilation,0.9999208450317383,True,False
129,dhw override w,Ventilation,0.999976396560669,Ventilation,0.999976396560669,True,False
130,domestic hot water z,Heating,0.9993689656257629,Heating,0.9993689656257629,True,False
131,water heater fault i,Ventilation,0.8221107721328735,Ventilation,0.8221107721328735,True,False
132,water heater fault i,Ventilation,0.9861105680465698,Ventilation,0.9861105680465698,True,False
133,water heater d,Ventilation,0.999996542930603,Ventilation,0.999996542930603,True,False
134,water heater d,Monitoring,0.9994478821754456,Monitoring,0.9994478821754456,True,False
135,dhw override w,Cooling,0.997267484664917,Cooling,0.997267484664917,True,False
136,water heater flow temp s,Terminals,0.9997736811637878,Terminals,0.9997736811637878,True,False
137,water heater flow temp s,Terminals,0.9999980926513672,Terminals,0.9999980926513672,True,False
138,domestic hot water z,Ventilation,0.8083603382110596,Heating,0.00026147771859541535,False,False
139,dhw second pump d,Heating,0.8724064826965332,Heating,0.8724064826965332,True,False
140,hws heater & second pump rhs d,Terminals,0.9999737739562988,Terminals,0.9999737739562988,True,False
141,hws heater - lhs d,Heating,0.9986534118652344,Heating,0.9986534118652344,True,False
142,hws override rhs w,Terminals,0.7440742254257202,Ventilation,0.2551287114620209,False,False
143,duty vt pump fail i,Heating,0.9997976422309875,Heating,0.9997976422309875,True,False
144,vt pumps + fail i,Terminals,0.8996289372444153,Terminals,0.8996289372444153,True,False
145,both vt pumps failed i,Ventilation,0.9991641044616699,Ventilation,0.9991641044616699,True,False
146,duty vt pump fail i,Terminals,0.9999582767486572,Terminals,0.9999582767486572,True,False
147,pressurisation unit fault i,Terminals,0.9812830686569214,Terminals,0.9812830686569214,True,False
148,vt system enable i,Terminals,0.9997736811637878,Terminals,0.9997736811637878,True,False
149,first stage frost k,Terminals,0.9999980926513672,Terminals,0.9999980926513672,True,False
150,third stage frost k,Ventilation,0.9964634776115417,Ventilation,0.9964634776115417,True,False
151,heating override w,Terminals,0.9999643564224243,Terminals,0.9999643564224243,True,False
152,vt pumps override w,Heating,0.9999922513961792,Heating,0.9999922513961792,True,False
153,vt pumps override w,Terminals,0.999760091304779,Terminals,0.999760091304779,True,False
154,vt flow temp s,Ventilation,1.0,Ventilation,1.0,True,False
155,vt flow temp s,Terminals,0.9998842477798462,Terminals,0.9998842477798462,True,False
156,vt space temp s,Terminals,0.9999737739562988,Terminals,0.9999737739562988,True,False
157,vt space temp s,Ventilation,0.9999921321868896,Ventilation,0.9999921321868896,True,False
158,vt space temp s,Ventilation,0.9999998807907104,Ventilation,0.9999998807907104,True,False
159,space temp setpoint k,Ventilation,0.9999520778656006,Ventilation,0.9999520778656006,True,False
160,vt valve d,Terminals,0.8996289372444153,Terminals,0.8996289372444153,True,False
161,vt pump no. enable d,Terminals,0.9999949932098389,Terminals,0.9999949932098389,True,False
162,vt pump no. enable d,Terminals,0.9812830686569214,Terminals,0.9812830686569214,True,False
163,vt valve d,Terminals,0.9995256662368774,Terminals,0.9995256662368774,True,False
164,vt pumps flow i,Heating,0.9718045592308044,Heating,0.9718045592308044,True,False
165,vt pumps flow i,Terminals,0.9994823932647705,Terminals,0.9994823932647705,True,False
166,os light level k,Ventilation,1.0,Ventilation,1.0,True,False
167,os light off delay k,Ventilation,0.9995604157447815,Ventilation,0.9995604157447815,True,False
168,os light on delay k,Ventilation,0.9980025887489319,Ventilation,0.9980025887489319,True,False
169,os lights d,Ventilation,0.9999978542327881,Ventilation,0.9999978542327881,True,False
170,os lights override w,Terminals,0.9674999713897705,Ventilation,0.0012914781691506505,False,False
171,outside lighting z,Ventilation,0.9974986910820007,Ventilation,0.9974986910820007,True,False
172,outside light level k,Ventilation,0.8669334053993225,Ventilation,0.8669334053993225,True,False
173,os lights d,Ventilation,1.0,Ventilation,1.0,True,False
174,outside light override w,Globals,0.9999477863311768,Globals,0.9999477863311768,True,False
175,outside light level k,Ventilation,0.9997294545173645,Ventilation,0.9997294545173645,True,False
176,os lights d,Ventilation,0.6545188426971436,Terminals,0.3454612195491791,False,True
177,outside light override w,Terminals,0.9991289973258972,Terminals,0.9991289973258972,True,False
178,os lights d,Monitoring,0.9991253018379211,Monitoring,0.9991253018379211,True,False
179,outside ligh level k,Ventilation,1.0,Ventilation,1.0,True,False
180,os lights d,Terminals,0.8996289372444153,Terminals,0.8996289372444153,True,False
181,lighting override w,Terminals,0.9999855756759644,Terminals,0.9999855756759644,True,False
182,outside lights z,Terminals,0.9985272884368896,Terminals,0.9985272884368896,True,False
183,os lights d,Terminals,0.9812830686569214,Terminals,0.9812830686569214,True,False
184,os light off delay k,Ventilation,0.9835826754570007,Ventilation,0.9835826754570007,True,False
185,outside lights d,Ventilation,0.9998458623886108,Ventilation,0.9998458623886108,True,False
186,outside lighting z,Ventilation,0.9995604157447815,Ventilation,0.9995604157447815,True,False
187,lolight lab ac fault i,Ventilation,0.9998574256896973,Ventilation,0.9998574256896973,True,False
188,low light lab ac z,Terminals,0.9997736811637878,Terminals,0.9997736811637878,True,False
189,ahu gas meter i,Globals,0.9987516403198242,Globals,0.9987516403198242,True,False
190,ar+o potable water meter i,Terminals,0.9998353719711304,Terminals,0.9998353719711304,True,False
191,ar+o process water meter i,Globals,0.9953446984291077,Globals,0.9953446984291077,True,False
192,compressor potable water meter i,Cooling,0.9937893748283386,Cooling,0.9937893748283386,True,False
193,compressor process water meter i,Terminals,0.9999328851699829,Terminals,0.9999328851699829,True,False
194,compressor steam meter i,Terminals,0.9994823932647705,Terminals,0.9994823932647705,True,False
195,gas meter i,Terminals,0.9971561431884766,Terminals,0.9971561431884766,True,False
196,gas meter i,Heating,0.9718045592308044,Heating,0.9718045592308044,True,False
197,heating gas meter i,Terminals,0.9999643564224243,Terminals,0.9999643564224243,True,False
198,kwh meter i,Terminals,0.8996289372444153,Ventilation,0.10004106909036636,False,False
199,kwh meter b i,Terminals,0.9812830686569214,Terminals,0.9812830686569214,True,False
200,kwh meter a i,Ventilation,0.6451422572135925,Ventilation,0.6451422572135925,True,True
201,kwh meter b i,Terminals,0.9997245669364929,Terminals,0.9997245669364929,True,False
202,kwh meter no a i,Terminals,0.9999254941940308,Terminals,0.9999254941940308,True,False
203,kwh meter no a i,Terminals,0.9995256662368774,Terminals,0.9995256662368774,True,False
204,kwh meter no b i,Cooling,0.9947965741157532,Cooling,0.9947965741157532,True,False
205,kwh meter noa i,Heating,0.9999994039535522,Heating,0.9999994039535522,True,False
206,kwh meter nob i,Ventilation,0.9999520778656006,Ventilation,0.9999520778656006,True,False
207,main kwh meter a i,Terminals,0.9999737739562988,Terminals,0.9999737739562988,True,False
208,main kwh meter b i,Terminals,0.9999949932098389,Terminals,0.9999949932098389,True,False
209,office gas meter i,Terminals,0.8996289372444153,Terminals,0.8996289372444153,True,False
210,steam meter s,Globals,0.6330430507659912,Globals,0.6330430507659912,True,True
211,steam meter i,Terminals,0.9999643564224243,Terminals,0.9999643564224243,True,False
212,steam meter pulse i,Ventilation,0.9999997615814209,Ventilation,0.9999997615814209,True,False
213,sub kwhr meter i,Terminals,0.9961881041526794,Terminals,0.9961881041526794,True,False
214,sub kwhr meter i,Heating,0.9937790036201477,Heating,0.9937790036201477,True,False
215,sub kwh meter i,Ventilation,1.0,Ventilation,1.0,True,False
216,sub kwh meter i,Terminals,0.9999328851699829,Terminals,0.9999328851699829,True,False
217,sub kwh meter i,Heating,0.9999139308929443,Heating,0.9999139308929443,True,False
218,sub kwh meter i,Terminals,0.9997736811637878,Terminals,0.9997736811637878,True,False
219,sub kwh meter i,Metering,0.9999964237213135,Metering,0.9999964237213135,True,False
220,server room hi-temp d,Terminals,0.9993035793304443,Terminals,0.9993035793304443,True,False
221,server room temp s,Terminals,0.9999949932098389,Terminals,0.9999949932098389,True,False
222,denco & fault i,Terminals,0.8996289372444153,Terminals,0.8996289372444153,True,False
223,denco fault i,Ventilation,1.0,Ventilation,1.0,True,False
224,pressure unit fault i,Cooling,0.9306418299674988,Cooling,0.9306418299674988,True,False
225,gas valve closed i,Terminals,0.9970129728317261,Terminals,0.9970129728317261,True,False
226,lift alarm i,Terminals,0.9999328851699829,Terminals,0.9999328851699829,True,False
227,summer eco i,Heating,0.9959673881530762,Heating,0.9959673881530762,True,False
228,server room fault d,Ventilation,0.9999240636825562,Ventilation,0.9999240636825562,True,False
229,sever room hi-temp k,Cooling,0.9529098272323608,Cooling,0.9529098272323608,True,False
230,first stage frost i,Terminals,0.9995256662368774,Terminals,0.9995256662368774,True,False
231,third stage frost i,Globals,0.7202072143554688,Terminals,0.0742725059390068,False,False
232,bindinspectacfault i,Ventilation,1.0,Ventilation,1.0,True,False
233,bind inspect ac unit d,Heating,0.9990860223770142,Ventilation,0.0008766390383243561,False,False
234,binding ins ac z,Ventilation,0.9934355020523071,Heating,0.000725157093256712,False,False
235,blast area oat sp k,Ventilation,0.9999998807907104,Ventilation,0.9999998807907104,True,False
236,blast area amirads d,Terminals,0.9995256662368774,Terminals,0.9995256662368774,True,False
237,blast area sp k,Heating,0.9999960660934448,Heating,0.9999960660934448,True,False
238,blast area temp s,Ventilation,0.9999995231628418,Ventilation,0.9999995231628418,True,False
239,chemical heater fault i,Globals,0.9987516403198242,Globals,0.9987516403198242,True,False
240,chem store fan active i,Terminals,0.9993035793304443,Terminals,0.9993035793304443,True,False
241,de-mineralise heater d,Metering,0.9999996423721313,Metering,0.9999996423721313,True,False
242,de-mineral heater times z,Ventilation,0.9997299313545227,Ventilation,0.9997299313545227,True,False
243,elec harness ac d,Terminals,0.9999643564224243,Terminals,0.9999643564224243,True,False
244,elec harness room ac z,Ventilation,1.0,Ventilation,1.0,True,False
245,vrv unit fault i,Ventilation,0.9625712037086487,Ventilation,0.9625712037086487,True,False
246,vrv first fault i,Ventilation,0.999782383441925,Ventilation,0.999782383441925,True,False
247,st floor vrv demand i,Terminals,0.8017779588699341,Terminals,0.8017779588699341,True,False
248,first floor vrv override w,Terminals,0.9999328851699829,Terminals,0.9999328851699829,True,False
249,first floor vrv override w,Ventilation,0.9998574256896973,Ventilation,0.9998574256896973,True,False
250,first floor vrv d,Ventilation,0.9999983310699463,Ventilation,0.9999983310699463,True,False
251,first floor vrv enable d,Ventilation,0.9995604157447815,Ventilation,0.9995604157447815,True,False
252,first floor vrv z,Ventilation,0.9998935461044312,Ventilation,0.9998935461044312,True,False
253,first floor vrv times z,Terminals,0.9997736811637878,Terminals,0.9997736811637878,True,False
254,flammable store heater d,Terminals,0.9994823932647705,Terminals,0.9994823932647705,True,False
255,flammable store sp k,Terminals,0.9971561431884766,Terminals,0.9971561431884766,True,False
256,flammable store heater fault i,Globals,0.9998962879180908,Globals,0.9998962879180908,True,False
257,flammable store heater z,Terminals,0.9997736811637878,Terminals,0.9997736811637878,True,False
258,flammable store temp s,Ventilation,1.0,Ventilation,1.0,True,False
259,grid rhs vrv fault i,Terminals,0.9970129728317261,Terminals,0.9970129728317261,True,False
260,grid rhs vrv fault i,Ventilation,0.9999995231628418,Ventilation,0.9999995231628418,True,False
261,grid rhs vrv d,Terminals,0.8996289372444153,Terminals,0.8996289372444153,True,False
262,grid lhs vrv fault i,Cooling,0.5359323620796204,Ventilation,0.06967184692621231,False,True
263,grid lhs vrv fault i,Terminals,0.9994823932647705,Terminals,0.9994823932647705,True,False
264,grid lhs vrv d,Globals,0.8635455369949341,Ventilation,0.000983141828328371,False,False
265,second floor vrv times z,Heating,0.9999997615814209,Heating,0.9999997615814209,True,False
266,vrv unit fault i,Ventilation,0.9999867677688599,Ventilation,0.9999867677688599,True,False
267,vrv ground fault i,Ventilation,0.9999524354934692,Ventilation,0.9999524354934692,True,False
268,ground floor vrv demand i,Cooling,0.9990299940109253,Cooling,0.9990299940109253,True,False
269,ground floor vrv override w,Ventilation,0.9653534889221191,Ventilation,0.9653534889221191,True,False
270,ground floor vrv override w,Ventilation,0.7850700616836548,Terminals,0.21445639431476593,False,False
271,ground floor vrv d,Terminals,0.9999643564224243,Terminals,0.9999643564224243,True,False
272,ground floor vrv enable d,Terminals,0.9999328851699829,Terminals,0.9999328851699829,True,False
273,ground floor vrv z,Terminals,0.9999980926513672,Terminals,0.9999980926513672,True,False
274,ground floor vrv times z,Ventilation,1.0,Ventilation,1.0,True,False
275,guage room ac fault i,Ventilation,0.9999334812164307,Ventilation,0.9999334812164307,True,False
276,guage room ac unit d,Ventilation,0.9999997615814209,Ventilation,0.9999997615814209,True,False
277,guage room ac z,Globals,0.9942193031311035,Globals,0.9942193031311035,True,False
278,inspection ac fault i,Terminals,0.9994823932647705,Terminals,0.9994823932647705,True,False
279,inspection weld ac d,Ventilation,0.9965704679489136,Ventilation,0.9965704679489136,True,False
280,inspection weld ac z,Heating,0.7909578084945679,Heating,0.7909578084945679,True,False
281,join cell - ac fault i,Terminals,0.8996289372444153,Terminals,0.8996289372444153,True,False
282,join cell - ac fault i,Terminals,0.999760091304779,Terminals,0.999760091304779,True,False
283,joining cell ac d,Ventilation,1.0,Ventilation,1.0,True,False
284,joining cell ac z,Terminals,0.9993035793304443,Terminals,0.9993035793304443,True,False
285,lk cmm room ac fault i,Terminals,0.9999643564224243,Terminals,0.9999643564224243,True,False
286,lk cmm room ac d,Terminals,0.9999643564224243,Terminals,0.9999643564224243,True,False
287,lk cmm room ac z,Terminals,0.9970129728317261,Terminals,0.9970129728317261,True,False
288,lk cmm room ac fault i,Ventilation,0.998364269733429,Ventilation,0.998364269733429,True,False
289,lk cmm room ac d,Heating,0.9880746006965637,Heating,0.9880746006965637,True,False
290,lk cmm room ac z,Heating,0.9968818426132202,Heating,0.9968818426132202,True,False
291,lk cmm room ac fault i,Terminals,0.8996289372444153,Terminals,0.8996289372444153,True,False
292,lk cmm room ac d,Ventilation,0.9999995231628418,Ventilation,0.9999995231628418,True,False
293,lk cmm room ac z,Heating,0.9985164999961853,Heating,0.9985164999961853,True,False
294,main line ac fault i,Terminals,0.9999980926513672,Terminals,0.9999980926513672,True,False
295,main line ac d,Terminals,0.9954593777656555,Terminals,0.9954593777656555,True,False
296,main line ac z,Terminals,0.9993429780006409,Terminals,0.9993429780006409,True,False
297,meeting room ac d,Terminals,0.9997736811637878,Terminals,0.9997736811637878,True,False
298,meeting room ac d,Terminals,0.9999737739562988,Terminals,0.9999737739562988,True,False
299,meeting room ac z,Terminals,0.9999949932098389,Terminals,0.9999949932098389,True,False
300,meeting room ac z,Ventilation,0.9999983310699463,Ventilation,0.9999983310699463,True,False
301,mpi area times & override i,Cooling,0.9880915880203247,Cooling,0.9880915880203247,True,False
302,mpi area times z,Terminals,0.9995256662368774,Terminals,0.9995256662368774,True,False
303,net lab ac fault i,Globals,0.9996305704116821,Globals,0.9996305704116821,True,False
304,net lab ac unit d,Ventilation,1.0,Ventilation,1.0,True,False
305,net lab ac unit d,Ventilation,0.9999430179595947,Ventilation,0.9999430179595947,True,False
306,net lab ac z,Ventilation,0.9999983310699463,Ventilation,0.9999983310699463,True,False
307,outbound office fault i,Terminals,0.9999949932098389,Terminals,0.9999949932098389,True,False
308,outbound office ac d,Cooling,0.9975481629371643,Cooling,0.9975481629371643,True,False
309,outbound office ac z,Terminals,0.9999737739562988,Terminals,0.9999737739562988,True,False
310,vrv unit fault i,Globals,0.9987516403198242,Globals,0.9987516403198242,True,False
311,vrv second fault i,Heating,0.9859289526939392,Cooling,0.014055537059903145,False,False
312,nd floor vrv demand i,Terminals,0.9995256662368774,Terminals,0.9995256662368774,True,False
313,second floor vrv override w,Terminals,0.9995256662368774,Terminals,0.9995256662368774,True,False
314,second floor vrv override w,Cooling,0.9967067837715149,Cooling,0.9967067837715149,True,False
315,second floor vrv d,Ventilation,0.9999775886535645,Ventilation,0.9999775886535645,True,False
316,second floor vrv enable d,Terminals,0.9998353719711304,Terminals,0.9998353719711304,True,False
317,second floor vrv z,Ventilation,0.9861565828323364,Ventilation,0.9861565828323364,True,False
318,shop support ac d,Terminals,0.9999289512634277,Terminals,0.9999289512634277,True,False
319,shop support ac z,Terminals,0.9999737739562988,Terminals,0.9999737739562988,True,False
320,training room ac d,Ventilation,0.9999998807907104,Ventilation,0.9999998807907104,True,False
321,training room ac z,Ventilation,0.9999953508377075,Metering,1.4418790783565782e-07,False,False
322,ac unit no fault i,Ventilation,0.9997890591621399,Ventilation,0.9997890591621399,True,False
323,ac unit fault i,Heating,0.9999339580535889,Heating,0.9999339580535889,True,False
324,ac unit fault i,Terminals,0.9999949932098389,Terminals,0.9999949932098389,True,False
325,ac unit fault i,Terminals,0.8996289372444153,Terminals,0.8996289372444153,True,False
326,ac unit fault i,Heating,0.9999911785125732,Heating,0.9999911785125732,True,False
327,ac unit fault i,Ventilation,0.9997569918632507,Ventilation,0.9997569918632507,True,False
328,ahu supply flow fail i,Terminals,0.9999737739562988,Terminals,0.9999737739562988,True,False
329,ahu panel filter dirty i,Globals,0.9953446984291077,Globals,0.9953446984291077,True,False
330,ahu frost coil temp s,Ventilation,0.9999998807907104,Ventilation,0.9999998807907104,True,False
331,ahu night high sp k,Cooling,0.9999891519546509,Cooling,0.9999891519546509,True,False
332,ahu night sp k,Ventilation,0.9999997615814209,Ventilation,0.9999997615814209,True,False
333,ahu zone vent sp k,Terminals,0.9999737739562988,Terminals,0.9999737739562988,True,False
334,ahu zone high vent sp k,Monitoring,0.9999890327453613,Monitoring,0.9999890327453613,True,False
335,ahu frost coil set point k,Ventilation,0.9999897480010986,Ventilation,0.9999897480010986,True,False
336,oat vent sp k,Terminals,0.9999980926513672,Terminals,0.9999980926513672,True,False
337,ahu override w,Ventilation,0.9998947381973267,Ventilation,0.9998947381973267,True,False
338,ahu frost coil valve d,Ventilation,0.9999867677688599,Ventilation,0.9999867677688599,True,False
339,ahu frost stat active i,Ventilation,0.9968603849411011,Ventilation,0.9968603849411011,True,False
340,ahu heat recovery pump d,Globals,0.9942193031311035,Globals,0.9942193031311035,True,False
341,weld ass shaft times z,Ventilation,0.9999992847442627,Ventilation,0.9999992847442627,True,False
342,ahu main heating valve d,Ventilation,0.9999994039535522,Ventilation,0.9999994039535522,True,False
343,ahu extract air temp s,Ventilation,1.0,Ventilation,1.0,True,False
344,ahu heat recovery temp s,Heating,0.7780464887619019,Cooling,0.0005292526911944151,False,False
345,ahu max space temp k,Heating,0.9851859211921692,Heating,0.9851859211921692,True,False
346,ahu min space temp k,Terminals,0.9999980926513672,Terminals,0.9999980926513672,True,False
347,ahu supply air temp s,Ventilation,0.9999984502792358,Ventilation,0.9999984502792358,True,False
348,ahu supply damper open i,Globals,0.9987516403198242,Globals,0.9987516403198242,True,False
349,ahu max supply temp k,Globals,0.9924930930137634,Globals,0.9924930930137634,True,False
350,ahu min supply temp k,Ventilation,0.9998502731323242,Ventilation,0.9998502731323242,True,False
351,ahu supply flow fail i,Terminals,0.9191451668739319,Ventilation,0.08055456727743149,False,False
352,ahu panel filter dirty i,Terminals,0.9986838698387146,Terminals,0.9986838698387146,True,False
353,ahu frost coil temp s,Ventilation,0.9976330995559692,Ventilation,0.9976330995559692,True,False
354,ahu night high sp k,Ventilation,1.0,Ventilation,1.0,True,False
355,ahu vent space sp k,Terminals,0.9999980926513672,Terminals,0.9999980926513672,True,False
356,ahu night vent sp k,Cooling,0.9999500513076782,Cooling,0.9999500513076782,True,False
357,ahu vent high sp k,Heating,0.98990797996521,Heating,0.98990797996521,True,False
358,ahu frost coil set point k,Ventilation,0.5175555348396301,Ventilation,0.5175555348396301,True,True
359,ahu override w,Ventilation,0.9999964237213135,Ventilation,0.9999964237213135,True,False
360,ahu frost stat active i,Ventilation,0.9937830567359924,Heating,0.003578301053494215,False,False
361,ahu frost coil valve d,Globals,0.9924930930137634,Globals,0.9924930930137634,True,False
362,central serv times z,Ventilation,0.9895776510238647,Ventilation,0.9895776510238647,True,False
363,ahu main heating valve d,Terminals,0.9999992847442627,Terminals,0.9999992847442627,True,False
364,ahu extract air temp s,Ventilation,0.9997480511665344,Ventilation,0.9997480511665344,True,False
365,ahu heat recovery temp s,Ventilation,0.9998883008956909,Ventilation,0.9998883008956909,True,False
366,ahu max space temp k,Heating,0.9999071359634399,Heating,0.9999071359634399,True,False
367,ahu min space temp k,Globals,0.9983476400375366,Globals,0.9983476400375366,True,False
368,ahu supply air temp s,Terminals,0.8996289372444153,Terminals,0.8996289372444153,True,False
369,ahu supply damper open i,Heating,1.0,Heating,1.0,True,False
370,ahu max supply temp k,Terminals,0.9998353719711304,Terminals,0.9998353719711304,True,False
371,ahu min supply temp k,Terminals,0.9554013013839722,Heating,0.031672582030296326,False,False
372,duct inlet temp s,Heating,0.9772005677223206,Heating,0.9772005677223206,True,False
373,ahu supply flow fail i,Globals,0.9659992456436157,Globals,0.9659992456436157,True,False
374,burner fault i,Heating,0.9999992847442627,Heating,0.9999992847442627,True,False
375,ahu low temp hold off i,Terminals,0.9812830686569214,Terminals,0.9812830686569214,True,False
376,duct hi-temp stat active i,Ventilation,0.5367227792739868,Terminals,0.11445005983114243,False,True
377,inner shutter doors closed i,Globals,0.9946947693824768,Globals,0.9946947693824768,True,False
378,outer shutter doors closed i,Monitoring,0.9655187129974365,Cooling,0.021133875474333763,False,False
379,panel filter dirty i,Globals,0.999981164932251,Globals,0.999981164932251,True,False
380,burner enable d,Heating,0.9996106028556824,Heating,0.9996106028556824,True,False
381,recirc fresh air d,Ventilation,0.9999994039535522,Ventilation,0.9999994039535522,True,False
382,manual burner enable i,Terminals,0.9991593360900879,Terminals,0.9991593360900879,True,False
383,space atmospheric pressure s,Terminals,0.9999949932098389,Terminals,0.9999949932098389,True,False
384,fan run on k,Globals,0.5756586194038391,Terminals,0.0012396496022120118,False,True
385,low temp hold off k,Cooling,0.9597998857498169,Cooling,0.9597998857498169,True,False
386,maximum supply duct k,Terminals,0.9999328851699829,Terminals,0.9999328851699829,True,False
387,minimum supply duct k,Terminals,0.9994823932647705,Terminals,0.9994823932647705,True,False
388,space set point k,Ventilation,0.5962464213371277,Ventilation,0.5962464213371277,True,True
389,space frost k,Terminals,0.9999643564224243,Terminals,0.9999643564224243,True,False
390,ahu override w,Heating,0.9977036118507385,Heating,0.9977036118507385,True,False
391,ahu - main production z,Terminals,0.980745792388916,Terminals,0.980745792388916,True,False
392,burner modulation d,Ventilation,0.9999997615814209,Ventilation,0.9999997615814209,True,False
393,space temp s,Terminals,0.8996289372444153,Terminals,0.8996289372444153,True,False
394,space temp s,Terminals,0.9975316524505615,Terminals,0.9975316524505615,True,False
395,space temp s,Terminals,0.9990687966346741,Terminals,0.9990687966346741,True,False
396,space temp s,Terminals,0.9971561431884766,Terminals,0.9971561431884766,True,False
397,space temp s,Heating,0.9957786798477173,Heating,0.9957786798477173,True,False
398,ahu supply temp s,Heating,0.9996886253356934,Heating,0.9996886253356934,True,False
399,duct inlet temp s,Globals,0.99763023853302,Globals,0.99763023853302,True,False
400,ahu supply flow fail i,Ventilation,0.9999819993972778,Ventilation,0.9999819993972778,True,False
401,burner fault i,Terminals,0.9999980926513672,Terminals,0.9999980926513672,True,False
402,ahu low temp hold off i,Terminals,0.9999980926513672,Terminals,0.9999980926513672,True,False
403,duct hi-temp stat active i,Terminals,0.999760091304779,Terminals,0.999760091304779,True,False
404,panel filter dirty i,Ventilation,1.0,Ventilation,1.0,True,False
405,shutter doors closed i,Ventilation,0.9998549222946167,Ventilation,0.9998549222946167,True,False
406,burner enable d,Ventilation,1.0,Ventilation,1.0,True,False
407,dampers d,Terminals,0.9986838698387146,Terminals,0.9986838698387146,True,False
408,manual burner enable i,Ventilation,0.9999983310699463,Ventilation,0.9999983310699463,True,False
409,space atmospheric pressure s,Ventilation,0.9999995231628418,Ventilation,0.9999995231628418,True,False
