,pointLabel,pointTags,Predicted pointTags
0,Chill Time,"occupied, oneA",sensor
1,Chiller Fault,cmd,sensor
2,CHW Pressure,cmd,sensor
3,CHW System,cmd,sensor
4,Frost Protection,"sp, oneA",sp
5,Chiller Manual Seq,"sp, oneA",sp
6,CHW RETURN TEMP,"sensor, temp, water, chilled, entering","air, sensor, temp"
7,Chiller time zone,"occupied, oneA","occupied, sp"
8,Chilled Water Primary pump 1,sensor,sensor
9,Chilled Water Primary pump 2,sensor,sensor
10,Gnd Flr FCU Chilled Wtr Pump 1,sensor,sensor
11,Gnd Flr FCU Chilled Wtr Pump 2,sensor,sensor
12,1st Flr FCU Chilled Wtr Pump 1,sensor,sensor
13,1st Flr FCU Chilled Wtr Pump 2,sensor,sensor
14,AHU Chilled Water Pump 1,sensor,sensor
15,AHU Chilled Water Pump 2,sensor,sensor
16,Chiller Fault,"sensor, alarm",sensor
17,Chilled Water Press,"sensor, alarm",sensor
18,CHW System,"sensor, alarm",sensor
19,CHW PRIM FLOW,sensor,sensor
20,CHW GND CT FAIL,"sensor, alarm",sensor
21,CHW 1ST CT FAIL,"sensor, alarm",sensor
22,CHW AHU CT FAIL,"sensor, alarm",sensor
23,CHW PRESS UNIT FAULT,"sensor, alarm",sensor
24,CWS TANK 1 HIGH,sensor,sensor
25,CWS TANK 2 HIGH,sensor,sensor
26,CWS BOOSTER FAULT,sensor,sensor
27,CHW Prim Pump 1 Fail,"sensor, alarm",sensor
28,CHW Prim Pump 2 Fail,"sensor, alarm",sensor
29,CHW CT GND P1 FAIL,"sensor, alarm",sensor
30,CHW CT GND P2 FAIL,"sensor, alarm",sensor
31,CHW CT 1ST P1 FAIL,"sensor, alarm",sensor
32,CHW CT 1ST P2 FAIL,"sensor, alarm",sensor
33,CHW CT AHU P1 FAIL,"sensor, alarm",sensor
34,CHW CT AHU P2 FAIL,"sensor, alarm",sensor
35,CHW Flow Temp,"sp, temp, water, leaving, oneA","air, sensor, temp"
36,CHW TANK 2 TEMP,"sensor, temp, air","air, sensor, temp"
37,CHW FLOW TEMP,"sensor, temp, water, chilled, leaving","air, sensor, temp"
38,CHW GND CT TEMP,"sensor, temp, air","air, sensor, temp"
39,CHW 1ST CT TEMP,"sensor, temp, air","air, sensor, temp"
40,CHW AHU CT TEMP,"sensor, temp, air","air, return, sensor, temp"
41,CWS TANK 1 TEMP,"sensor, temp, water, chilled","air, sensor, temp"
42,Common Alarm,cmd,sensor
43,Common Alarm,cmd,sensor
44,Airflow Alarm Delay,"sp, oneA",sp
45,Common Alarm,cmd,sensor
46,Airflow Alarm Delay,"sp, oneA",sp
47,Common Alarm,cmd,sensor
48,COMMON ALARM,cmd,sensor
49,COMMON ALARM,cmd,sensor
50,COMMON ALARM,cmd,sensor
51,COMMON ALARM,cmd,sensor
52,COMMON ALARM,cmd,sensor
53,COMMON ALARM,cmd,sensor
54,Common Alarm,cmd,sensor
55,Common Alarm,cmd,sensor
56,Common Alarm,cmd,sensor
57,COMMON ALARM LAMP,cmd,sensor
58,FIRE ALARM OK,sensor,sensor
59,ALARM RESET BUTTON,"sensor, alarm",sensor
60,ALARM RESET BUTTON,"sensor, alarm",sensor
61,FIRE ALARM OK,sensor,sensor
62,Bottle Change Alarm,"sensor, alarm",sensor
63,Airflow Fail Alarm,"sensor, alarm",sensor
64,Bottle Change Alarm,"sensor, alarm",sensor
65,Airflow Fail Alarm,"sensor, alarm",sensor
66,Bottle Change Alarm,"sensor, alarm",sensor
67,Airflow Fail Alarm,"sensor, alarm",sensor
68,Bottle Change Alarm,"sensor, alarm",sensor
69,Airflow Fail Alarm,"sensor, alarm",sensor
70,BOTTLE CHANGE ALARM,"sensor, alarm",sensor
71,AIRFLOW FAIL ALARM,"sensor, alarm",sensor
72,BOTTLE CHANGE ALARM,"sensor, alarm",sensor
73,AIRFLOW FAIL ALARM,"sensor, alarm",sensor
74,BOTTLE CHANGE ALARM,"sensor, alarm",sensor
75,AIRFLOW FAIL ALARM,"sensor, alarm",sensor
76,BOTTLE CHANGE ALARM,"sensor, alarm",sensor
77,AIRFLOW FAIL ALARM,"sensor, alarm",sensor
78,BOTTLE CHANGE ALARM,"sensor, alarm",sensor
79,AIRFLOW FAIL ALARM,"sensor, alarm",sensor
80,BOTTLE CHANGE ALARM,"sensor, alarm",sensor
81,AIRFLOW FAIL ALARM,"sensor, alarm",sensor
82,Bottle Change Alarm,"sensor, alarm",sensor
83,Airflow Fail Alarm,"sensor, alarm",sensor
84,Airflow Alarm Delay,"sp, oneA",sp
85,Bottle Change Alarm,"sensor, alarm",sensor
86,Airflow Fail Alarm,"sensor, alarm",sensor
87,Airflow Alarm Delay,"sp, oneA",sp
88,Bottle Change Alarm,"sensor, alarm",sensor
89,Airflow Fail Alarm,"sensor, alarm",sensor
90,Airflow Alarm Delay,"sp, oneA",sp
91,OS 14 Common Alarm,"sensor, alarm",sensor
92,ALARM,"sensor, alarm",sensor
93,ALARM RESET BUTTON,sensor,sensor
94,FIRE ALARM OK,sensor,sensor
95,COMMON ALARM LAMP,cmd,sensor
96,Fire Alarm Ok,sensor,sensor
97,ALARM RESET BUTTON,"sensor, alarm",sensor
98,FIRE ALARM OK,sensor,sensor
99,1st Stage Frost,"sp, oneA",sp
100,Fire Alarm Status,"sensor, alarm",sensor
101,COMMON ALARM LAMP,cmd,sensor
102,ALARM RESET BUTTON,"sensor, alarm",sensor
103,FIRE ALARM OK,sensor,sensor
104,Comm Alarm OS51,"sensor, alarm",sensor
105,OUTSIDE AIR TEMP,"sensor, temp, air, outside","air, sensor, temp"
106,2nd outside air sens,"sensor, temp, air, outside",sp
107,AHU CT Pump Speed Manual,"sp, oneA",sp
108,AHU CT PUMP SPEED MAX,"sp, oneA",sp
109,AHU CT pump in manual speed,"sp,override","override, sp"
110,CT hold off,"sp, oneA",sp
111,AHU CT HTG PUMP 1 INV FLT,"sensor, alarm",sensor
112,AHU CT HTG PUMP 1 INV FLT,"sensor, alarm",sensor
113,Ct Gnd Pump 1 Fail,"sensor, alarm",sensor
114,Ct Gnd Pump 2 Fail,"sensor, alarm",sensor
115,1st Ct Pump 1 Fail,"sensor, alarm",sensor
116,1st Ct Pump 2 Fail,"sensor, alarm",sensor
117,AHU Ct Pump 1 Fail,"sensor, alarm",sensor
118,AHU Ct Pump 2 Fail,"sensor, alarm",sensor
119,AHU CT FLOW FAIL,"sensor, alarm",sensor
120,GND FCU CT TEMP,"sensor, temp, water, hot, leaving","air, sensor, temp"
121,1ST FCU CT TEMP,"sensor, temp, water, hot, leaving","air, sensor, temp"
122,AHU'S CT TEMP,"sensor, temp, water, hot, leaving","air, return, sensor, temp"
123,HWS PRIMARY VALVE,cmd,cmd
124,DHW Sec PUMP,cmd,sp
125,DHW LTHW DEMAND OK SP,"sp, oneA",sp
126,DHW SETBACK,"sp, oneA",sp
127,DHW TIMEZONE,"sp, occupied, oneA",sensor
128,DHW Night time setback,"sp, occupied, oneA",sensor
129,LTHW enable from DHW,sensor,sensor
130,DHWS CIRC PUMP TRIP,"sensor, alarm",sensor
131,DHWS PRIMARY FLOW FAIL,"sensor, alarm",sensor
132,HWS PRIMARY PUMP 1 Fail,"sensor, alarm",sensor
133,HWS PRIMARY PUMP 2 Fail,"sensor, alarm",sensor
134,HWS PRIMARY PUMP 1 ENABLE,sensor,sensor
135,HWS PRIMARY PUMP 2 ENABLE,sensor,sensor
136,DHW Enable,sensor,sensor
137,DHW FLOW SETPOINT,"sp, oneA","oneA, sp"
138,DHWS PRI FLOW TEMP,"sensor, temp, water, hot, leaving","air, sensor, temp"
139,DHWS TANK TEMP,"sensor, temp, water, hot, leaving","air, sensor, temp"
140,DHWS SEC FLOW TEMP,"sensor, temp, water, hot, leaving","air, sensor, temp"
141,Boiler Manual Seq,"sp, oneA",sp
142,Outside Air Cuttoff,"sp, oneA",sp
143,Boiler Return Temp,"sp, temp, water, entering, oneA","air, sensor, temp"
144,GAS VALVE CLOSED,sensor,sensor
145,LPHW Pressure,cmd,sensor
146,LPHW System,cmd,sensor
147,LPHW Press,sensor,sensor
148,LPHW PRESS UNIT FLT,sensor,sensor
149,LPHW FLOW TEMP,"sensor, temp, water, hot, leaving","air, sensor, temp"
150,LPHW RETURN TEMP,"sensor, temp, water, hot, entering","air, sensor, temp"
151,Genny 1 Failed,"sensor, alarm",sensor
152,Genny 1 Comm Fault,"sensor, alarm",sensor
153,Bulk Tank Low Level,sensor,sensor
154,Genny 2 On Load,sensor,sensor
155,Genny 2 Failed,"sensor, alarm",sensor
156,Genny 1 Comm Fault,"sensor, alarm",sensor
157,MAINS 1 ACB FAILED,"sensor, alarm",sensor
158,MAINS 2 ACB FAILED,"sensor, alarm",sensor
159,MAINS 3 ACB FAILED,"sensor, alarm",sensor
160,Genny 1 On Load,sensor,sensor
161,Dix Module A,sensor,sp
162,Dix Module B,sensor,sp
163,TOTAL GENNY LOAD,sensor,sp
164,TOTAL BUILDING LOAD,sensor,sp
165,UPS-CR1A UPS On,sensor,sensor
166,UPS-CR1A On Bypass,sensor,sensor
167,UPS-CR1A Comm Fault,"sensor, alarm",sensor
168,CR1B - BATT ON LOAD,sensor,sensor
169,UPS-CR1B UPS On,sensor,sensor
170,UPS-CR1B On Bypass,sensor,sensor
171,UPS-CR1B Comm Fault,"sensor, alarm",sensor
172,LV1A BATT ON LOAD,sensor,sensor
173,UPS-LV1A UPS On,sensor,sensor
174,UPS-LV1A On Bypass,sensor,sensor
175,UPS-LV1A Comm Fault,"sensor, alarm",sensor
176,LV1B - BATT ON LOAD,sensor,sensor
177,UPS-LV1B UPS On,sensor,sensor
178,UPS-LV1B On Bypass,sensor,sensor
179,UPS-LV1B Comm Fault,"sensor, alarm",sensor
180,LV1FA - BATT ON LOAD,sensor,sensor
181,UPS-LV1FA UPS ON,sensor,sensor
182,UPS-LV1FA ON BYPASS,sensor,sensor
183,UPS-LV1FA COMM FAULT,"sensor, alarm",sensor
184,CR1A - BATT ON LOAD,sensor,sensor
185,Dix Module A,sensor,sp
186,Dix Module B,sensor,sp
187,Dix Module C,sensor,sp
188,Dix Module D,sensor,sp
189,Dix Module E,sensor,sp
190,UPS-CR2A UPS On,sensor,sensor
191,UPS-CR2A On Bypass,sensor,sensor
192,UPS-CR2A Comm Fault,"sensor, alarm",sensor
193,CR2B - BATT ON LOAD,sensor,sensor
194,UPS-CR2B UPS On,sensor,sensor
195,UPS-CR2B On Bypass,sensor,sensor
196,UPS-CR2B Comm Fault,"sensor, alarm",sensor
197,LV2A - BATT ON LOAD,sensor,sensor
198,UPS-LV2A UPS On,sensor,sensor
199,UPS-LV1A On Bypass,sensor,sensor
200,UPS-LV2A Comm Fault,"sensor, alarm",sensor
201,LV2B - BATT ON LOAD,sensor,sensor
202,UPS-LV2B UPS On,sensor,sensor
203,UPS-LV2B On Bypass,sensor,sensor
204,UPS-LV2B Comm Fault,"sensor, alarm",sensor
205,LV2FA-BATT ON LOAD,sensor,sensor
206,UPS-LV2FA UPS ON,sensor,sensor
207,UPS-LV2FA ON BYPASS,sensor,sensor
208,UPS-LV2FA COMM FAULT,"sensor, alarm",sensor
209,CR2A - BATT ON LOAD,sensor,sensor
210,Dix Module A,sensor,sp
211,Dix Module B,sensor,sp
212,Dix Module C,sensor,sp
213,Dix Module D,sensor,sp
214,Dix Module E,sensor,sp
215,UPS-CR3A UPS On,sensor,sensor
216,UPS-CR3A On Bypass,sensor,sensor
217,UPS-CR3A Comm Fault,"sensor, alarm",sensor
218,CR3B - BATT ON LOAD,sensor,sensor
219,UPS-CR3B UPS On,sensor,sensor
220,UPS-CR3B On Bypass,sensor,sensor
221,UPS-CR3B Comm Fault,"sensor, alarm",sensor
222,SW3 - BATT ON LOAD,sensor,sensor
223,UPS-SW3 UPS On,sensor,sensor
224,UPS-SW3 On Bypass,sensor,sensor
225,UPS-SW3 Comm Fault,"sensor, alarm",sensor
226,CR3A - BATT ON LOAD,sensor,sensor
227,Dix Module A,sensor,sp
228,Dix Module B,sensor,sp
229,Dix Module C,sensor,sp
230,UPS-CR4A UPS On,sensor,sensor
231,UPS-CR4A On Bypass,sensor,sensor
232,UPS-CR4A Comm Fault,"sensor, alarm",sensor
233,CR4B-BATT ON LOAD,sensor,sensor
234,UPS-CR4B UPS On,sensor,sensor
235,UPS-CR4B On Bypass,sensor,sensor
236,UPS-CR4B Comm Fault,"sensor, alarm",sensor
237,SW4-BATT ON LOAD,sensor,sensor
238,UPS-SW4 UPS On,sensor,sensor
239,UPS-SW4 On Bypass,sensor,sensor
240,UPS-SW4 Comm Fault,"sensor, alarm",sensor
241,COMMS 3 & 4 LEAK,sensor,sensor
242,CR4A-BATT ON LOAD,sensor,sensor
243,Dix Module A,sensor,sp
244,Dix Module B,sensor,sp
245,Dix Module C,sensor,sp
246,AC Unit 1 Enable,"cmd, run",sensor
247,AC Unit 1,"sp, occupied, oneA",sensor
248,Mezz AC Unit 1 Fault,"sensor, alarm",sensor
249,AC Unit 2 Enable,"cmd, run",sensor
250,AC Unit 2,"sp, occupied, oneA",sensor
251,Mezz AC Unit 2 Fault,"sensor, alarm",sensor
252,AC Unit 3 Enable,"cmd, run",sensor
253,AC Unit 3,"sp, occupied, oneA",sensor
254,Mezz AC Unit 3 Fault,"sensor, alarm",sensor
255,AC Unit 4,"sp, occupied, oneA",sensor
256,Mezz AC Unit 4 Enb,"cmd, run",sensor
257,Mezz AC Unit 4 Fault,"sensor, alarm",sensor
258,Space temp,"sensor, temp, air, zone","air, sensor, temp, zone"
259,Space cooling setpoint,"sp, temp, air, zone, cool, oneA","air, cool, sp, temp, zone"
260,Space heating setpoint,"sp, temp, air, zone, heat, oneA","air, heat, sp, temp, zone"
261,Enable,"cmd, run",sensor
262,Heating valve,"cmd, heat","cmd, heat"
263,Cooling valve,"cmd, cool","cmd, cool"
264,Space temp,"sensor, temp, air, zone","air, sensor, temp, zone"
265,Space cooling setpoint,"sp, temp, air, zone, cool, oneA","air, cool, sp, temp, zone"
266,Space heating setpoint,"sp, temp, air, zone, heat, oneA","air, heat, sp, temp, zone"
267,Enable,"cmd, run",sensor
268,Heating valve,"cmd, heat","cmd, heat"
269,Cooling valve,"cmd, cool","cmd, cool"
270,Space temp,"sensor, temp, air, zone","air, sensor, temp, zone"
271,Space cooling setpoint,"sp, temp, air, zone, cool, oneA","air, cool, sp, temp, zone"
272,Space heating setpoint,"sp, temp, air, zone, heat, oneA","air, heat, sp, temp, zone"
273,Enable,"cmd, run",sensor
274,Heating valve,"cmd, heat","cmd, heat"
275,Cooling valve,"cmd, cool","cmd, cool"
276,Space temp,"sensor, temp, air, zone","air, sensor, temp, zone"
277,Space cooling setpoint,"sp, temp, air, zone, cool, oneA","air, cool, sp, temp, zone"
278,Space heating setpoint,"sp, temp, air, zone, heat, oneA","air, heat, sp, temp, zone"
279,Enable,"cmd, run",sensor
280,Heating valve,"cmd, heat","cmd, heat"
281,Cooling valve,"cmd, cool","cmd, cool"
282,Space temp,"sensor, temp, air, zone","air, sensor, temp, zone"
283,Space cooling setpoint,"sp, temp, air, zone, cool, oneA","air, cool, sp, temp, zone"
284,Space heating setpoint,"sp, temp, air, zone, heat, oneA","air, heat, sp, temp, zone"
285,Enable,"cmd, run",sensor
286,Heating valve,"cmd, heat","cmd, heat"
287,Cooling valve,"cmd, cool","cmd, cool"
288,Space temp,"sensor, temp, air, zone","air, sensor, temp, zone"
289,Space cooling setpoint,"sp, temp, air, zone, cool, oneA","air, cool, sp, temp, zone"
290,Space heating setpoint,"sp, temp, air, zone, heat, oneA","air, heat, sp, temp, zone"
291,Enable,"cmd, run",sensor
292,Heating valve,"cmd, heat","cmd, heat"
293,Cooling valve,"cmd, cool","cmd, cool"
294,Space temp,"sensor, temp, air, zone","air, sensor, temp, zone"
295,Space cooling setpoint,"sp, temp, air, zone, cool, oneA","air, cool, sp, temp, zone"
296,Space heating setpoint,"sp, temp, air, zone, heat, oneA","air, heat, sp, temp, zone"
297,Enable,"cmd, run",sensor
298,Heating valve,"cmd, heat","cmd, heat"
299,Cooling valve,"cmd, cool","cmd, cool"
300,Space temp,"sensor, temp, air, zone","air, sensor, temp, zone"
301,Space cooling setpoint,"sp, temp, air, zone, cool, oneA","air, cool, sp, temp, zone"
302,Space heating setpoint,"sp, temp, air, zone, heat, oneA","air, heat, sp, temp, zone"
303,Enable,"cmd, run",sensor
304,Heating valve,"cmd, heat","cmd, heat"
305,Cooling valve,"cmd, cool","cmd, cool"
306,Space temp,"sensor, temp, air, zone","air, sensor, temp, zone"
307,Space cooling setpoint,"sp, temp, air, zone, cool, oneA","air, cool, sp, temp, zone"
308,Space heating setpoint,"sp, temp, air, zone, heat, oneA","air, heat, sp, temp, zone"
309,Enable,"cmd, run",sensor
310,Heating valve,"cmd, heat","cmd, heat"
311,Cooling valve,"cmd, cool","cmd, cool"
312,Space temp,"sensor, temp, air, zone","air, sensor, temp, zone"
313,Space cooling setpoint,"sp, temp, air, zone, cool, oneA","air, cool, sp, temp, zone"
314,Space heating setpoint,"sp, temp, air, zone, heat, oneA","air, heat, sp, temp, zone"
315,Enable,"cmd, run",sensor
316,Heating valve,"cmd, heat","cmd, heat"
317,Cooling valve,"cmd, cool","cmd, cool"
318,Space temp,"sensor, temp, air, zone","air, sensor, temp, zone"
319,Space cooling setpoint,"sp, temp, air, zone, cool, oneA","air, cool, sp, temp, zone"
320,Space heating setpoint,"sp, temp, air, zone, heat, oneA","air, heat, sp, temp, zone"
321,Enable,"cmd, run",sensor
322,Heating valve,"cmd, heat","cmd, heat"
323,Cooling valve,"cmd, cool","cmd, cool"
324,Space temp,"sensor, temp, air, zone","air, sensor, temp, zone"
325,Space cooling setpoint,"sp, temp, air, zone, cool, oneA","air, cool, sp, temp, zone"
326,Space heating setpoint,"sp, temp, air, zone, heat, oneA","air, heat, sp, temp, zone"
327,Enable,"cmd, run",sensor
328,Heating valve,"cmd, heat","cmd, heat"
329,Cooling valve,"cmd, cool","cmd, cool"
330,Space temp,"sensor, temp, air, zone","air, sensor, temp, zone"
331,Space cooling setpoint,"sp, temp, air, zone, cool, oneA","air, cool, sp, temp, zone"
332,Space heating setpoint,"sp, temp, air, zone, heat, oneA","air, heat, sp, temp, zone"
333,Enable,"cmd, run",sensor
334,Heating valve,"cmd, heat","cmd, heat"
335,Cooling valve,"cmd, cool","cmd, cool"
336,Space temp,"sensor, temp, air, zone","air, sensor, temp, zone"
337,Space cooling setpoint,"sp, temp, air, zone, cool, oneA","air, cool, sp, temp, zone"
338,Space heating setpoint,"sp, temp, air, zone, heat, oneA","air, heat, sp, temp, zone"
339,Enable,"cmd, run",sensor
340,Heating valve,"cmd, heat","cmd, heat"
341,Cooling valve,"cmd, cool","cmd, cool"
342,Space temp,"sensor, temp, air, zone","air, sensor, temp, zone"
343,Space cooling setpoint,"sp, temp, air, zone, cool, oneA","air, cool, sp, temp, zone"
344,Space heating setpoint,"sp, temp, air, zone, heat, oneA","air, heat, sp, temp, zone"
345,Enable,"cmd, run",sensor
346,Heating valve,"cmd, heat","cmd, heat"
347,Cooling valve,"cmd, cool","cmd, cool"
348,Space temp,"sensor, temp, air, zone","air, sensor, temp, zone"
349,Space cooling setpoint,"sp, temp, air, zone, cool, oneA","air, cool, sp, temp, zone"
350,Space heating setpoint,"sp, temp, air, zone, heat, oneA","air, heat, sp, temp, zone"
351,Enable,"cmd, run",sensor
352,Heating valve,"cmd, heat","cmd, heat"
353,Cooling valve,"cmd, cool","cmd, cool"
354,Space temp,"sensor, temp, air, zone","air, sensor, temp, zone"
355,Space cooling setpoint,"sp, temp, air, zone, cool, oneA","air, cool, sp, temp, zone"
356,Space heating setpoint,"sp, temp, air, zone, heat, oneA","air, heat, sp, temp, zone"
357,Enable,"cmd, run",sensor
358,Heating valve,"cmd, heat","cmd, heat"
359,Cooling valve,"cmd, cool","cmd, cool"
360,Space temp,"sensor, temp, air, zone","air, sensor, temp, zone"
361,Space cooling setpoint,"sp, temp, air, zone, cool, oneA","air, cool, sp, temp, zone"
362,Space heating setpoint,"sp, temp, air, zone, heat, oneA","air, heat, sp, temp, zone"
363,Enable,"cmd, run",sensor
364,Heating valve,"cmd, heat","cmd, heat"
365,Cooling valve,"cmd, cool","cmd, cool"
366,Space temp,"sensor, temp, air, zone","air, sensor, temp, zone"
367,Space cooling setpoint,"sp, temp, air, zone, cool, oneA","air, cool, sp, temp, zone"
368,Space heating setpoint,"sp, temp, air, zone, heat, oneA","air, heat, sp, temp, zone"
369,Enable,"cmd, run",sensor
370,Heating valve,"cmd, heat","cmd, heat"
371,Cooling valve,"cmd, cool","cmd, cool"
372,Space temp,"sensor, temp, air, zone","air, sensor, temp, zone"
373,Space cooling setpoint,"sp, temp, air, zone, cool, oneA","air, cool, sp, temp, zone"
374,Space heating setpoint,"sp, temp, air, zone, heat, oneA","air, heat, sp, temp, zone"
375,Enable,"cmd, run",sensor
376,Heating valve,"cmd, heat","cmd, heat"
377,Cooling valve,"cmd, cool","cmd, cool"
378,Space temp,"sensor, temp, air, zone","air, sensor, temp, zone"
379,Space cooling setpoint,"sp, temp, air, zone, cool, oneA","air, cool, sp, temp, zone"
380,Space heating setpoint,"sp, temp, air, zone, heat, oneA","air, heat, sp, temp, zone"
381,Enable,"cmd, run",sensor
382,Heating valve,"cmd, heat","cmd, heat"
383,Cooling valve,"cmd, cool","cmd, cool"
384,Space temp,"sensor, temp, air, zone","air, sensor, temp, zone"
385,Space cooling setpoint,"sp, temp, air, zone, cool, oneA","air, cool, sp, temp, zone"
386,Space heating setpoint,"sp, temp, air, zone, heat, oneA","air, heat, sp, temp, zone"
387,Enable,"cmd, run",sensor
388,Heating valve,"cmd, heat","cmd, heat"
389,Cooling valve,"cmd, cool","cmd, cool"
390,Space temp,"sensor, temp, air, zone","air, sensor, temp, zone"
391,Space cooling setpoint,"sp, temp, air, zone, cool, oneA","air, cool, sp, temp, zone"
392,Space heating setpoint,"sp, temp, air, zone, heat, oneA","air, heat, sp, temp, zone"
393,Enable,"cmd, run",sensor
394,Heating valve,"cmd, heat","cmd, heat"
395,Cooling valve,"cmd, cool","cmd, cool"
396,Space temp,"sensor, temp, air, zone","air, sensor, temp, zone"
397,Space cooling setpoint,"sp, temp, air, zone, cool, oneA","air, cool, sp, temp, zone"
398,Space heating setpoint,"sp, temp, air, zone, heat, oneA","air, heat, sp, temp, zone"
399,Enable,"cmd, run",sensor
400,Heating valve,"cmd, heat","cmd, heat"
401,Cooling valve,"cmd, cool","cmd, cool"
402,Space temp,"sensor, temp, air, zone","air, sensor, temp, zone"
403,Space cooling setpoint,"sp, temp, air, zone, cool, oneA","air, cool, sp, temp, zone"
404,Space heating setpoint,"sp, temp, air, zone, heat, oneA","air, heat, sp, temp, zone"
405,Enable,"cmd, run",sensor
406,Heating valve,"cmd, heat","cmd, heat"
407,Cooling valve,"cmd, cool","cmd, cool"
408,Space temp,"sensor, temp, air, zone","air, sensor, temp, zone"
409,Space cooling setpoint,"sp, temp, air, zone, cool, oneA","air, cool, sp, temp, zone"
410,Space heating setpoint,"sp, temp, air, zone, heat, oneA","air, heat, sp, temp, zone"
411,Enable,"cmd, run",sensor
412,Heating valve,"cmd, heat","cmd, heat"
413,Cooling valve,"cmd, cool","cmd, cool"
414,Space temp,"sensor, temp, air, zone","air, sensor, temp, zone"
415,Space cooling setpoint,"sp, temp, air, zone, cool, oneA","air, cool, sp, temp, zone"
416,Space heating setpoint,"sp, temp, air, zone, heat, oneA","air, heat, sp, temp, zone"
417,Enable,"cmd, run",sensor
418,Heating valve,"cmd, heat","cmd, heat"
419,Cooling valve,"cmd, cool","cmd, cool"
420,Space temp,"sensor, temp, air, zone","air, sensor, temp, zone"
421,Space cooling setpoint,"sp, temp, air, zone, cool, oneA","air, cool, sp, temp, zone"
422,Space heating setpoint,"sp, temp, air, zone, heat, oneA","air, heat, sp, temp, zone"
423,Enable,"cmd, run",sensor
424,Heating valve,"cmd, heat","cmd, heat"
425,Cooling valve,"cmd, cool","cmd, cool"
426,Space temp,"sensor, temp, air, zone","air, sensor, temp, zone"
427,Space cooling setpoint,"sp, temp, air, zone, cool, oneA","air, cool, sp, temp, zone"
428,Space heating setpoint,"sp, temp, air, zone, heat, oneA","air, heat, sp, temp, zone"
429,Enable,"cmd, run",sensor
430,Heating valve,"cmd, heat","cmd, heat"
431,Cooling valve,"cmd, cool","cmd, cool"
432,Space temp,"sensor, temp, air, zone","air, sensor, temp, zone"
433,Space cooling setpoint,"sp, temp, air, zone, cool, oneA","air, cool, sp, temp, zone"
434,Space heating setpoint,"sp, temp, air, zone, heat, oneA","air, heat, sp, temp, zone"
435,Enable,"cmd, run",sensor
436,Heating valve,"cmd, heat","cmd, heat"
437,Cooling valve,"cmd, cool","cmd, cool"
438,Space temp,"sensor, temp, air, zone","air, sensor, temp, zone"
439,Space cooling setpoint,"sp, temp, air, zone, cool, oneA","air, cool, sp, temp, zone"
440,Space heating setpoint,"sp, temp, air, zone, heat, oneA","air, heat, sp, temp, zone"
441,Enable,"cmd, run",sensor
442,Heating valve,"cmd, heat","cmd, heat"
443,Cooling valve,"cmd, cool","cmd, cool"
444,Space temp,"sensor, temp, air, zone","air, sensor, temp, zone"
445,Space cooling setpoint,"sp, temp, air, zone, cool, oneA","air, cool, sp, temp, zone"
446,Space heating setpoint,"sp, temp, air, zone, heat, oneA","air, heat, sp, temp, zone"
447,Enable,"cmd, run",sensor
448,Heating valve,"cmd, heat","cmd, heat"
449,Cooling valve,"cmd, cool","cmd, cool"
450,Space temp,"sensor, temp, air, zone","air, sensor, temp, zone"
451,Space cooling setpoint,"sp, temp, air, zone, cool, oneA","air, cool, sp, temp, zone"
452,Space heating setpoint,"sp, temp, air, zone, heat, oneA","air, heat, sp, temp, zone"
453,Enable,"cmd, run",sensor
454,Heating valve,"cmd, heat","cmd, heat"
455,Cooling valve,"cmd, cool","cmd, cool"
456,Space temp,"sensor, temp, air, zone","air, sensor, temp, zone"
457,Space cooling setpoint,"sp, temp, air, zone, cool, oneA","air, cool, sp, temp, zone"
458,Space heating setpoint,"sp, temp, air, zone, heat, oneA","air, heat, sp, temp, zone"
459,Enable,"cmd, run",sensor
460,Heating valve,"cmd, heat","cmd, heat"
461,Cooling valve,"cmd, cool","cmd, cool"
462,Space temp,"sensor, temp, air, zone","air, sensor, temp, zone"
463,Space cooling setpoint,"sp, temp, air, zone, cool, oneA","air, cool, sp, temp, zone"
464,Space heating setpoint,"sp, temp, air, zone, heat, oneA","air, heat, sp, temp, zone"
465,Enable,"cmd, run",sensor
466,Heating valve,"cmd, heat","cmd, heat"
467,Cooling valve,"cmd, cool","cmd, cool"
468,Space temp,"sensor, temp, air, zone","air, sensor, temp, zone"
469,Space cooling setpoint,"sp, temp, air, zone, cool, oneA","air, cool, sp, temp, zone"
470,Space heating setpoint,"sp, temp, air, zone, heat, oneA","air, heat, sp, temp, zone"
471,Enable,"cmd, run",sensor
472,Heating valve,"cmd, heat","cmd, heat"
473,Cooling valve,"cmd, cool","cmd, cool"
474,Space temp,"sensor, temp, air, zone","air, sensor, temp, zone"
475,Space cooling setpoint,"sp, temp, air, zone, cool, oneA","air, cool, sp, temp, zone"
476,Space heating setpoint,"sp, temp, air, zone, heat, oneA","air, heat, sp, temp, zone"
477,Enable,"cmd, run",sensor
478,Heating valve,"cmd, heat","cmd, heat"
479,Cooling valve,"cmd, cool","cmd, cool"
480,Space temp,"sensor, temp, air, zone","air, sensor, temp, zone"
481,Space cooling setpoint,"sp, temp, air, zone, cool, oneA","air, cool, sp, temp, zone"
482,Space heating setpoint,"sp, temp, air, zone, heat, oneA","air, heat, sp, temp, zone"
483,Enable,"cmd, run",sensor
484,Heating valve,"cmd, heat","cmd, heat"
485,Cooling valve,"cmd, cool","cmd, cool"
486,Space temp,"sensor, temp, air, zone","air, sensor, temp, zone"
487,Space cooling setpoint,"sp, temp, air, zone, cool, oneA","air, cool, sp, temp, zone"
488,Space heating setpoint,"sp, temp, air, zone, heat, oneA","air, heat, sp, temp, zone"
489,Enable,"cmd, run",sensor
490,Heating valve,"cmd, heat","cmd, heat"
491,Cooling valve,"cmd, cool","cmd, cool"
492,Space temp,"sensor, temp, air, zone","air, sensor, temp, zone"
493,Space cooling setpoint,"sp, temp, air, zone, cool, oneA","air, cool, sp, temp, zone"
494,Space heating setpoint,"sp, temp, air, zone, heat, oneA","air, heat, sp, temp, zone"
495,Enable,"cmd, run",sensor
496,Heating valve,"cmd, heat","cmd, heat"
497,Cooling valve,"cmd, cool","cmd, cool"
498,Space temp,"sensor, temp, air, zone","air, sensor, temp, zone"
499,Space cooling setpoint,"sp, temp, air, zone, cool, oneA","air, cool, sp, temp, zone"
500,Space heating setpoint,"sp, temp, air, zone, heat, oneA","air, heat, sp, temp, zone"
501,Enable,"cmd, run",sensor
502,Heating valve,"cmd, heat","cmd, heat"
503,Cooling valve,"cmd, cool","cmd, cool"
504,Space temp,"sensor, temp, air, zone","air, sensor, temp, zone"
505,Space cooling setpoint,"sp, temp, air, zone, cool, oneA","air, cool, sp, temp, zone"
506,Space heating setpoint,"sp, temp, air, zone, heat, oneA","air, heat, sp, temp, zone"
507,Enable,"cmd, run",sensor
508,Heating valve,"cmd, heat","cmd, heat"
509,Cooling valve,"cmd, cool","cmd, cool"
510,Space temp,"sensor, temp, air, zone","air, sensor, temp, zone"
511,Space cooling setpoint,"sp, temp, air, zone, cool, oneA","air, cool, sp, temp, zone"
512,Space heating setpoint,"sp, temp, air, zone, heat, oneA","air, heat, sp, temp, zone"
513,Enable,"cmd, run",sensor
514,Heating valve,"cmd, heat","cmd, heat"
515,Cooling valve,"cmd, cool","cmd, cool"
516,Space temp,"sensor, temp, air, zone","air, sensor, temp, zone"
517,Space cooling setpoint,"sp, temp, air, zone, cool, oneA","air, cool, sp, temp, zone"
518,Space heating setpoint,"sp, temp, air, zone, heat, oneA","air, heat, sp, temp, zone"
519,Enable,"cmd, run",sensor
520,Heating valve,"cmd, heat","cmd, heat"
521,Cooling valve,"cmd, cool","cmd, cool"
522,Space temp,"sensor, temp, air, zone","air, sensor, temp, zone"
523,Space cooling setpoint,"sp, temp, air, zone, cool, oneA","air, cool, sp, temp, zone"
524,Space heating setpoint,"sp, temp, air, zone, heat, oneA","air, heat, sp, temp, zone"
525,Enable,"cmd, run",sensor
526,Heating valve,"cmd, heat","cmd, heat"
527,Cooling valve,"cmd, cool","cmd, cool"
528,Space temp,"sensor, temp, air, zone","air, sensor, temp, zone"
529,Space cooling setpoint,"sp, temp, air, zone, cool, oneA","air, cool, sp, temp, zone"
530,Space heating setpoint,"sp, temp, air, zone, heat, oneA","air, heat, sp, temp, zone"
531,Enable,"cmd, run",sensor
532,Heating valve,"cmd, heat","cmd, heat"
533,Cooling valve,"cmd, cool","cmd, cool"
534,Space temp,"sensor, temp, air, zone","air, sensor, temp, zone"
535,Space cooling setpoint,"sp, temp, air, zone, cool, oneA","air, cool, sp, temp, zone"
536,Space heating setpoint,"sp, temp, air, zone, heat, oneA","air, heat, sp, temp, zone"
537,Enable,"cmd, run",sensor
538,Heating valve,"cmd, heat","cmd, heat"
539,Cooling valve,"cmd, cool","cmd, cool"
540,Space temp,"sensor, temp, air, zone","air, sensor, temp, zone"
541,Space cooling setpoint,"sp, temp, air, zone, cool, oneA","air, cool, sp, temp, zone"
542,Space heating setpoint,"sp, temp, air, zone, heat, oneA","air, heat, sp, temp, zone"
543,Enable,"cmd, run",sensor
544,Heating valve,"cmd, heat","cmd, heat"
545,Cooling valve,"cmd, cool","cmd, cool"
546,Space cooling setpoint,"sp, temp, air, zone, cool, oneA","air, cool, sp, temp, zone"
547,Space heating setpoint,"sp, temp, air, zone, heat, oneA","air, heat, sp, temp, zone"
548,Enable,"cmd, run",sensor
549,Heating valve,"cmd, heat","cmd, heat"
550,Cooling valve,"cmd, cool","cmd, cool"
551,Space temp,"sensor, temp, air, zone","air, sensor, temp, zone"
552,Space cooling setpoint,"sp, temp, air, zone, cool, oneA","air, cool, sp, temp, zone"
553,Space heating setpoint,"sp, temp, air, zone, heat, oneA","air, heat, sp, temp, zone"
554,Enable,"cmd, run",sensor
555,Heating valve,"cmd, heat","cmd, heat"
556,Cooling valve,"cmd, cool","cmd, cool"
557,Space temp,"sensor, temp, air, zone","air, sensor, temp, zone"
558,Space cooling setpoint,"sp, temp, air, zone, cool, oneA","air, cool, sp, temp, zone"
559,Space heating setpoint,"sp, temp, air, zone, heat, oneA","air, heat, sp, temp, zone"
560,Enable,"cmd, run",sensor
561,Space temp,"sensor, temp, air, zone","air, sensor, temp, zone"
562,Heating valve,"cmd, heat","cmd, heat"
563,Cooling valve,"cmd, cool","cmd, cool"
564,Space temp,"sensor, temp, air, zone","air, sensor, temp, zone"
565,Space cooling setpoint,"sp, temp, air, zone, cool, oneA","air, cool, sp, temp, zone"
566,Space heating setpoint,"sp, temp, air, zone, heat, oneA","air, heat, sp, temp, zone"
567,Enable,"cmd, run",sensor
568,Heating valve,"cmd, heat","cmd, heat"
569,Cooling valve,"cmd, cool","cmd, cool"
570,Space temp,"sensor, temp, air, zone","air, sensor, temp, zone"
571,Space cooling setpoint,"sp, temp, air, zone, cool, oneA","air, cool, sp, temp, zone"
572,Space heating setpoint,"sp, temp, air, zone, heat, oneA","air, heat, sp, temp, zone"
573,Enable,"cmd, run",sensor
574,Heating valve,"cmd, heat","cmd, heat"
575,Cooling valve,"cmd, cool","cmd, cool"
576,Space temp,"sensor, temp, air, zone","air, sensor, temp, zone"
577,Space cooling setpoint,"sp, temp, air, zone, cool, oneA","air, cool, sp, temp, zone"
578,Space heating setpoint,"sp, temp, air, zone, heat, oneA","air, heat, sp, temp, zone"
579,Enable,"cmd, run",sensor
580,Heating valve,"cmd, heat","cmd, heat"
581,Cooling valve,"cmd, cool","cmd, cool"
582,Space temp,"sensor, temp, air, zone","air, sensor, temp, zone"
583,Space cooling setpoint,"sp, temp, air, zone, cool, oneA","air, cool, sp, temp, zone"
584,Space heating setpoint,"sp, temp, air, zone, heat, oneA","air, heat, sp, temp, zone"
585,Enable,"cmd, run",sensor
586,Heating valve,"cmd, heat","cmd, heat"
587,Cooling valve,"cmd, cool","cmd, cool"
588,Space temp,"sensor, temp, air, zone","air, sensor, temp, zone"
589,Space cooling setpoint,"sp, temp, air, zone, cool, oneA","air, cool, sp, temp, zone"
590,Space heating setpoint,"sp, temp, air, zone, heat, oneA","air, heat, sp, temp, zone"
591,Enable,"cmd, run",sensor
592,Heating valve,"cmd, heat","cmd, heat"
593,Cooling valve,"cmd, cool","cmd, cool"
594,Space temp,"sensor, temp, air, zone","air, sensor, temp, zone"
595,Space cooling setpoint,"sp, temp, air, zone, cool, oneA","air, cool, sp, temp, zone"
596,Space heating setpoint,"sp, temp, air, zone, heat, oneA","air, heat, sp, temp, zone"
597,Enable,"cmd, run",sensor
598,Heating valve,"cmd, heat","cmd, heat"
599,Cooling valve,"cmd, cool","cmd, cool"
600,Gym  AC Units,"cmd, run",sensor
601,Gym AC Units Common Fault,"sensor, alarm",sensor
602,Gym AC Units,"sp, occupied, oneA",sensor
603,Space cooling setpoint,"sp, temp, air, zone, cool, oneA","air, cool, sp, temp, zone"
604,Space heating setpoint,"sp, temp, air, zone, heat, oneA","air, heat, sp, temp, zone"
605,Enable,"cmd, run",sensor
606,Heating valve,"cmd, heat","cmd, heat"
607,Cooling valve,"cmd, cool","cmd, cool"
608,Space temp,"sensor, temp, air, zone","air, sensor, temp, zone"
609,Space temp,"sensor, temp, air, zone","air, sensor, temp, zone"
610,Space cooling setpoint,"sp, temp, air, zone, cool, oneA","air, cool, sp, temp, zone"
611,Space heating setpoint,"sp, temp, air, zone, heat, oneA","air, heat, sp, temp, zone"
612,Enable,"cmd, run",sensor
613,Heating valve,"cmd, heat","cmd, heat"
614,Cooling valve,"cmd, cool","cmd, cool"
615,Space cooling setpoint,"sp, temp, air, zone, cool, oneA","air, cool, sp, temp, zone"
616,Space heating setpoint,"sp, temp, air, zone, heat, oneA","air, heat, sp, temp, zone"
617,Enable,"cmd, run",sensor
618,Heating valve,"cmd, heat","cmd, heat"
619,Cooling valve,"cmd, cool","cmd, cool"
620,Space temp,"sensor, temp, air, zone","air, sensor, temp, zone"
621,Space cooling setpoint,"sp, temp, air, zone, cool, oneA","air, cool, sp, temp, zone"
622,Space heating setpoint,"sp, temp, air, zone, heat, oneA","air, heat, sp, temp, zone"
623,Enable,"cmd, run",sensor
624,Heating valve,"cmd, heat","cmd, heat"
625,Cooling valve,"cmd, cool","cmd, cool"
626,Space temp,"sensor, temp, air, zone","air, sensor, temp, zone"
627,Space cooling setpoint,"sp, temp, air, zone, cool, oneA","air, cool, sp, temp, zone"
628,Space heating setpoint,"sp, temp, air, zone, heat, oneA","air, heat, sp, temp, zone"
629,Enable,"cmd, run",sensor
630,Heating valve,"cmd, heat","cmd, heat"
631,Cooling valve,"cmd, cool","cmd, cool"
632,Space temp,"sensor, temp, air, zone","air, sensor, temp, zone"
633,Space cooling setpoint,"sp, temp, air, zone, cool, oneA","air, cool, sp, temp, zone"
634,Space heating setpoint,"sp, temp, air, zone, heat, oneA","air, heat, sp, temp, zone"
635,Enable,"cmd, run",sensor
636,Heating valve,"cmd, heat","cmd, heat"
637,Cooling valve,"cmd, cool","cmd, cool"
638,Space temp,"sensor, temp, air, zone","air, sensor, temp, zone"
639,Space cooling setpoint,"sp, temp, air, zone, cool, oneA","air, cool, sp, temp, zone"
640,Space heating setpoint,"sp, temp, air, zone, heat, oneA","air, heat, sp, temp, zone"
641,Enable,"cmd, run",sensor
642,Heating valve,"cmd, heat","cmd, heat"
643,Cooling valve,"cmd, cool","cmd, cool"
644,Space temp,"sensor, temp, air, zone","air, sensor, temp, zone"
645,Space cooling setpoint,"sp, temp, air, zone, cool, oneA","air, cool, sp, temp, zone"
646,Space heating setpoint,"sp, temp, air, zone, heat, oneA","air, heat, sp, temp, zone"
647,Enable,"cmd, run",sensor
648,Heating valve,"cmd, heat","cmd, heat"
649,Cooling valve,"cmd, cool","cmd, cool"
650,Space temp,"sensor, temp, air, zone","air, sensor, temp, zone"
651,Space cooling setpoint,"sp, temp, air, zone, cool, oneA","air, cool, sp, temp, zone"
652,Space heating setpoint,"sp, temp, air, zone, heat, oneA","air, heat, sp, temp, zone"
653,Enable,"cmd, run",sensor
654,Heating valve,"cmd, heat","cmd, heat"
655,Cooling valve,"cmd, cool","cmd, cool"
656,Space temp,"sensor, temp, air, zone","air, sensor, temp, zone"
657,Space cooling setpoint,"sp, temp, air, zone, cool, oneA","air, cool, sp, temp, zone"
658,Space heating setpoint,"sp, temp, air, zone, heat, oneA","air, heat, sp, temp, zone"
659,Enable,"cmd, run",sensor
660,Heating valve,"cmd, heat","cmd, heat"
661,Cooling valve,"cmd, cool","cmd, cool"
662,Space temp,"sensor, temp, air, zone","air, sensor, temp, zone"
663,Space temp,"sensor, temp, air, zone","air, sensor, temp, zone"
664,Space cooling setpoint,"sp, temp, air, zone, cool, oneA","air, cool, sp, temp, zone"
665,Space heating setpoint,"sp, temp, air, zone, heat, oneA","air, heat, sp, temp, zone"
666,Enable,"cmd, run",sensor
667,Heating valve,"cmd, heat","cmd, heat"
668,Cooling valve,"cmd, cool","cmd, cool"
669,Space temp,"sensor, temp, air, zone","air, sensor, temp, zone"
670,Space cooling setpoint,"sp, temp, air, zone, cool, oneA","air, cool, sp, temp, zone"
671,Space heating setpoint,"sp, temp, air, zone, heat, oneA","air, heat, sp, temp, zone"
672,Enable,"cmd, run",sensor
673,Heating valve,"cmd, heat","cmd, heat"
674,Cooling valve,"cmd, cool","cmd, cool"
675,Space temp,"sensor, temp, air, zone","air, sensor, temp, zone"
676,Space cooling setpoint,"sp, temp, air, zone, cool, oneA","air, cool, sp, temp, zone"
677,Space heating setpoint,"sp, temp, air, zone, heat, oneA","air, heat, sp, temp, zone"
678,Enable,"cmd, run",sensor
679,Heating valve,"cmd, heat","cmd, heat"
680,Cooling valve,"cmd, cool","cmd, cool"
681,Space temp,"sensor, temp, air, zone","air, sensor, temp, zone"
682,Space cooling setpoint,"sp, temp, air, zone, cool, oneA","air, cool, sp, temp, zone"
683,Space heating setpoint,"sp, temp, air, zone, heat, oneA","air, heat, sp, temp, zone"
684,Enable,"cmd, run",sensor
685,Heating valve,"cmd, heat","cmd, heat"
686,Cooling valve,"cmd, cool","cmd, cool"
687,Space temp,"sensor, temp, air, zone","air, sensor, temp, zone"
688,Space cooling setpoint,"sp, temp, air, zone, cool, oneA","air, cool, sp, temp, zone"
689,Space heating setpoint,"sp, temp, air, zone, heat, oneA","air, heat, sp, temp, zone"
690,Enable,"cmd, run",sensor
691,Heating valve,"cmd, heat","cmd, heat"
692,Cooling valve,"cmd, cool","cmd, cool"
693,Space temp,"sensor, temp, air, zone","air, sensor, temp, zone"
694,Space cooling setpoint,"sp, temp, air, zone, cool, oneA","air, cool, sp, temp, zone"
695,Space heating setpoint,"sp, temp, air, zone, heat, oneA","air, heat, sp, temp, zone"
696,Enable,"cmd, run",sensor
697,Heating valve,"cmd, heat","cmd, heat"
698,Cooling valve,"cmd, cool","cmd, cool"
699,Space cooling setpoint,"sp, temp, air, zone, cool, oneA","air, cool, sp, temp, zone"
700,Space heating setpoint,"sp, temp, air, zone, heat, oneA","air, heat, sp, temp, zone"
701,Enable,"cmd, run",sensor
702,Heating valve,"cmd, heat","cmd, heat"
703,Cooling valve,"cmd, cool","cmd, cool"
704,Space temp,"sensor, temp, air, zone","air, sensor, temp, zone"
705,Space temp,"sensor, temp, air, zone","air, sensor, temp, zone"
706,Space cooling setpoint,"sp, temp, air, zone, cool, oneA","air, cool, sp, temp, zone"
707,Space heating setpoint,"sp, temp, air, zone, heat, oneA","air, heat, sp, temp, zone"
708,Enable,"cmd, run",sensor
709,Heating valve,"cmd, heat","cmd, heat"
710,Cooling valve,"cmd, cool","cmd, cool"
711,Space temp,"sensor, temp, air, zone","air, sensor, temp, zone"
712,Space cooling setpoint,"sp, temp, air, zone, cool, oneA","air, cool, sp, temp, zone"
713,Space heating setpoint,"sp, temp, air, zone, heat, oneA","air, heat, sp, temp, zone"
714,Enable,"cmd, run",sensor
715,Heating valve,"cmd, heat","cmd, heat"
716,Cooling valve,"cmd, cool","cmd, cool"
717,Space temp,"sensor, temp, air, zone","air, sensor, temp, zone"
718,Space cooling setpoint,"sp, temp, air, zone, cool, oneA","air, cool, sp, temp, zone"
719,Space heating setpoint,"sp, temp, air, zone, heat, oneA","air, heat, sp, temp, zone"
720,Enable,"cmd, run",sensor
721,Heating valve,"cmd, heat","cmd, heat"
722,Cooling valve,"cmd, cool","cmd, cool"
723,Space cooling setpoint,"sp, temp, air, zone, cool, oneA","air, cool, sp, temp, zone"
724,Space heating setpoint,"sp, temp, air, zone, heat, oneA","air, heat, sp, temp, zone"
725,Enable,"cmd, run",sensor
726,Heating valve,"cmd, heat","cmd, heat"
727,Cooling valve,"cmd, cool","cmd, cool"
728,Space temp,"sensor, temp, air, zone","air, sensor, temp, zone"
729,Space cooling setpoint,"sp, temp, air, zone, cool, oneA","air, cool, sp, temp, zone"
730,Space heating setpoint,"sp, temp, air, zone, heat, oneA","air, heat, sp, temp, zone"
731,Enable,"cmd, run",sensor
732,Heating valve,"cmd, heat","cmd, heat"
733,Cooling valve,"cmd, cool","cmd, cool"
734,Space temp,"sensor, temp, air, zone","air, sensor, temp, zone"
735,Space cooling setpoint,"sp, temp, air, zone, cool, oneA","air, cool, sp, temp, zone"
736,Space heating setpoint,"sp, temp, air, zone, heat, oneA","air, heat, sp, temp, zone"
737,Enable,"cmd, run",sensor
738,Heating valve,"cmd, heat","cmd, heat"
739,Cooling valve,"cmd, cool","cmd, cool"
740,Space temp,"sensor, temp, air, zone","air, sensor, temp, zone"
741,Space cooling setpoint,"sp, temp, air, zone, cool, oneA","air, cool, sp, temp, zone"
742,Space heating setpoint,"sp, temp, air, zone, heat, oneA","air, heat, sp, temp, zone"
743,Enable,"cmd, run",sensor
744,Heating valve,"cmd, heat","cmd, heat"
745,Cooling valve,"cmd, cool","cmd, cool"
746,Space temp,"sensor, temp, air, zone","air, sensor, temp, zone"
747,Space cooling setpoint,"sp, temp, air, zone, cool, oneA","air, cool, sp, temp, zone"
748,Space heating setpoint,"sp, temp, air, zone, heat, oneA","air, heat, sp, temp, zone"
749,Enable,"cmd, run",sensor
750,Heating valve,"cmd, heat","cmd, heat"
751,Cooling valve,"cmd, cool","cmd, cool"
752,Space temp,"sensor, temp, air, zone","air, sensor, temp, zone"
753,Space cooling setpoint,"sp, temp, air, zone, cool, oneA","air, cool, sp, temp, zone"
754,Space heating setpoint,"sp, temp, air, zone, heat, oneA","air, heat, sp, temp, zone"
755,Enable,"cmd, run",sensor
756,Heating valve,"cmd, heat","cmd, heat"
757,Cooling valve,"cmd, cool","cmd, cool"
758,Space temp,"sensor, temp, air, zone","air, sensor, temp, zone"
759,Space cooling setpoint,"sp, temp, air, zone, cool, oneA","air, cool, sp, temp, zone"
760,Space heating setpoint,"sp, temp, air, zone, heat, oneA","air, heat, sp, temp, zone"
761,Enable,"cmd, run",sensor
762,Heating valve,"cmd, heat","cmd, heat"
763,Cooling valve,"cmd, cool","cmd, cool"
764,Space temp,"sensor, temp, air, zone","air, sensor, temp, zone"
765,Space cooling setpoint,"sp, temp, air, zone, cool, oneA","air, cool, sp, temp, zone"
766,Space heating setpoint,"sp, temp, air, zone, heat, oneA","air, heat, sp, temp, zone"
767,Enable,"cmd, run",sensor
768,Heating valve,"cmd, heat","cmd, heat"
769,Cooling valve,"cmd, cool","cmd, cool"
770,Space temp,"sensor, temp, air, zone","air, sensor, temp, zone"
771,Space cooling setpoint,"sp, temp, air, zone, cool, oneA","air, cool, sp, temp, zone"
772,Space heating setpoint,"sp, temp, air, zone, heat, oneA","air, heat, sp, temp, zone"
773,Enable,"cmd, run",sensor
774,Heating valve,"cmd, heat","cmd, heat"
775,Cooling valve,"cmd, cool","cmd, cool"
776,Space temp,"sensor, temp, air, zone","air, sensor, temp, zone"
777,Space cooling setpoint,"sp, temp, air, zone, cool, oneA","air, cool, sp, temp, zone"
778,Space heating setpoint,"sp, temp, air, zone, heat, oneA","air, heat, sp, temp, zone"
779,Enable,"cmd, run",sensor
780,Heating valve,"cmd, heat","cmd, heat"
781,Cooling valve,"cmd, cool","cmd, cool"
782,Space temp,"sensor, temp, air, zone","air, sensor, temp, zone"
783,Space cooling setpoint,"sp, temp, air, zone, cool, oneA","air, cool, sp, temp, zone"
784,Space heating setpoint,"sp, temp, air, zone, heat, oneA","air, heat, sp, temp, zone"
785,Enable,"cmd, run",sensor
786,Heating valve,"cmd, heat","cmd, heat"
787,Cooling valve,"cmd, cool","cmd, cool"
788,Space temp,"sensor, temp, air, zone","air, sensor, temp, zone"
789,Space cooling setpoint,"sp, temp, air, zone, cool, oneA","air, cool, sp, temp, zone"
790,Space heating setpoint,"sp, temp, air, zone, heat, oneA","air, heat, sp, temp, zone"
791,Enable,"cmd, run",sensor
792,Heating valve,"cmd, heat","cmd, heat"
793,Cooling valve,"cmd, cool","cmd, cool"
794,Space temp,"sensor, temp, air, zone","air, sensor, temp, zone"
795,Space cooling setpoint,"sp, temp, air, zone, cool, oneA","air, cool, sp, temp, zone"
796,Space heating setpoint,"sp, temp, air, zone, heat, oneA","air, heat, sp, temp, zone"
797,Enable,"cmd, run",sensor
798,Heating valve,"cmd, heat","cmd, heat"
799,Cooling valve,"cmd, cool","cmd, cool"
800,Space temp,"sensor, temp, air, zone","air, sensor, temp, zone"
801,Space cooling setpoint,"sp, temp, air, zone, cool, oneA","air, cool, sp, temp, zone"
802,Space heating setpoint,"sp, temp, air, zone, heat, oneA","air, heat, sp, temp, zone"
803,Enable,"cmd, run",sensor
804,Heating valve,"cmd, heat","cmd, heat"
805,Cooling valve,"cmd, cool","cmd, cool"
806,Space temp,"sensor, temp, air, zone","air, sensor, temp, zone"
807,Space cooling setpoint,"sp, temp, air, zone, cool, oneA","air, cool, sp, temp, zone"
808,Space heating setpoint,"sp, temp, air, zone, heat, oneA","air, heat, sp, temp, zone"
809,Enable,"cmd, run",sensor
810,Heating valve,"cmd, heat","cmd, heat"
811,Cooling valve,"cmd, cool","cmd, cool"
812,Space temp,"sensor, temp, air, zone","air, sensor, temp, zone"
813,Space cooling setpoint,"sp, temp, air, zone, cool, oneA","air, cool, sp, temp, zone"
814,Space heating setpoint,"sp, temp, air, zone, heat, oneA","air, heat, sp, temp, zone"
815,Enable,"cmd, run",sensor
816,Heating valve,"cmd, heat","cmd, heat"
817,Cooling valve,"cmd, cool","cmd, cool"
818,Space temp,"sensor, temp, air, zone","air, sensor, temp, zone"
819,Space cooling setpoint,"sp, temp, air, zone, cool, oneA","air, cool, sp, temp, zone"
820,Space heating setpoint,"sp, temp, air, zone, heat, oneA","air, heat, sp, temp, zone"
821,Enable,"cmd, run",sensor
822,Heating valve,"cmd, heat","cmd, heat"
823,Cooling valve,"cmd, cool","cmd, cool"
824,Space temp,"sensor, temp, air, zone","air, sensor, temp, zone"
825,Space cooling setpoint,"sp, temp, air, zone, cool, oneA","air, cool, sp, temp, zone"
826,Space heating setpoint,"sp, temp, air, zone, heat, oneA","air, heat, sp, temp, zone"
827,Enable,"cmd, run",sensor
828,Heating valve,"cmd, heat","cmd, heat"
829,Cooling valve,"cmd, cool","cmd, cool"
830,Space temp,"sensor, temp, air, zone","air, sensor, temp, zone"
831,Space cooling setpoint,"sp, temp, air, zone, cool, oneA","air, cool, sp, temp, zone"
832,Space heating setpoint,"sp, temp, air, zone, heat, oneA","air, heat, sp, temp, zone"
833,Enable,"cmd, run",sensor
834,Heating valve,"cmd, heat","cmd, heat"
835,Cooling valve,"cmd, cool","cmd, cool"
836,Space temp,"sensor, temp, air, zone","air, sensor, temp, zone"
837,Space cooling setpoint,"sp, temp, air, zone, cool, oneA","air, cool, sp, temp, zone"
838,Space heating setpoint,"sp, temp, air, zone, heat, oneA","air, heat, sp, temp, zone"
839,Enable,"cmd, run",sensor
840,Heating valve,"cmd, heat","cmd, heat"
841,Cooling valve,"cmd, cool","cmd, cool"
842,Space temp,"sensor, temp, air, zone","air, sensor, temp, zone"
843,Space temp,"sensor, temp, air, zone","air, sensor, temp, zone"
844,Space cooling setpoint,"sp, temp, air, zone, cool, oneA","air, cool, sp, temp, zone"
845,Space heating setpoint,"sp, temp, air, zone, heat, oneA","air, heat, sp, temp, zone"
846,Enable,"cmd, run",sensor
847,Heating valve,"cmd, heat","cmd, heat"
848,Cooling valve,"cmd, cool","cmd, cool"
849,Space cooling setpoint,"sp, temp, air, zone, cool, oneA","air, cool, sp, temp, zone"
850,Space heating setpoint,"sp, temp, air, zone, heat, oneA","air, heat, sp, temp, zone"
851,Enable,"cmd, run",sensor
852,Heating valve,"cmd, heat","cmd, heat"
853,Cooling valve,"cmd, cool","cmd, cool"
854,Space temp,"sensor, temp, air, zone","air, sensor, temp, zone"
855,Space cooling setpoint,"sp, temp, air, zone, cool, oneA","air, cool, sp, temp, zone"
856,Space heating setpoint,"sp, temp, air, zone, heat, oneA","air, heat, sp, temp, zone"
857,Enable,"cmd, run",sensor
858,Heating valve,"cmd, heat","cmd, heat"
859,Cooling valve,"cmd, cool","cmd, cool"
860,Space temp,"sensor, temp, air, zone","air, sensor, temp, zone"
861,Occupation Relay,cmd,sensor
862,Heating Valve,"cmd, heat","cmd, heat"
863,Cooling Valve,"cmd, cool","cmd, cool"
864,EC Fan,cmd,cmd
865,Unit Occupied,"cmd, run",sensor
866,Heating Setpoint,"sp, temp, air, zone, heat, oneA","heat, sp"
867,Cooling Setpoint,"sp, temp, air, zone, cool, oneA","cool, sp"
868,Local Discharge Air Temp,"sensor, temp, air","air, sensor, temp"
869,Remote Space Temperature,"sp, temp, air, zone, oneA","air, sensor, temp, zone"
870,Local Space Temperature,"sensor, temp, air, zone","air, sensor, temp, zone"
871,Occupation Relay,cmd,sensor
872,Heating Valve,"cmd, heat","cmd, heat"
873,Cooling Valve,"cmd, cool","cmd, cool"
874,EC Fan,cmd,cmd
875,Unit Occupied,"cmd, run",sensor
876,Heating Setpoint,"sp, temp, air, zone, heat, oneA","heat, sp"
877,Cooling Setpoint,"sp, temp, air, zone, cool, oneA","cool, sp"
878,Local Discharge Air Temp,"sensor, temp, air","air, sensor, temp"
879,Remote Space Temperature,"sp, temp, air, zone, oneA","air, sensor, temp, zone"
880,Local Space Temperature,"sensor, temp, air, zone","air, sensor, temp, zone"
881,Occupation Relay,cmd,sensor
882,Heating Valve,"cmd, heat","cmd, heat"
883,Cooling Valve,"cmd, cool","cmd, cool"
884,EC Fan,cmd,cmd
885,Unit Occupied,"cmd, run",sensor
886,Heating Setpoint,"sp, temp, air, zone, heat, oneA","heat, sp"
887,Cooling Setpoint,"sp, temp, air, zone, cool, oneA","cool, sp"
888,Local Discharge Air Temp,"sensor, temp, air","air, sensor, temp"
889,Remote Space Temperature,"sp, temp, air, zone, oneA","air, sensor, temp, zone"
890,Local Space Temperature,"sensor, temp, air, zone","air, sensor, temp, zone"
891,Occupation Relay,cmd,sensor
892,Heating Valve,"cmd, heat","cmd, heat"
893,Cooling Valve,"cmd, cool","cmd, cool"
894,EC Fan,cmd,cmd
895,Unit Occupied,"cmd, run",sensor
896,Heating Setpoint,"sp, temp, air, zone, heat, oneA","heat, sp"
897,Cooling Setpoint,"sp, temp, air, zone, cool, oneA","cool, sp"
898,Local Discharge Air Temp,"sensor, temp, air","air, sensor, temp"
899,Remote Space Temperature,"sp, temp, air, zone, oneA","air, sensor, temp, zone"
900,Local Space Temperature,"sensor, temp, air, zone","air, sensor, temp, zone"
901,Occupation Relay,cmd,sensor
902,Heating Valve,"cmd, heat","cmd, heat"
903,Cooling Valve,"cmd, cool","cmd, cool"
904,EC Fan,cmd,cmd
905,Unit Occupied,"cmd, run",sensor
906,Heating Setpoint,"sp, temp, air, zone, heat, oneA","heat, sp"
907,Cooling Setpoint,"sp, temp, air, zone, cool, oneA","cool, sp"
908,Local Discharge Air Temp,"sensor, temp, air","air, sensor, temp"
909,Remote Space Temperature,"sp, temp, air, zone, oneA","air, sensor, temp, zone"
910,Local Space Temperature,"sensor, temp, air, zone","air, sensor, temp, zone"
911,Occupation Relay,cmd,sensor
912,Heating Valve,"cmd, heat","cmd, heat"
913,Cooling Valve,"cmd, cool","cmd, cool"
914,EC Fan,cmd,cmd
915,Unit Occupied,"cmd, run",sensor
916,Heating Setpoint,"sp, temp, air, zone, heat, oneA","heat, sp"
917,Cooling Setpoint,"sp, temp, air, zone, cool, oneA","cool, sp"
918,Local Discharge Air Temp,"sensor, temp, air","air, sensor, temp"
919,Remote Space Temperature,"sp, temp, air, zone, oneA","air, sensor, temp, zone"
920,Local Space Temperature,"sensor, temp, air, zone","air, sensor, temp, zone"
921,Occupation Relay,cmd,sensor
922,Heating Valve,"cmd, heat","cmd, heat"
923,Cooling Valve,"cmd, cool","cmd, cool"
924,EC Fan,cmd,cmd
925,Unit Occupied,"cmd, run",sensor
926,Heating Setpoint,"sp, temp, air, zone, heat, oneA","heat, sp"
927,Cooling Setpoint,"sp, temp, air, zone, cool, oneA","cool, sp"
928,Local Discharge Air Temp,"sensor, temp, air","air, sensor, temp"
929,Remote Space Temperature,"sp, temp, air, zone, oneA","air, sensor, temp, zone"
930,Local Space Temperature,"sensor, temp, air, zone","air, sensor, temp, zone"
931,Occupation Relay,cmd,sensor
932,Heating Valve,"cmd, heat","cmd, heat"
933,Cooling Valve,"cmd, cool","cmd, cool"
934,EC Fan,cmd,cmd
935,Unit Occupied,"cmd, run",sensor
936,Heating Setpoint,"sp, temp, air, zone, heat, oneA","heat, sp"
937,Cooling Setpoint,"sp, temp, air, zone, cool, oneA","cool, sp"
938,Local Discharge Air Temp,"sensor, temp, air","air, sensor, temp"
939,Remote Space Temperature,"sp, temp, air, zone, oneA","air, sensor, temp, zone"
940,Local Space Temperature,"sensor, temp, air, zone","air, sensor, temp, zone"
941,Occupation Relay,cmd,sensor
942,Heating Valve,"cmd, heat","cmd, heat"
943,Cooling Valve,"cmd, cool","cmd, cool"
944,EC Fan,cmd,cmd
945,Unit Occupied,"cmd, run",sensor
946,Heating Setpoint,"sp, temp, air, zone, heat, oneA","heat, sp"
947,Cooling Setpoint,"sp, temp, air, zone, cool, oneA","cool, sp"
948,Local Discharge Air Temp,"sensor, temp, air","air, sensor, temp"
949,Remote Space Temperature,"sp, temp, air, zone, oneA","air, sensor, temp, zone"
950,Local Space Temperature,"sensor, temp, air, zone","air, sensor, temp, zone"
951,Occupation Relay,cmd,sensor
952,Heating Valve,"cmd, heat","cmd, heat"
953,Cooling Valve,"cmd, cool","cmd, cool"
954,EC Fan,cmd,cmd
955,Unit Occupied,"cmd, run",sensor
956,Heating Setpoint,"sp, temp, air, zone, heat, oneA","heat, sp"
957,Cooling Setpoint,"sp, temp, air, zone, cool, oneA","cool, sp"
958,Local Discharge Air Temp,"sensor, temp, air","air, sensor, temp"
959,Remote Space Temperature,"sp, temp, air, zone, oneA","air, sensor, temp, zone"
960,Local Space Temperature,"sensor, temp, air, zone","air, sensor, temp, zone"
961,Occupation Relay,cmd,sensor
962,Heating Valve,"cmd, heat","cmd, heat"
963,Cooling Valve,"cmd, cool","cmd, cool"
964,EC Fan,cmd,cmd
965,Unit Occupied,"cmd, run",sensor
966,Heating Setpoint,"sp, temp, air, zone, heat, oneA","heat, sp"
967,Cooling Setpoint,"sp, temp, air, zone, cool, oneA","cool, sp"
968,Local Discharge Air Temp,"sensor, temp, air","air, sensor, temp"
969,Remote Space Temperature,"sp, temp, air, zone, oneA","air, sensor, temp, zone"
970,Local Space Temperature,"sensor, temp, air, zone","air, sensor, temp, zone"
971,Occupation Relay,cmd,sensor
972,Heating Valve,"cmd, heat","cmd, heat"
973,Cooling Valve,"cmd, cool","cmd, cool"
974,EC Fan,cmd,cmd
975,Unit Occupied,"cmd, run",sensor
976,Heating Setpoint,"sp, temp, air, zone, heat, oneA","heat, sp"
977,Cooling Setpoint,"sp, temp, air, zone, cool, oneA","cool, sp"
978,Local Discharge Air Temp,"sensor, temp, air","air, sensor, temp"
979,Remote Space Temperature,"sp, temp, air, zone, oneA","air, sensor, temp, zone"
980,Local Space Temperature,"sensor, temp, air, zone","air, sensor, temp, zone"
981,Occupation Relay,cmd,sensor
982,Heating Valve,"cmd, heat","cmd, heat"
983,Cooling Valve,"cmd, cool","cmd, cool"
984,EC Fan,cmd,cmd
985,Unit Occupied,"cmd, run",sensor
986,Heating Setpoint,"sp, temp, air, zone, heat, oneA","heat, sp"
987,Cooling Setpoint,"sp, temp, air, zone, cool, oneA","cool, sp"
988,Local Discharge Air Temp,"sensor, temp, air","air, sensor, temp"
989,Remote Space Temperature,"sp, temp, air, zone, oneA","air, sensor, temp, zone"
990,Local Space Temperature,"sensor, temp, air, zone","air, sensor, temp, zone"
991,Occupation Relay,cmd,sensor
992,Heating Valve,"cmd, heat","cmd, heat"
993,Cooling Valve,"cmd, cool","cmd, cool"
994,EC Fan,cmd,cmd
995,Unit Occupied,"cmd, run",sensor
996,Heating Setpoint,"sp, temp, air, zone, heat, oneA","heat, sp"
997,Cooling Setpoint,"sp, temp, air, zone, cool, oneA","cool, sp"
998,Local Discharge Air Temp,"sensor, temp, air","air, sensor, temp"
999,Remote Space Temperature,"sp, temp, air, zone, oneA","air, sensor, temp, zone"
1000,Local Space Temperature,"sensor, temp, air, zone","air, sensor, temp, zone"
1001,Occupation Relay,cmd,sensor
1002,Heating Valve,"cmd, heat","cmd, heat"
1003,Cooling Valve,"cmd, cool","cmd, cool"
1004,EC Fan,cmd,cmd
1005,Unit Occupied,"cmd, run",sensor
1006,Heating Setpoint,"sp, temp, air, zone, heat, oneA","heat, sp"
1007,Cooling Setpoint,"sp, temp, air, zone, cool, oneA","cool, sp"
1008,Local Discharge Air Temp,"sensor, temp, air","air, sensor, temp"
1009,Remote Space Temperature,"sp, temp, air, zone, oneA","air, sensor, temp, zone"
1010,Local Space Temperature,"sensor, temp, air, zone","air, sensor, temp, zone"
1011,Occupation Relay,cmd,sensor
1012,Heating Valve,"cmd, heat","cmd, heat"
1013,Cooling Valve,"cmd, cool","cmd, cool"
1014,EC Fan,cmd,cmd
1015,Unit Occupied,"cmd, run",sensor
1016,Heating Setpoint,"sp, temp, air, zone, heat, oneA","heat, sp"
1017,Cooling Setpoint,"sp, temp, air, zone, cool, oneA","cool, sp"
1018,Local Discharge Air Temp,"sensor, temp, air","air, sensor, temp"
1019,Remote Space Temperature,"sp, temp, air, zone, oneA","air, sensor, temp, zone"
1020,Local Space Temperature,"sensor, temp, air, zone","air, sensor, temp, zone"
1021,Occupation Relay,cmd,sensor
1022,Heating Valve,"cmd, heat","cmd, heat"
1023,Cooling Valve,"cmd, cool","cmd, cool"
1024,EC Fan,cmd,cmd
1025,Unit Occupied,"cmd, run",sensor
1026,Heating Setpoint,"sp, temp, air, zone, heat, oneA","heat, sp"
1027,Cooling Setpoint,"sp, temp, air, zone, cool, oneA","cool, sp"
1028,Local Discharge Air Temp,"sensor, temp, air","air, sensor, temp"
1029,Remote Space Temperature,"sp, temp, air, zone, oneA","air, sensor, temp, zone"
1030,Local Space Temperature,"sensor, temp, air, zone","air, sensor, temp, zone"
1031,Occupation Relay,cmd,sensor
1032,Heating Valve,"cmd, heat","cmd, heat"
1033,Cooling Valve,"cmd, cool","cmd, cool"
1034,EC Fan,cmd,cmd
1035,Unit Occupied,"cmd, run",sensor
1036,Heating Setpoint,"sp, temp, air, zone, heat, oneA","heat, sp"
1037,Cooling Setpoint,"sp, temp, air, zone, cool, oneA","cool, sp"
1038,Local Discharge Air Temp,"sensor, temp, air","air, sensor, temp"
1039,Remote Space Temperature,"sp, temp, air, zone, oneA","air, sensor, temp, zone"
1040,Local Space Temperature,"sensor, temp, air, zone","air, sensor, temp, zone"
1041,Studio AC Units,"cmd, run",sensor
1042,Studio AC Units Common Fault,"sensor, alarm",sensor
1043,Studio AC Units,"sp, occupied, oneA",sensor
1044,Dehumidifier,cmd,sensor
1045,Unit On-Off,cmd,sensor
1046,Dehum=50% Cool1=100%,cmd,sp
1047,Cool Stage 2,cmd,sensor
1048,Cool Stage 3,cmd,sensor
1049,Heating Control,"cmd, heat","air, pressure, sensor"
1050,Humidifier,cmd,sp
1051,Airflow Fail Input,"sensor, alarm",sensor
1052,Duty,sensor,sensor
1053,Communications Fail,"sensor, alarm",sensor
1054,Compressor 1 Trip,"sensor, alarm",sensor
1055,Compressor 2 Trip,"sensor, alarm",sensor
1056,Compressor 3 Trip,"sensor, alarm",sensor
1057,Overheat Cut-Out,"sensor, alarm",sensor
1058,Manual Control,"sensor,override","override, sp"
1059,Bottle Change Input,sensor,sensor
1060,Pushbutton Status,sensor,sensor
1061,Return Air Setpoint,"sp, temp, air, return, oneA","oneA, sp"
1062,Setback Setpoint,"sp, oneA","oneA, sp"
1063,Humidity Setpoint,"sp, humidity, air, return, oneA","oneA, sp"
1064,Return Air Temp,"sensor, temp, air, return","air, sensor, temp"
1065,Return Air Humidity,"sensor, humidity, air, return",sp
1066,Std. Operating Times,"sp, occupied, oneA",sensor
1067,Night Setback Times,"sp, occupied, oneA",sensor
1068,Bottle Change Alarm,"sensor, alarm",sensor
1069,Airflow Fail Alarm,"sensor, alarm",sensor
1070,Dehumidifier,cmd,sensor
1071,Unit On-Off,cmd,sensor
1072,Dehum=50% Cool1=100%,cmd,sp
1073,Cool Stage 2,cmd,sensor
1074,Cool Stage 3,cmd,sensor
1075,Heating Control,"cmd, heat","air, pressure, sensor"
1076,Humidifier,cmd,sp
1077,Airflow Fail Input,"sensor, alarm",sensor
1078,Duty,sensor,sensor
1079,Communications Fail,"sensor, alarm",sensor
1080,Compressor 1 Trip,"sensor, alarm",sensor
1081,Compressor 2 Trip,"sensor, alarm",sensor
1082,Compressor 3 Trip,"sensor, alarm",sensor
1083,Overheat Cut-Out,"sensor, alarm",sensor
1084,Manual Control,"sensor,override","override, sp"
1085,Bottle Change Input,sensor,sensor
1086,Pushbutton Status,sensor,sensor
1087,Return Air Setpoint,"sp, temp, air, return, oneA","oneA, sp"
1088,Setback Setpoint,"sp, oneA","oneA, sp"
1089,Humidity Setpoint,"sp, humidity, air, return, oneA","oneA, sp"
1090,Return Air Temp,"sensor, temp, air, return","air, sensor, temp"
1091,Return Air Humidity,"sensor, humidity, air, return",sp
1092,Std. Operating Times,"sp, occupied, oneA",sensor
1093,Night Setback Times,"sp, occupied, oneA",sensor
1094,Bottle Change Alarm,"sensor, alarm",sensor
1095,Airflow Fail Alarm,"sensor, alarm",sensor
1096,Dehumidifier,cmd,sensor
1097,Unit On-Off,cmd,sensor
1098,Dehum=50% Cool1=100%,cmd,sp
1099,Cool Stage 2,cmd,sensor
1100,Cool Stage 3,cmd,sensor
1101,Heating Control,"cmd, heat","air, pressure, sensor"
1102,Humidifier,cmd,sp
1103,Airflow Fail Input,"sensor, alarm",sensor
1104,Duty,sensor,sensor
1105,Communications Fail,"sensor, alarm",sensor
1106,Compressor 1 Trip,"sensor, alarm",sensor
1107,Compressor 2 Trip,"sensor, alarm",sensor
1108,Compressor 3 Trip,"sensor, alarm",sensor
1109,Overheat Cut-Out,"sensor, alarm",sensor
1110,Manual Control,"sensor,override","override, sp"
1111,Bottle Change Input,sensor,sensor
1112,Pushbutton Status,sensor,sensor
1113,Return Air Setpoint,"sp, temp, air, return, oneA","oneA, sp"
1114,Setback Setpoint,"sp, oneA","oneA, sp"
1115,Humidity Setpoint,"sp, humidity, air, return, oneA","oneA, sp"
1116,Return Air Temp,"sensor, temp, air, return","air, sensor, temp"
1117,Return Air Humidity,"sensor, humidity, air, return",sp
1118,Std. Operating Times,"sp, occupied, oneA",sensor
1119,Night Setback Times,"sp, occupied, oneA",sensor
1120,Bottle Change Alarm,"sensor, alarm",sensor
1121,Airflow Fail Alarm,"sensor, alarm",sensor
1122,AHU 1 & 2 CO2 LEVEL,"sp, co2, air, oneA",sp
1123,AHU 1 MIXING TEMP,"sp, oneA","air, return, sensor, temp"
1124,AHU 1 RETURN TEMP,"sensor, temp, air, return","air, return, sensor, temp"
1125,AHU 1 and 4  TIMEZONE,"sp, occupied, oneA",sensor
1126,AHU 1 & 2 SPACE TEMP,"sp, temp, air, zone, oneA","air, return, sensor, temp"
1127,AHU 1 DAMPERS,cmd,sp
1128,AHU 1 COOLING COIL,"cmd, cool","cmd, cool"
1129,AHU 1 HEATING COIL,"cmd, heat","air, pressure, sensor"
1130,AHU 1 HUM ENABLE,cmd,sensor
1131,AHU 1 HUM SIGNAL,cmd,sp
1132,AHU 1 FROST TRIP,"sensor, alarm",sensor
1133,AHU 1 PANEL FILTER 1,"sensor, alarm",sensor
1134,AHU 1 Enable,sensor,sensor
1135,AHU 1 BAG FILTER,"sensor, alarm",sensor
1136,AHU1 Supply 1 Fail,"sensor, alarm",sensor
1137,AHU1 Supply 2 Fail,"sensor, alarm",sensor
1138,AHU1 Extract 1 Fail,"sensor, alarm",sensor
1139,AHU1 Extract 2 Fail,"sensor, alarm",sensor
1140,AHU 1 PANEL FILTER 2,"sensor, alarm",sensor
1141,AHU 1 SUPPLY FLOW,"sensor, flow, air, discharge",sensor
1142,AHU 1 EXTRACT FLOW,sensor,sensor
1143,AHU 1 HUM STATUS,"sensor, humidifier",sensor
1144,AHU 1 HUM COMMON FLT,"sensor, alarm",sensor
1145,AHU 1 & 2 RETURN HUM,"sp, humidity, air, return, oneA",sp
1146,AHU 1 & 2 HUM D B,"sp, oneA",sp
1147,AHU 1 SUPPLY TEMP,"sp, temp, air, discharge, oneA","air, return, sensor, temp"
1148,AHU 1 MIXING TEMP,"sensor, temp, air, mixed","air, return, sensor, temp"
1149,AHU 1 SUPPLY TEMP,"sensor, temp, air, discharge","air, return, sensor, temp"
1150,AHU 1 SUPPLY HUM,"sensor, humidity, air, discharge",sp
1151,AHU 1 RETURN HUM,"sensor, humidity, air, return",sp
1152,AHU 1 RETURN CO2,"sensor, co2, air, zone",sp
1153,AHU 10  FROST VALVE,cmd,cmd
1154,AHU 10 TLT EXTRACT,cmd,sensor
1155,AHU 10 MAX SUP TEMP,"sp, temp, air, discharge, oneA","air, return, sensor, temp"
1156,AHU 10 RETURN TEMP,"sp, temp, air, return, oneA","air, return, sensor, temp"
1157,AHU 10 FROST TEMP,"sp, oneA","air, return, sensor, temp"
1158,AHU 10 RETURN TEMP,"sp, temp, air, return, oneA","air, return, sensor, temp"
1159,AHU 10 TIMEZONE,"sp, occupied, oneA",sensor
1160,AHU 10 CLG VALVE,"cmd, cool","cmd, cool"
1161,AHU 10 HTG VALVE,"cmd, heat","cmd, heat"
1162,AHU10 PANEL FILTER 1,"sensor, alarm",sensor
1163,AHU 10 BAG FILTER,"sensor, alarm",sensor
1164,AHU10 PANEL FILTER 2,"sensor, alarm",sensor
1165,AHU 10 SUPPLY FLOW,"sensor, flow, air, discharge",sensor
1166,AHU10 TWIN EXT FAULT,"sensor, alarm",sensor
1167,AHU10 Supply 1 Fail,"sensor, alarm",sensor
1168,AHU 10 Supply 2 Fail,"sensor, alarm",sensor
1169,AHU 10 FROST TRIP,"sensor, alarm",sensor
1170,AHU 10 FROST TEMP,"sensor, temp, air","air, return, sensor, temp"
1171,AHU 10 SUPPLY TEMP,"sensor, temp, air, discharge","air, return, sensor, temp"
1172,AHU 11 FROST VALVE,cmd,cmd
1173,AHU 11 TLT EXTRACT,cmd,sensor
1174,AHU 11 MAX SUP TEMP,"sp, temp, air, discharge, oneA","air, return, sensor, temp"
1175,AHU 11 RETURN TEMP,"sp, temp, air, return, oneA","air, return, sensor, temp"
1176,AHU 11 FROST TEMP,"sp, oneA","air, return, sensor, temp"
1177,AHU 11 RETURN TEMP,"sp, temp, air, return, oneA","air, return, sensor, temp"
1178,AHU 11 TIMEZONE,"sp, occupied, oneA",sensor
1179,AHU 11 CLG VALVE,"cmd, cool","cmd, cool"
1180,AHU 11 HTG VALVE,"cmd, heat","cmd, heat"
1181,AHU 11 FROST TRIP,"sensor, alarm",sensor
1182,AHU11 PANEL FILTER 1,"sensor, alarm",sensor
1183,AHU11 BAG FILTER,"sensor, alarm",sensor
1184,AHU 11 Supply 1 Fail,"sensor, alarm",sensor
1185,AHU 11 Supply 2 Fail,"sensor, alarm",sensor
1186,AHU11 PANEL FILTER 2,"sensor, alarm",sensor
1187,AHU 11 SUPPLY FLOW,"sensor, flow, air, discharge",sensor
1188,AHU 11 EXTRACT FAULT,"sensor, alarm",sensor
1189,AHU 11 FROST TEMP,"sensor, temp, air","air, return, sensor, temp"
1190,AHU 11 SUPPLY TEMP,"sensor, temp, air, discharge","air, return, sensor, temp"
1191,AHU 2 & 3 TIMEZONE,"sp, occupied, oneA",sensor
1192,AHU 2 MIXING TEMP,"sp, oneA","air, return, sensor, temp"
1193,AHU 2 RETURN TEMP,"sensor, temp, air, return","air, return, sensor, temp"
1194,AHU 2 time schedule,"sp, occupied, oneA",sensor
1195,AHU 2 return temp fr,"sp, temp, air, return, oneA","air, return, sensor, temp"
1196,AHU 2 SPACE TEMP,"sp, temp, air, zone, oneA","air, return, sensor, temp"
1197,AHU 2 & 3 SPACE TEMP,"sp, temp, air, zone, oneA","air, return, sensor, temp"
1198,AHU 2 DAMPERS,cmd,sp
1199,AHU 2 COOLING COIL,"cmd, cool","cmd, cool"
1200,AHU 2 HEATING COIL,"cmd, heat","air, pressure, sensor"
1201,AHU 2 HUM ENABLE,cmd,sensor
1202,AHU 2 HUM SIGNAL,cmd,sp
1203,AHU 2 PANEL FILTER 1,"sensor, alarm",sensor
1204,AHU 2 BAG FILTER,"sensor, alarm",sensor
1205,AHU 2 PANEL FILTER 2,"sensor, alarm",sensor
1206,AHU 2 SUPPLY FLOW,"sensor, flow, air, discharge",sensor
1207,AHU 2 EXTRACT FLOW,sensor,sensor
1208,AHU 2 HUM STATUS,"sensor, humidifier",sensor
1209,AHU 2 HUM COMMON FLT,"sensor, alarm",sensor
1210,AHU2 Supply 1 Fail,"sensor, alarm",sensor
1211,AHU2 Supply 2 Fail,"sensor, alarm",sensor
1212,AHU2 Extract 1 Fail,"sensor, alarm",sensor
1213,AHU2 Extract 2 Fail,"sensor, alarm",sensor
1214,AHU 2 FROST TRIP,"sensor, alarm",sensor
1215,AHU 2 SUPPLY TEMP,"sp, temp, air, discharge, oneA","air, return, sensor, temp"
1216,AHU2 SUPPLY TEMP,"sensor, temp, air, discharge","air, return, sensor, temp"
1217,AHU 2 SUPPLY HUM,"sensor, humidity, air, discharge",sp
1218,AHU 2 RETURN HUM,"sensor, humidity, air, return",sp
1219,AHU 2 RETURN CO2,"sensor, co2, air, zone",sp
1220,AHU 2 MIXING TEMP,"sensor, temp, air, mixed","air, return, sensor, temp"
1221,AHU 3 & 4 CO2 LEVEL,"sp, co2, air, oneA",sp
1222,AHU 3 RETURN TEMP,"sensor, temp, air, return","air, return, sensor, temp"
1223,AHU 3 return temp fr,"sp, temp, air, return, oneA","air, return, sensor, temp"
1224,AHU 3 DAMPERS,cmd,sp
1225,AHU 3 COOLING COIL,"cmd, cool","cmd, cool"
1226,AHU 3 HEATING COIL,"cmd, heat","air, pressure, sensor"
1227,AHU 3 HUM ENABLE,cmd,sensor
1228,AHU 3 HUM SIGNAL,cmd,sp
1229,AHU 3 FROST TRIP,"sensor, alarm",sensor
1230,AHU 3 PANEL FILTER 1,"sensor, alarm",sensor
1231,AHU 3 BAG FILTER,"sensor, alarm",sensor
1232,AHU3 SPPY FAN1 FAIL,"sensor, alarm",cmd
1233,AHU3 SPPY FAN2 FAIL,"sensor, alarm",cmd
1234,AHU3 EXT FAN1 FAIL,"sensor, alarm",cmd
1235,AHU3 EXT FAN2 FAIL,"sensor, alarm",cmd
1236,AHU 3 PANEL FILTER 2,"sensor, alarm",sensor
1237,AHU 3 SUPPLY FLOW,"sensor, flow, air, discharge",sensor
1238,AHU 3 Supply Fan 2 Enable,sensor,cmd
1239,AHU 3 Extract Fan 2 Enable,sensor,cmd
1240,AHU 3 EXTRACT FLOW,sensor,sensor
1241,AHU 3 HUM STATUS,"sensor, humidifier",sensor
1242,AHU 3 HUM COMMON FLT,"sensor, alarm",sensor
1243,AHU 3 A-H-O,"sp, oneA",sp
1244,AHU 3 MIXING TEMP,"sp, oneA","air, return, sensor, temp"
1245,AHU3&4 MIN FRESH AIR,"sp, oneA",sp
1246,AHU 3 & 4 RETURN HUM,"sp, temp, air, return, oneA",sp
1247,AHU 3 & 4 HUM D B,"sp, oneA",sp
1248,AHU 3 SUPPLY TEMP,"sp, temp, air, discharge, oneA","air, return, sensor, temp"
1249,AHU 3 MIXING TEMP,"sensor, temp, air, mixed","air, return, sensor, temp"
1250,AHU 3 SUPPLY TEMP,"sensor, temp, air, discharge","air, return, sensor, temp"
1251,AHU 3 SUPPLY HUM,"sensor, humidity, air, discharge",sp
1252,AHU 3 RETURN HUM,"sensor, humidity, air, return",sp
1253,AHU 3 RETURN CO2,"sensor, co2, air, zone",sp
1254,AHU 4 RETURN TEMP,"sensor, temp, air, return","air, return, sensor, temp"
1255,AHU 4 DAMPERS,cmd,sp
1256,AHU 4 HEATING COIL,"cmd, heat","air, pressure, sensor"
1257,AHU 4 COOLING COIL,"cmd, cool","cmd, cool"
1258,AHU 4 HUM ENABLE,cmd,sensor
1259,AHU 4 HUM SIGNAL,cmd,sp
1260,AHU 4 PANEL FILTER 1,"sensor, alarm",sensor
1261,AHU 4 BAG FILTER,"sensor, alarm",sensor
1262,AHU 4 PANEL FILTER 2,"sensor, alarm",sensor
1263,AHU 4 SUPPLY FLOW,"sensor, flow, air, discharge",sensor
1264,AHU 4 EXTRACT FLOW,sensor,sensor
1265,AHU 4 HUM STATUS,"sensor, humidifier",sensor
1266,AHU 4 HUM COMMON FLT,"sensor, alarm",sensor
1267,AHU4 Supply 1 Fail,"sensor, alarm",sensor
1268,AHU4 Supply 2 Fail,"sensor, alarm",sensor
1269,AHU4 Extract 1 Fail,"sensor, alarm",sensor
1270,AHU4 Extract 2 Fail,"sensor, alarm",sensor
1271,AHU 4 Supply Fan 2 Enable,sensor,cmd
1272,AHU 4 Extract Fan 2 Enable,sensor,cmd
1273,AHU 4 FROST TRIP,"sensor, alarm",sensor
1274,AHU 4 SUPPLY TEMP,"sp, temp, air, discharge, oneA","air, return, sensor, temp"
1275,AHU 4 MIXING TEMP,"sp, oneA","air, return, sensor, temp"
1276,AHU 4 A-H-O,"sp, oneA",sp
1277,AHU 4 SUPPLY TEMP,"sensor, temp, air, discharge","air, return, sensor, temp"
1278,AHU 4 SUPPLY HUM,"sensor, humidity, air, discharge",sp
1279,AHU 4 RETURN HUM,"sensor, humidity, air, return",sp
1280,AHU 4 RETURN CO2,"sensor, co2, air, zone",sp
1281,AHU 4 MIXING TEMP,"sensor, temp, air, mixed","air, return, sensor, temp"
1282,AHU 5 EXTRACT FAN,cmd,cmd
1283,AHU 5 FROST VALVE,cmd,cmd
1284,AHU 5 & 6 OVERRIDE,"sensor,override",sensor
1285,AHU 5 & 6 EXTENSION,"sp, oneA",sp
1286,AHU 5 & 6 O RIDE,"sp, oneA",sp
1287,AHU 5 FROST TEMP,"sp, oneA","air, return, sensor, temp"
1288,AHU 5 MAX SUP TEMP,"sp, oneA","air, return, sensor, temp"
1289,AHU 5 RETURN TEMP,"sp, temp, air, return, oneA","air, return, sensor, temp"
1290,AHU 5 & 6 Frost temp,"sp, oneA","air, return, sensor, temp"
1291,AHU 5 RETURN TEMP,"sp, temp, air, return, oneA","air, return, sensor, temp"
1292,AHU 5 CLG VALVE,"cmd, cool","cmd, cool"
1293,AHU 5 HTG VALVE,"cmd, heat","cmd, heat"
1294,AHU 5  EXT FLOW,sensor,sensor
1295,AHU 5 FROST TRIP,"sensor, alarm",sensor
1296,AHU 5 PANEL FILTER,"sensor, alarm",sensor
1297,AHU 5 BAG FILTER,"sensor, alarm",sensor
1298,AHU 5 PANEL FILTER 2,"sensor, alarm",sensor
1299,AHU 5 SUPPLY FLOW,"sensor, flow, air, discharge",sensor
1300,AHU5 Supply 1 Fail,"sensor, alarm",sensor
1301,AHU5 Supply 2 Fail,"sensor, alarm",sensor
1302,AHU 5 EXT FAIL,"sensor, alarm",sensor
1303,AHU 5 FROST TEMP,"sensor, temp, air","air, return, sensor, temp"
1304,AHU 5 SUPPLY TEMP,"sensor, temp, air, discharge","air, return, sensor, temp"
1305,Gnd East Space,"sensor, temp, air, return","air, sensor, temp, zone"
1306,GND WEST SPACE 2,"sensor, temp, air, return","air, sensor, temp, zone"
1307,AHU 5 TIMEZONE,"sp, occupied, oneA",sensor
1308,AHU 6 FROST VALVE,cmd,cmd
1309,AHU 6 TLT EXTRACT,cmd,sensor
1310,AHU 6 FROST TEMP,"sp, oneA","air, return, sensor, temp"
1311,AHU 6 MAX SUP TEMP,"sp, oneA","air, return, sensor, temp"
1312,AHU 6 RETURN TEMP,"sp, temp, air, return, oneA","air, return, sensor, temp"
1313,Frost Valve hold on,"sp, oneA",sp
1314,AHU 6 CLG VALVE,"cmd, cool","cmd, cool"
1315,AHU 6 HTG VALVE,"cmd, heat","cmd, heat"
1316,AHU 6 FROST TRIP,"sensor, alarm",sensor
1317,AHU 6 PANEL FILTER 1,"sensor, alarm",sensor
1318,AHU 6 BAG FILTER,"sensor, alarm",sensor
1319,AHU 6 PANEL FILTER 2,"sensor, alarm",sensor
1320,AHU 6 SUPPLY FLOW,"sensor, flow, air, discharge",sensor
1321,AHU 6 TWIN EXT FAULT,"sensor, alarm",sensor
1322,AHU6 Supply 1 Fail,"sensor, alarm",sensor
1323,AHU6 Supply 2 Fail,"sensor, alarm",sensor
1324,GND CENTRAL SPACE 1,"sensor, temp, air, return","air, sensor, temp, zone"
1325,GND CENTRAL SPACE 2,"sensor, temp, air, return","air, sensor, temp, zone"
1326,AHU 6 FROST TEMP,"sensor, temp, air","air, return, sensor, temp"
1327,AHU 6 SUPPLY TEMP,"sensor, temp, air, discharge","air, return, sensor, temp"
1328,AHU 6 RETURN TEMP,"sensor, temp, air, return","air, return, sensor, temp"
1329,AHU 6 TIMEZONE,"sp, occupied, oneA",sensor
1330,AHU 7 FROST VALVE,cmd,cmd
1331,AHU 7 RA TEMP SP,"sp, temp, air, return, oneA","oneA, sp"
1332,AHU 7 CO2 LEVEL,"sp, co2, air, oneA",sp
1333,AHU 7 MAX SUP Offset,"sp, oneA",sp
1334,AHU 7 MIXING TEMP,"sp, oneA","air, return, sensor, temp"
1335,AHU 7 MAX SUP SPEED,"sp, oneA",sp
1336,AHU 7 RETURN TEMP,"sp, temp, air, return, oneA","air, return, sensor, temp"
1337,AHU 7 TIMEZONE,"sp, occupied, oneA",sensor
1338,AHU 7 DAMPERS,cmd,sp
1339,AHU 7 COOLING COIL,"cmd, cool","cmd, cool"
1340,AHU 7 HEATING COIL,"cmd, heat","air, pressure, sensor"
1341,AHU 7 FROST TRIP,"sensor, alarm",sensor
1342,AHU 7 PANEL FILTER 1,"sensor, alarm",sensor
1343,AHU 7 BAG FILTER,"sensor, alarm",sensor
1344,AHU 7 PANEL FILTER 2,"sensor, alarm",sensor
1345,AHU 7 SUPPLY FLOW,"sensor, flow, air, discharge",sensor
1346,AHU 7 EXTRACT FLOW,sensor,sensor
1347,AHU7 Supply 1 Fail,"sensor, alarm",sensor
1348,AHU7 Supply 2 Fail,"sensor, alarm",sensor
1349,AHU7 Extract 1 Fail,"sensor, alarm",sensor
1350,AHU7 Extract 2 Fail,"sensor, alarm",sensor
1351,AHU 7 MIXING TEMP,"sensor, temp, air, mixed","air, return, sensor, temp"
1352,AHU 7 SUPPLY TEMP,"sensor, temp, air, discharge","air, return, sensor, temp"
1353,AHU 7 RETURN CO2,"sensor, co2, air, zone",sp
1354,Supply Filter Dirty,"sensor, alarm",sensor
1355,AHU 8  FROST VALVE,cmd,cmd
1356,AHU 8 E.FAN ENABLE,cmd,sp
1357,AHU 8 FROST TEMP,"sp, oneA","air, return, sensor, temp"
1358,AHU 8 MAX SUP TEMP,"sp, temp, air, discharge, oneA","air, return, sensor, temp"
1359,AHU 8 TIMEZONE,"sp, occupied, oneA",sensor
1360,AHU 8 CLG VALVE,"cmd, cool","cmd, cool"
1361,AHU 8 HTG VALVE,"cmd, heat","cmd, heat"
1362,AHU 8 FROST TRIP,"sensor, alarm",sensor
1363,AHU 8 PANEL FILTER,"sensor, alarm",sensor
1364,AHU 8 BAG FILTER,"sensor, alarm",sensor
1365,AHU 8 PANEL FILTER 2,"sensor, alarm",sensor
1366,AHU 8 SUPPLY FLOW,sensor,sensor
1367,AHU 8 EXTRACT FLOW,sensor,sensor
1368,AHU 8 OVERIDE,"sensor,override",sensor
1369,AHU8 Supply 1 Fail,"sensor, alarm",sensor
1370,AHU8 Supply 2 Fail,"sensor, alarm",sensor
1371,AHU 8 EXTRACT FAIL,"sensor, alarm",sensor
1372,AHU8 Extract 2 Fail,"sensor, alarm",sensor
1373,AHU 8 LOW SPEED,sensor,sensor
1374,AHU 8 NORMAL SPEED,sensor,sensor
1375,AHU 8 FROST TEMP,"sensor, temp, air","air, return, sensor, temp"
1376,AHU 8 SUPPLY TEMP,"sensor, temp, air, discharge","air, return, sensor, temp"
1377,AHU 9  FROST VALVE,cmd,cmd
1378,AHU 9 FROST TEMP,"sp, oneA","air, return, sensor, temp"
1379,AHU 9 RETURN TEMP,"sp, temp, air, return, oneA","air, return, sensor, temp"
1380,AHU 9 TIMEZONE,"sp, occupied, oneA",sensor
1381,Extract Filter Dirty,"sensor, alarm",sensor
1382,Supply Bag Filter Dirty,"sensor, alarm",sensor
1383,Supply VSD Fault,"sensor, alarm",sensor
1384,Extract VSD Fault,"sensor, alarm",sensor
1385,Operation Mode,"sp, oneA",sp
1386,CO2 SP,"sp, co2, air, oneA","oneA, sp"
1387,AHU9,"sp, occupied, oneA",sensor
1388,AHU 9 HUM SIGNAL,cmd,sp
1389,AHU 9 CLG VALVE,"cmd, cool","cmd, cool"
1390,AHU 9 HTG VALVE,"cmd, heat","cmd, heat"
1391,AHU 9 HUM ENABLE,cmd,sensor
1392,AHU 9 FROST TRIP,"sensor, alarm",sensor
1393,AHU 9 PANEL FILTER 1,"sensor, alarm",sensor
1394,AHU 9 BAG FILTER,"sensor, alarm",sensor
1395,AHU 9 PANEL FILTER 2,"sensor, alarm",sensor
1396,AHU 9 SUPPLY FLOW,"sensor, flow, air, discharge",sensor
1397,AHU 9 EXTRACT FLOW,sensor,sensor
1398,AHU 9 HUM STATUS,"sensor, humidifier",sensor
1399,AHU 9 HUM FAULT,"sensor, alarm",sensor
1400,AHU9 Supply 1 Fail,"sensor, alarm",sensor
1401,AHU9 Supply 2 Fail,"sensor, alarm",sensor
1402,AHU9 Extract 1 Fail,"sensor, alarm",sensor
1403,AHU9 Extract 2 Fail,"sensor, alarm",sensor
1404,AHU 9 RETURN HUM,"sp, humidity, air, return, oneA",sp
1405,AHU 9 SUPPLY TEMP,"sp, temp, air, discharge, oneA","air, return, sensor, temp"
1406,AHU 9 FROST TEMP,"sensor, temp, air","air, return, sensor, temp"
1407,AHU 9 SUPPLY TEMP,"sensor, temp, air, discharge","air, return, sensor, temp"
1408,AHU 9 SUPPLY HUM,"sensor, humidity, air, discharge",sp
1409,AHU 9 RETURN HUM,"sensor, humidity, air, return",sp
1410,Unit On-Off,cmd,sensor
1411,High Temp,cmd,sensor
1412,Cool Stage 2,cmd,sensor
1413,Cool Stage 3,cmd,sensor
1414,Heating Control,"cmd, heat","air, pressure, sensor"
1415,Manual Control,"sensor,override","override, sp"
1416,Return Air Setpoint,"sp, temp, air, return, oneA","oneA, sp"
1417,Setback Setpoint,"sp, oneA","oneA, sp"
1418,Hours Run Setpoint,"sp, oneA","oneA, sp"
1419,Std. Operating Times,"sp, occupied, oneA",sensor
1420,Night Setback Times,"sp, occupied, oneA",sensor
1421,Dehumidifier,cmd,sensor
1422,Humidifier,cmd,sp
1423,Airflow Fail Input,"sensor, alarm",sensor
1424,Communications Fail,"sensor, alarm",sensor
1425,Compressor 1 Trip,"sensor, alarm",sensor
1426,Compressor 2 Trip,"sensor, alarm",sensor
1427,Compressor 3 Trip,"sensor, alarm",sensor
1428,Overheat Cut-Out,"sensor, alarm",sensor
1429,Bottle Change Input,sensor,sensor
1430,Pushbutton Status,sensor,sensor
1431,Return Air Temp,"sensor, temp, air, return","air, sensor, temp"
1432,Return Air Humidity,"sensor, humidity, air, return",sp
1433,Unit On-Off,cmd,sensor
1434,High Temp,cmd,sensor
1435,Cool Stage 2,cmd,sensor
1436,Cool Stage 3,cmd,sensor
1437,Heating Control,"cmd, heat","air, pressure, sensor"
1438,Manual Control,"sensor,override","override, sp"
1439,Return Air Setpoint,"sp, temp, air, return, oneA","oneA, sp"
1440,Setback Setpoint,"sp, oneA","oneA, sp"
1441,Hours Run Setpoint,"sp, oneA","oneA, sp"
1442,Std. Operating Times,"sp, occupied, oneA",sensor
1443,Night Setback Times,"sp, occupied, oneA",sensor
1444,Return Air Humidity,"sensor, humidity, air, return",sp
1445,Dehumidifier,cmd,sensor
1446,Humidifier,cmd,sp
1447,Airflow Fail Input,"sensor, alarm",sensor
1448,Communications Fail,"sensor, alarm",sensor
1449,Compressor 1 Trip,"sensor, alarm",sensor
1450,Compressor 2 Trip,"sensor, alarm",sensor
1451,Compressor 3 Trip,"sensor, alarm",sensor
1452,Overheat Cut-Out,"sensor, alarm",sensor
1453,Bottle Change Input,sensor,sensor
1454,Pushbutton Status,sensor,sensor
1455,Return Air Temp,"sensor, temp, air, return","air, sensor, temp"
1456,Return Air Humidity,"sensor, humidity, air, return",sp
1457,Unit On-Off,cmd,sensor
1458,High Temp,cmd,sensor
1459,Cool Stage 2,cmd,sensor
1460,Cool Stage 3,cmd,sensor
1461,Heating Control,"cmd, heat","air, pressure, sensor"
1462,Manual Control,"sensor,override","override, sp"
1463,Return Air Setpoint,"sp, temp, air, return, oneA","oneA, sp"
1464,Setback Setpoint,"sp, oneA","oneA, sp"
1465,Hours Run Setpoint,"sp, oneA","oneA, sp"
1466,Std. Operating Times,"sp, occupied, oneA",sensor
1467,Night Setback Times,"sp, occupied, oneA",sensor
1468,Dehumidifier,cmd,sensor
1469,Humidifier,cmd,sp
1470,Airflow Fail Input,"sensor, alarm",sensor
1471,Communications Fail,"sensor, alarm",sensor
1472,Compressor 1 Trip,"sensor, alarm",sensor
1473,Compressor 2 Trip,"sensor, alarm",sensor
1474,Compressor 3 Trip,"sensor, alarm",sensor
1475,Overheat Cut-Out,"sensor, alarm",sensor
1476,Bottle Change Input,sensor,sensor
1477,Pushbutton Status,sensor,sensor
1478,Return Air Temp,"sensor, temp, air, return","air, sensor, temp"
1479,Unit On-Off,cmd,sensor
1480,High Temp,cmd,sensor
1481,Cooling Valve,"cmd, cool","cmd, cool"
1482,Heating Control,"cmd, heat","air, pressure, sensor"
1483,Return Air Setpoint,"sp, temp, air, return, oneA","oneA, sp"
1484,Setback Setpoint,"sp, oneA","oneA, sp"
1485,Hours Run Setpoint,"sp, oneA","oneA, sp"
1486,Std. Operating Times,"sp, occupied, oneA",sensor
1487,Night Setback Times,"sp, occupied, oneA",sensor
1488,Dehumidification,cmd,sp
1489,Humidifier,cmd,sp
1490,Airflow Fail Input,"sensor, alarm",sensor
1491,Communications Fail,"sensor, alarm",sensor
1492,Water Flow Fail,"sensor, alarm",sensor
1493,Water Flow Input,sensor,sensor
1494,Overheat Cut-Out,"sensor, alarm",sensor
1495,Bottle Change Input,sensor,sensor
1496,Pushbutton Status,sensor,sensor
1497,Return Air Temp,"sensor, temp, air, return","air, sensor, temp"
1498,Return Air Humidity,"sensor, humidity, air, return",sp
1499,Unit On-Off,cmd,sensor
1500,High Temp,cmd,sensor
1501,Cooling Valve,"cmd, cool","cmd, cool"
1502,Heating Control,"cmd, heat","air, pressure, sensor"
1503,Return Air Setpoint,"sp, temp, air, return, oneA","oneA, sp"
1504,Setback Setpoint,"sp, oneA","oneA, sp"
1505,Hours Run Setpoint,"sp, oneA","oneA, sp"
1506,Std. Operating Times,"sp, occupied, oneA",sensor
1507,Night Setback Times,"sp, occupied, oneA",sensor
1508,Dehumidification,cmd,sp
1509,Humidifier,cmd,sp
1510,Airflow Fail Input,"sensor, alarm",sensor
1511,Communications Fail,"sensor, alarm",sensor
1512,Water Flow Fail,"sensor, alarm",sensor
1513,Water Flow Input,sensor,sensor
1514,Overheat Cut-Out,"sensor, alarm",sensor
1515,Bottle Change Input,sensor,sensor
1516,Pushbutton Status,sensor,sensor
1517,Return Air Temp,"sensor, temp, air, return","air, sensor, temp"
1518,Return Air Humidity,"sensor, humidity, air, return",sp
1519,Unit On-Off,cmd,sensor
1520,High Temp,cmd,sensor
1521,Cooling Valve,"cmd, cool","cmd, cool"
1522,Heating Control,"cmd, heat","air, pressure, sensor"
1523,Return Air Setpoint,"sp, temp, air, return, oneA","oneA, sp"
1524,Setback Setpoint,"sp, oneA","oneA, sp"
1525,Hours Run Setpoint,"sp, oneA","oneA, sp"
1526,Std. Operating Times,"sp, occupied, oneA",sensor
1527,Night Setback Times,"sp, occupied, oneA",sensor
1528,Dehumidification,cmd,sp
1529,Humidifier,cmd,sp
1530,Airflow Fail Input,"sensor, alarm",sensor
1531,Communications Fail,"sensor, alarm",sensor
1532,Water Flow Fail,"sensor, alarm",sensor
1533,Water Flow Input,sensor,sensor
1534,Overheat Cut-Out,"sensor, alarm",sensor
1535,Bottle Change Input,sensor,sensor
1536,Pushbutton Status,sensor,sensor
1537,Return Air Temp,"sensor, temp, air, return","air, sensor, temp"
1538,Return Air Humidity,"sensor, humidity, air, return",sp
1539,Unit On-Off,cmd,sensor
1540,High Temp,cmd,sensor
1541,Cooling Valve,"cmd, cool","cmd, cool"
1542,Heating Control,"cmd, heat","air, pressure, sensor"
1543,Return Air Setpoint,"sp, temp, air, return, oneA","oneA, sp"
1544,Setback Setpoint,"sp, oneA","oneA, sp"
1545,Hours Run Setpoint,"sp, oneA","oneA, sp"
1546,Std. Operating Times,"sp, occupied, oneA",sensor
1547,Night Setback Times,"sp, occupied, oneA",sensor
1548,Dehumidification,cmd,sp
1549,Humidifier,cmd,sp
1550,Airflow Fail Input,"sensor, alarm",sensor
1551,Communications Fail,"sensor, alarm",sensor
1552,Water Flow Fail,"sensor, alarm",sensor
1553,Water Flow Input,sensor,sensor
1554,Overheat Cut-Out,"sensor, alarm",sensor
1555,Bottle Change Input,sensor,sensor
1556,Pushbutton Status,sensor,sensor
1557,Return Air Temp,"sensor, temp, air, return","air, sensor, temp"
1558,Return Air Humidity,"sensor, humidity, air, return",sp
1559,EF12 FANS 1 & 2,cmd,sp
1560,EF12 EXTRACT FLOW,sensor,sensor
1561,EF12 FAN 1 FAIL,"sensor, alarm",cmd
1562,EF12 FAN 2 FAIL,"sensor, alarm",cmd
1563,EF12 EXTRACT C02,"sensor, co2, air",sp
1564,EF13 FANS 1 & 2,cmd,sp
1565,EF13 EXTRACT FLOW,sensor,sensor
1566,EF13 FAN 1 FAIL,"sensor, alarm",cmd
1567,EF13 FAN 2 FAIL,"sensor, alarm",cmd
1568,EF13 EXTRACT C02,"sensor, co2, air",sp
1569,EF14 FANS 1 & 2,cmd,sp
1570,EF14 EXTRACT FLOW,sensor,sensor
1571,EF14 FAN 1 FAIL,"sensor, alarm",cmd
1572,EF14 FAN 2 FAIL,"sensor, alarm",cmd
1573,EF14 EXTRACT C02,"sensor, co2, air",sp
1574,EF15 FANS 1 & 2,cmd,sp
1575,EF15 EXTRACT FLOW,sensor,sensor
1576,EF15 FAN 1 FAIL,"sensor, alarm",cmd
1577,EF15 FAN 2 FAIL,"sensor, alarm",cmd
1578,EF15 EXTRACT C02,"sensor, co2, air",sp
1579,EF16 FANS 1 & 2,cmd,sp
1580,EF16 EXTRACT FLOW,sensor,sensor
1581,EF16 FAN 1 FAIL,"sensor, alarm",cmd
1582,EF16 FAN 2 FAIL,"sensor, alarm",cmd
1583,EF16 EXTRACT C02,"sensor, co2, air",sp
1584,EF17 FANS 1 & 2,cmd,sp
1585,EF17 EXTRACT FLOW,sensor,sensor
1586,EF17 FAN 1 FAIL,"sensor, alarm",cmd
1587,EF17 FAN 2 FAIL,"sensor, alarm",cmd
1588,EF17 EXTRACT C02,"sensor, co2, air",sp
1589,EF18 FANS 1 & 2,cmd,sp
1590,EF18 EXTRACT FLOW,sensor,sensor
1591,EF18 FAN 1 FAIL,"sensor, alarm",cmd
1592,EF18 FAN 2 FAIL,"sensor, alarm",cmd
1593,EF18 EXTRACT C02,"sensor, co2, air",sp
1594,EF19 FANS 1 & 2,cmd,sp
1595,EF19 EXTRACT FLOW,sensor,sensor
1596,EF19 FAN 1 FAIL,"sensor, alarm",cmd
1597,EF19 FAN 2 FAIL,"sensor, alarm",cmd
1598,EF19 EXTRACT C02,"sensor, co2, air",sp
1599,UNIT ON/OFF,cmd,sensor
1600,COOL STAGE 2,cmd,sensor
1601,COOL STAGE 3,cmd,sensor
1602,HEATING CONTROL,"cmd, heat","air, pressure, sensor"
1603,MANUAL CONTROL,"sensor,override","override, sp"
1604,RETURN AIR SETPOINT,"sp, temp, air, return, oneA","oneA, sp"
1605,SETBACK SETPOINT,"sp, oneA","oneA, sp"
1606,HOURS RUN SETPOINT,"sp, oneA","oneA, sp"
1607,AUTO/MANUAL RESTART,"sp,override","override, sp"
1608,STD. OPERATING TIMES,"sp, occupied, oneA",sensor
1609,NIGHT SETBACK TIMES,"sp, occupied, oneA",sensor
1610,DE-HUMIDIFIER,cmd,sensor
1611,HUMIDIFIER,cmd,sp
1612,AIRFLOW SWITCH INPUT,sensor,sensor
1613,COMMUNICATIONS FAIL,"sensor, alarm",sensor
1614,COMPRESSOR 1 TRIP,"sensor, alarm",sensor
1615,COMPRESSOR 2 TRIP,"sensor, alarm",sensor
1616,COMPRESSOR 3 TRIP,"sensor, alarm",sensor
1617,OVERHEAT CUT-OUT,"sensor, alarm",sensor
1618,BOTTLE CHANGE INPUT,sensor,sensor
1619,PUSHBUTTON STATUS,sensor,sensor
1620,RETURN AIR TEMP,"sensor, temp, air, return","air, sensor, temp"
1621,RETURN AIR HUMIDITY,"sensor, humidity, air, return",sp
1622,UNIT ON/OFF,cmd,sensor
1623,COOL STAGE 2,cmd,sensor
1624,COOL STAGE 3,cmd,sensor
1625,HEATING CONTROL,"cmd, heat","air, pressure, sensor"
1626,MANUAL CONTROL,"sensor,override","override, sp"
1627,RETURN AIR SETPOINT,"sp, temp, air, return, oneA","oneA, sp"
1628,SETBACK SETPOINT,"sp, oneA","oneA, sp"
1629,HOURS RUN SETPOINT,"sp, oneA","oneA, sp"
1630,AUTO/MANUAL RESTART,"sp,override","override, sp"
1631,STD. OPERATING TIMES,"sp, occupied, oneA",sensor
1632,NIGHT SETBACK TIMES,"sp, occupied, oneA",sensor
1633,DE-HUMIDIFIER,cmd,sensor
1634,HUMIDIFIER,cmd,sp
1635,AIRFLOW SWITCH INPUT,sensor,sensor
1636,COMMUNICATIONS FAIL,"sensor, alarm",sensor
1637,COMPRESSOR 1 TRIP,"sensor, alarm",sensor
1638,COMPRESSOR 2 TRIP,"sensor, alarm",sensor
1639,COMPRESSOR 3 TRIP,"sensor, alarm",sensor
1640,OVERHEAT CUT-OUT,"sensor, alarm",sensor
1641,BOTTLE CHANGE INPUT,sensor,sensor
1642,PUSHBUTTON STATUS,sensor,sensor
1643,RETURN AIR TEMP,"sensor, temp, air, return","air, sensor, temp"
1644,RETURN AIR HUMIDITY,"sensor, humidity, air, return",sp
1645,UNIT ON/OFF,cmd,sensor
1646,COOL STAGE 2,cmd,sensor
1647,COOL STAGE 3,cmd,sensor
1648,HEATING CONTROL,"cmd, heat","air, pressure, sensor"
1649,MANUAL CONTROL,"sensor,override","override, sp"
1650,RETURN AIR SETPOINT,"sp, temp, air, return, oneA","oneA, sp"
1651,SETBACK SETPOINT,"sp, oneA","oneA, sp"
1652,HOURS RUN SETPOINT,"sp, oneA","oneA, sp"
1653,AUTO/MANUAL RESTART,"sp,override","override, sp"
1654,STD. OPERATING TIMES,"sp, occupied, oneA",sensor
1655,NIGHT SETBACK TIMES,"sp, occupied, oneA",sensor
1656,DE-HUMIDIFIER,cmd,sensor
1657,HUMIDIFIER,cmd,sp
1658,AIRFLOW SWITCH INPUT,sensor,sensor
1659,COMMUNICATIONS FAIL,"sensor, alarm",sensor
1660,COMPRESSOR 1 TRIP,"sensor, alarm",sensor
1661,COMPRESSOR 2 TRIP,"sensor, alarm",sensor
1662,COMPRESSOR 3 TRIP,"sensor, alarm",sensor
1663,OVERHEAT CUT-OUT,"sensor, alarm",sensor
1664,BOTTLE CHANGE INPUT,sensor,sensor
1665,PUSHBUTTON STATUS,sensor,sensor
1666,RETURN AIR TEMP,"sensor, temp, air, return","air, sensor, temp"
1667,RETURN AIR HUMIDITY,"sensor, humidity, air, return",sp
1668,UNIT ON/OFF,cmd,sensor
1669,COOL STAGE 2,cmd,sensor
1670,COOL STAGE 3,cmd,sensor
1671,HEATING CONTROL,"cmd, heat","air, pressure, sensor"
1672,MANUAL CONTROL,"sensor,override","override, sp"
1673,RETURN AIR SETPOINT,"sp, temp, air, return, oneA","oneA, sp"
1674,SETBACK SETPOINT,"sp, oneA","oneA, sp"
1675,HOURS RUN SETPOINT,"sp, oneA","oneA, sp"
1676,AUTO/MANUAL RESTART,"sp,override","override, sp"
1677,STD. OPERATING TIMES,"sp, occupied, oneA",sensor
1678,NIGHT SETBACK TIMES,"sp, occupied, oneA",sensor
1679,DE-HUMIDIFIER,cmd,sensor
1680,HUMIDIFIER,cmd,sp
1681,AIRFLOW SWITCH INPUT,sensor,sensor
1682,COMMUNICATIONS FAIL,"sensor, alarm",sensor
1683,COMPRESSOR 1 TRIP,"sensor, alarm",sensor
1684,COMPRESSOR 2 TRIP,"sensor, alarm",sensor
1685,COMPRESSOR 3 TRIP,"sensor, alarm",sensor
1686,OVERHEAT CUT-OUT,"sensor, alarm",sensor
1687,BOTTLE CHANGE INPUT,sensor,sensor
1688,PUSHBUTTON STATUS,sensor,sensor
1689,RETURN AIR TEMP,"sensor, temp, air, return","air, sensor, temp"
1690,RETURN AIR HUMIDITY,"sensor, humidity, air, return",sp
1691,UNIT ON/OFF,cmd,sensor
1692,COOL STAGE 2,cmd,sensor
1693,COOL STAGE 3,cmd,sensor
1694,HEATING CONTROL,"cmd, heat","air, pressure, sensor"
1695,MANUAL CONTROL,"sensor,override","override, sp"
1696,RETURN AIR SETPOINT,"sp, temp, air, return, oneA","oneA, sp"
1697,SETBACK SETPOINT,"sp, oneA","oneA, sp"
1698,HOURS RUN SETPOINT,"sp, oneA","oneA, sp"
1699,AUTO/MANUAL RESTART,"sp,override","override, sp"
1700,STD. OPERATING TIMES,"sp, occupied, oneA",sensor
1701,NIGHT SETBACK TIMES,"sp, occupied, oneA",sensor
1702,DE-HUMIDIFIER,cmd,sensor
1703,HUMIDIFIER,cmd,sp
1704,AIRFLOW SWITCH INPUT,sensor,sensor
1705,COMMUNICATIONS FAIL,"sensor, alarm",sensor
1706,COMPRESSOR 1 TRIP,"sensor, alarm",sensor
1707,COMPRESSOR 2 TRIP,"sensor, alarm",sensor
1708,COMPRESSOR 3 TRIP,"sensor, alarm",sensor
1709,OVERHEAT CUT-OUT,"sensor, alarm",sensor
1710,BOTTLE CHANGE INPUT,sensor,sensor
1711,PUSHBUTTON STATUS,sensor,sensor
1712,RETURN AIR TEMP,"sensor, temp, air, return","air, sensor, temp"
1713,RETURN AIR HUMIDITY,"sensor, humidity, air, return",sp
1714,UNIT ON/OFF,cmd,sensor
1715,COOL STAGE 2,cmd,sensor
1716,COOL STAGE 3,cmd,sensor
1717,HEATING CONTROL,"cmd, heat","air, pressure, sensor"
1718,MANUAL CONTROL,"sensor,override","override, sp"
1719,RETURN AIR SETPOINT,"sp, temp, air, return, oneA","oneA, sp"
1720,SETBACK SETPOINT,"sp, oneA","oneA, sp"
1721,HOURS RUN SETPOINT,"sp, oneA","oneA, sp"
1722,AUTO/MANUAL RESTART,"sp,override","override, sp"
1723,STD. OPERATING TIMES,"sp, occupied, oneA",sensor
1724,NIGHT SETBACK TIMES,"sp, occupied, oneA",sensor
1725,DE-HUMIDIFIER,cmd,sensor
1726,HUMIDIFIER,cmd,sp
1727,AIRFLOW SWITCH INPUT,sensor,sensor
1728,COMMUNICATIONS FAIL,"sensor, alarm",sensor
1729,COMPRESSOR 1 TRIP,"sensor, alarm",sensor
1730,COMPRESSOR 2 TRIP,"sensor, alarm",sensor
1731,COMPRESSOR 3 TRIP,"sensor, alarm",sensor
1732,OVERHEAT CUT-OUT,"sensor, alarm",sensor
1733,BOTTLE CHANGE INPUT,sensor,sensor
1734,PUSHBUTTON STATUS,sensor,sensor
1735,RETURN AIR TEMP,"sensor, temp, air, return","air, sensor, temp"
1736,Roof Extract A.H.O,"sp, oneA",sp
1737,Roof Extract C Over,"sp, oneA",sp
1738,Extract on temp ,"sp, oneA","air, sensor, temp"
1739,Toilet RA Temp SP,"sp, oneA","oneA, sp"
1740,TOILET EXTRACT  FLOW,sensor,sensor
1741,TOILET EX C-O Time,"sp, oneA",sp
1742,CHW 1st CT Pump 1 Enable,"sensor, run",sensor
1743,CHW 1st CT Pump 2 Enable,"sensor, run",sensor
1744,CHW AHU CT Pump 1 Enable,"sensor, run",sensor
1745,CHW AHU CT Pump 2 Enable,"sensor, run",sensor
1746,CHILLER 1,"cmd, run",sensor
1747,CHILLER 1 RUN,"sensor, run",sensor
1748,CHILLER 1 FAULT,"sensor, alarm",sensor
1749,CHILLER 2,"cmd, run",sensor
1750,CHILLER 2 RUN,"sensor, run",sensor
1751,CHILLER 2 FAULT,"sensor, alarm",sensor
1752,CHILLER 3,"cmd, run",sensor
1753,CHILLER 3 RUN,"sensor, run",sensor
1754,CHILLER 3 FAULT,"sensor, alarm",sensor
1755,CHILLER 4,"cmd, run",sensor
1756,CHILLER 4 RUN,"sensor, run",sensor
1757,CHILLER 4 FAULT,"sensor, alarm",sensor
1758,CHW CT 1ST PUMPS,cmd,sp
1759,CHW CT AHU PUMPS,cmd,sp
1760,CHW CT GND PUMPS,cmd,sp
1761,CHW PRIMARY PUMPS,cmd,sp
1762,CHW Grnd CT Pump 1 Enable,"sensor, run",sensor
1763,CHW Grnd CT Pump 2 Enable,"sensor, run",sensor
1764,CHW Primary Pump 1 Enable,"sensor, run",sensor
1765,CHW Primary Pump 2 Enable,"sensor, run",sensor
1766,1ST CT FCU PUMPS,"cmd, run",sp
1767,AHU CT Pump 1 Speed,"cmd, speed",sp
1768,AHU CT Pump 2 Speed,"cmd, speed",sp
1769,AHU CT FCU PUMPS,"cmd, run",sp
1770,AHU CT Pump 1 Enable,sensor,sensor
1771,AHU CT Pump 2 Enable,sensor,sensor
1772,CT GND FCU PUMPS,"cmd, run",sp
1773,BOILER PRIMARY PUMPS,"cmd, run",sp
1774,HWS PRIMARY PUMP 1,"cmd, run",sensor
1775,HWS PRIMARY PUMP 2,"cmd, run",sensor
1776,1ST FCU FLOW FAIL,"sensor, alarm",sensor
1777,BOILER 1 - STAGE 1&2,cmd,sp
1778,BOILER 1 COM FAULT,"sensor, alarm",sensor
1779,Boiler 1A Enable,sensor,sensor
1780,Boiler 1B Enable,sensor,sensor
1781,BOILER 2 - STAGE 1&2,cmd,sp
1782,BOILER 2 COM FAULT,"sensor, alarm",sensor
1783,Boiler 2A Enable,sensor,sensor
1784,Boiler 2B Enable,sensor,sensor
1785,BOILER 3 - STAGE 1&2,cmd,sp
1786,BOILER 3 COM FAULT,"sensor, alarm",sensor
1787,Boiler 3A Enable,sensor,sensor
1788,Boiler 3B Enable,sensor,sensor
1789,BOILER 4 - STAGE 1&2,cmd,sp
1790,BOILER 4 COM FAULT,"sensor, alarm",sensor
1791,Boiler 4A Enable,sensor,sensor
1792,Boiler 4B Enable,sensor,sensor
1793,GND FCU FLOW FAIL,"sensor, alarm",sensor
1794,Primary Pump 1 Speed,"cmd, speed",sp
1795,Primary Pump 2 Speed,"cmd, speed",sp
1796,LPHW PRIM PUMP FLOW,"sensor, run",sensor
1797,AHU 1 E.FAN 1 & 2,cmd,sp
1798,AHU 1 E.FAN SPEED,"cmd,speed",sp
1799,AHU 1 Extract Fan 1 Enable,sensor,cmd
1800,AHU 1 S.FAN 1 & 2,cmd,sp
1801,AHU 1 S.FAN SPEED,"cmd,speed",sp
1802,AHU 1 Supply Fan 1 Enable,sensor,cmd
1803,AHU 1 Supply Fan 2 Enable,sensor,cmd
1804,AHU 1 Extract Fan 2 Enable,sensor,cmd
1805,AHU 10 S.FAN 1 & 2,cmd,sp
1806,AHU 11 S.FAN 1 & 2,cmd,sp
1807,AHU 2 E.FAN 1 & 2,cmd,sp
1808,AHU 2 E.FAN SPEED,"cmd,speed",sp
1809,AHU 2 Extract Fan 1 Enable,sensor,cmd
1810,AHU 2 S.FAN 1 & 2,cmd,sp
1811,AHU 2 S.FAN SPEED,"cmd,speed",sp
1812,AHU 2 Supply Fan 1 Enable,sensor,cmd
1813,AHU 2 Supply Fan 2 Enable,sensor,cmd
1814,AHU 2 Extract Fan 2 Enable,sensor,cmd
1815,AHU 3 EXT.FAN SPEED,"cmd,speed",sp
1816,AHU 3 E.FAN 1 & 2,cmd,sp
1817,AHU 3 Extract Fan 1 Enable,sensor,cmd
1818,AHU 3 S.FAN SPEED,"cmd,speed",sp
1819,AHU 3 S.FAN 1 & 2,cmd,sp
1820,AHU 3 Supply Fan 1 Enable,sensor,cmd
1821,AHU 4 E.FAN 1 & 2,cmd,sp
1822,AHU 4 E.FAN SPEED,"cmd,speed",sp
1823,AHU 4 Extract Fan 1 Enable,sensor,cmd
1824,AHU 4 S.FAN 1 & 2,cmd,sp
1825,AHU 4 S.FAN SPEED,"cmd,speed",sp
1826,AHU 4 Supply Fan 1 Enable,sensor,cmd
1827,AHU 5 S.FAN 1 & 2,cmd,sp
1828,AHU 6 S.FAN 1 & 2,cmd,sp
1829,AHU 7 E.FAN 1 & 2,cmd,sp
1830,AHU 7 E.FAN SPEED,"cmd,speed",sp
1831,AHU 7 S.FAN 1 & 2,cmd,sp
1832,AHU 7 S.FAN SPEED,"cmd,speed",sp
1833,AHU 8 E.FAN SPEED,"cmd,speed",sp
1834,AHU 8 S.FAN 1 & 2,cmd,sp
1835,AHU 8 S.FAN SPEED,"cmd,speed",sp
1836,AHU 9 E.FAN 1 & 2,cmd,sp
1837,AHU 9 S.FAN 1 & 2,cmd,sp
1838,TOILET EXTRACT FAN 1,cmd,cmd
1839,TOILET EX FAN 1 FAIL,"sensor, alarm",cmd
1840,TOILET EXTRACT FAN 2,cmd,cmd
1841,TOILET EX FAN 2 FAIL,"sensor, alarm",cmd
1842,1st Floor FCU Pump 1 Enable,"sensor, run",sensor
1843,1st Floor FCU Pump 2 Enable,"sensor, run",sensor
1844,Grnd Floor FCU Pump 1 Enable,"sensor, run",sensor
1845,Grnd Floor FCU Pump 2 Enable,"sensor, run",sensor
1846,Primary Pump 1 Speed ,"sp, speed, oneA",sp
1847,Blr Prim Pump 1 Fail,"sensor, alarm",sensor
1848,Boiler Prim Pump 1 Enable,"sensor, run",sensor
1849,Primary Pump 2 Speed ,"sp, speed, oneA",sp
1850,Blr Prim Pump 2 Fail,"sensor, alarm",sensor
1851,Boiler Prim Pump 2 Enable,"sensor, run",sensor
