,pointLabel,pointTags,Predicted pointTags
0,CWS Tank Section 2 High Level,sensor,sensor
1,CWS Tank Section 1 Low Level,sensor,sensor
2,CWS Tank Section 2 Low Level,sensor,sensor
3,CWS Tank High Temperature,sensor,sensor
4,CWS Booster Fault,sensor,sensor
5,Sump Pump Fault,sensor,sensor
6,CWS Tank Section 1 High Level,sensor,sensor
7,CWS Tank Max,sp,sp
8,CWS Tank Section 1 Temp,"sensor, temp, air","air, sensor, temp"
9,CHS Tank Section 2 Temp,"sensor, temp, air","air, sensor, temp"
10,Reset Button,sensor,sensor
11,Alarm Reset,sensor,"alarm, sensor"
12,Cooling Press Unit Fault,sensor,"alarm, sensor"
13,CHW Flow Temp,"sensor, temp, water, chilled, leaving","chilled, leaving, sensor, temp, water"
14,CHW Buffer Vessel Temp,"sensor, temp, air","air, sensor, temp"
15,CHW Return Temp,"sensor, temp, air","air, sensor, temp"
16,Chiller Enable,"cmd, enable","cmd, run"
17,Chiller Fault,"sensor, alarm","alarm, sensor"
18,CHW Pumps Flow,"sensor, run","run, sensor"
19,CHW Pump 1 Enable,"cmd, enable","cmd, enable"
20,CHW Pump 2 Enable,"cmd, enable","cmd, enable"
21,Fire Alarm,sensor,"alarm, sensor"
22,Safety Circuit Active,sensor,sensor
23,Fire Alarm,sensor,"alarm, sensor"
24,Safety Circuit Active,sensor,sensor
25,MCP1 OAT,"sensor, temp, air, outside","air, outside, sensor, temp"
26,MCP2 OAT,"sensor, temp, air, outside","air, outside, sensor, temp"
27,FrostStage1,sp,sp
28,HeatEconomy,sp,sp
29,FrostStage2,sp,sp
30,FrostStage3,sp,sp
31,Override Switch,"sp,override","override, sp"
32,Building Times,"sp, occupied","occupied, sp"
33,Heating Press Unit Fault,sensor,sensor
34,Optimiser Setpoint,sp,sp
35,District Htg Flow Temp,"sensor, temp, water, hot, leaving","hot, leaving, sensor, temp, water"
36,District Htg Return Temp,"sensor, temp, water, hot, entering","entering, hot, sensor, temp, water"
37,District Htg Return Pressure,"sensor, pressure, air","air, pressure, sensor"
38,Immersion Heater 1 Enable,cmd,cmd
39,Immersion Heater 2 Enable,cmd,cmd
40,UV Clarifier Fault,sensor,"alarm, sensor"
41,HWS Pump Tripped,sensor,sensor
42,Immersion Heater 1 High Limit,sensor,sensor
43,Immersion Heater 2 High Limit,sensor,sensor
44,Immersion Heater 3 High Limit,sensor,sensor
45,Heating Pumps Flow,"sensor, run","run, sensor"
46,HWS Circulation Pump Enable,"cmd, enable","cmd, enable"
47,Heating Pump 1,"cmd, enable","cmd, enable"
48,Heating Pump 1 Fault,"sensor, alarm","alarm, sensor"
49,Heating Pump 2,"cmd, enable","cmd, enable"
50,Heating Pump 2 Fault,"sensor, alarm","alarm, sensor"
51,1st Comms Room AC Unit Enable,cmd,cmd
52,1st Flr Comms Room AC Fault,sensor,sensor
53,First Floor VAV Control,cmd,cmd
54,1st Floor CO2 Setpoint,"sp, co2, air, zone","air, co2, sp, zone"
55,1st Min VAV Position,sp,sp
56,1st Floor CO2,"sensor, co2, air, zone","air, co2, sensor, zone"
57,1st Meeting Rm AC Unit Enable,cmd,cmd
58,1st Flr Meeting Room AC Fault,sensor,sensor
59,2nd Comms Room AC Unit Enable,cmd,cmd
60,2nd Flr Comms Room AC Fault,sensor,sensor
61,Second Floor VAV Control,cmd,cmd
62,2nd Floor CO2 Setpoint,"sp, co2, air, zone","air, co2, sp, zone"
63,2nd Min VAV Position,sp,sp
64,2nd Floor CO2,"sensor, co2, air, zone","air, co2, sensor, zone"
65,2nd Meeting Rm AC Unit Enable,cmd,cmd
66,2nd Flr Meeting Room AC Fault,sensor,sensor
67,3rd Comms Room AC Unit Enable,cmd,cmd
68,3rd Flr Comms Room AC Fault,sensor,sensor
69,Third Floor VAV Control,cmd,cmd
70,3rd Floor CO2 Setpoint,"sp, co2, air, zone","air, co2, sp, zone"
71,3rd Min VAV Position,sp,sp
72,3rd Floor CO2,"sensor, co2, air, zone","air, co2, sensor, zone"
73,3rd Meeting Rm AC Unit Enable,cmd,cmd
74,3rd Flr Meeting Room AC Fault,sensor,sensor
75,4th Comms Room AC Unit Enable,cmd,cmd
76,Fourth Floor VAV Control,cmd,cmd
77,4th Floor CO2 Setpoint,"sp, co2, air, zone","air, co2, sp, zone"
78,4th Min VAV Position,sp,sp
79,4th Floor CO2,"sensor, co2, air, zone","air, co2, sensor, zone"
80,4th Meeting Rm AC Unit Enable,cmd,cmd
81,5th Comms AC Unit No.1 Fault,sensor,sensor
82,5th Comms AC Unit No.2 Fault,sensor,sensor
83,Fifth Floor VAV Control,cmd,cmd
84,5th Floor CO2 Setpoint,"sp, co2, air, zone","air, co2, sp, zone"
85,5th Min VAV Position,sp,sp
86,5th Floor CO2,"sensor, co2, air, zone","air, co2, sensor, zone"
87,5th Meeting Rm AC Unit Enable,cmd,cmd
88,5th Server Rm AC Unit Enable,cmd,cmd
89,6th Comms Room AC Unit Enable,cmd,cmd
90,Sixth Floor VAV Control,cmd,cmd
91,6th Floor CO2 Setpoint,"sp, co2, air, zone","air, co2, sp, zone"
92,6th Min VAV Position,sp,sp
93,6th Floor CO2,"sensor, co2, air, zone","air, co2, sensor, zone"
94,6th Meeting Rm AC Unit Enable,cmd,cmd
95,7th Comms Room AC Unit Enable,cmd,cmd
96,Cooling setpoint,"sp,cool","cool, sp"
97,Heating setpoint,"sp,heat","heat, sp"
98,Fan Enabled,cmd,cmd
99,Space Temp,"sensor, temp, air, zone","air, sensor, temp, zone"
100,Heating Demand,"cmd,heat","cmd, heat"
101,Cooling Demand,"cmd,cool","cmd, cool"
102,Cooling setpoint,"sp,cool","cool, sp"
103,Heating setpoint,"sp,heat","heat, sp"
104,Fan Enabled,cmd,cmd
105,Space Temp,"sensor, temp, air, zone","air, sensor, temp, zone"
106,Heating Demand,"cmd,heat","cmd, heat"
107,Cooling Demand,"cmd,cool","cmd, cool"
108,Cooling setpoint,"sp,cool","cool, sp"
109,Heating setpoint,"sp,heat","heat, sp"
110,Fan Enabled,cmd,cmd
111,Space Temp,"sensor, temp, air, zone","air, sensor, temp, zone"
112,Heating Demand,"cmd,heat","cmd, heat"
113,Cooling Demand,"cmd,cool","cmd, cool"
114,Cooling setpoint,"sp,cool","cool, sp"
115,Heating setpoint,"sp,heat","heat, sp"
116,Fan Enabled,cmd,cmd
117,Space Temp,"sensor, temp, air, zone","air, sensor, temp, zone"
118,Heating Demand,"cmd,heat","cmd, heat"
119,Cooling Demand,"cmd,cool","cmd, cool"
120,Cooling setpoint,"sp,cool","cool, sp"
121,Heating setpoint,"sp,heat","heat, sp"
122,Fan Enabled,cmd,cmd
123,Space Temp,"sensor, temp, air, zone","air, sensor, temp, zone"
124,Heating Demand,"cmd,heat","cmd, heat"
125,Cooling Demand,"cmd,cool","cmd, cool"
126,Cooling setpoint,"sp,cool","cool, sp"
127,Heating setpoint,"sp,heat","heat, sp"
128,Fan Enabled,cmd,cmd
129,Space Temp,"sensor, temp, air, zone","air, sensor, temp, zone"
130,Heating Demand,"cmd,heat","cmd, heat"
131,Cooling Demand,"cmd,cool","cmd, cool"
132,Cooling setpoint,"sp,cool","cool, sp"
133,Heating setpoint,"sp,heat","heat, sp"
134,Fan Enabled,cmd,cmd
135,Space Temp,"sensor, temp, air, zone","air, sensor, temp, zone"
136,Heating Demand,"cmd,heat","cmd, heat"
137,Cooling Demand,"cmd,cool","cmd, cool"
138,Cooling setpoint,"sp,cool","cool, sp"
139,Heating setpoint,"sp,heat","heat, sp"
140,Fan Enabled,cmd,cmd
141,Space Temp,"sensor, temp, air, zone","air, sensor, temp, zone"
142,Heating Demand,"cmd,heat","cmd, heat"
143,Cooling Demand,"cmd,cool","cmd, cool"
144,Cooling setpoint,"sp,cool","cool, sp"
145,Heating setpoint,"sp,heat","heat, sp"
146,Fan Enabled,cmd,cmd
147,Space Temp,"sensor, temp, air, zone","air, sensor, temp, zone"
148,Heating Demand,"cmd,heat","cmd, heat"
149,Cooling Demand,"cmd,cool","cmd, cool"
150,Cooling setpoint,"sp,cool","cool, sp"
151,Heating setpoint,"sp,heat","heat, sp"
152,Fan Enabled,cmd,cmd
153,Space Temp,"sensor, temp, air, zone","air, sensor, temp, zone"
154,Heating Demand,"cmd,heat","cmd, heat"
155,Cooling Demand,"cmd,cool","cmd, cool"
156,Cooling setpoint,"sp,cool","cool, sp"
157,Heating setpoint,"sp,heat","heat, sp"
158,Fan Enabled,cmd,cmd
159,Space Temp,"sensor, temp, air, zone","air, sensor, temp, zone"
160,Heating Demand,"cmd,heat","cmd, heat"
161,Cooling Demand,"cmd,cool","cmd, cool"
162,Cooling setpoint,"sp,cool","cool, sp"
163,Heating setpoint,"sp,heat","heat, sp"
164,Fan Enabled,cmd,cmd
165,Space Temp,"sensor, temp, air, zone","air, sensor, temp, zone"
166,Heating Demand,"cmd,heat","cmd, heat"
167,Cooling Demand,"cmd,cool","cmd, cool"
168,Cooling setpoint,"sp,cool","cool, sp"
169,Heating setpoint,"sp,heat","heat, sp"
170,Fan Enabled,cmd,cmd
171,Space Temp,"sensor, temp, air, zone","air, sensor, temp, zone"
172,Heating Demand,"cmd,heat","cmd, heat"
173,Cooling Demand,"cmd,cool","cmd, cool"
174,Cooling setpoint,"sp,cool","cool, sp"
175,Heating setpoint,"sp,heat","heat, sp"
176,Fan Enabled,cmd,cmd
177,Space Temp,"sensor, temp, air, zone","air, sensor, temp, zone"
178,Heating Demand,"cmd,heat","cmd, heat"
179,Cooling Demand,"cmd,cool","cmd, cool"
180,Cooling setpoint,"sp,cool","cool, sp"
181,Heating setpoint,"sp,heat","heat, sp"
182,Fan Enabled,cmd,cmd
183,Space Temp,"sensor, temp, air, zone","air, sensor, temp, zone"
184,Heating Demand,"cmd,heat","cmd, heat"
185,Cooling Demand,"cmd,cool","cmd, cool"
186,Cooling setpoint,"sp,cool","cool, sp"
187,Heating setpoint,"sp,heat","heat, sp"
188,Fan Enabled,cmd,cmd
189,Space Temp,"sensor, temp, air, zone","air, sensor, temp, zone"
190,Heating Demand,"cmd,heat","cmd, heat"
191,Cooling Demand,"cmd,cool","cmd, cool"
192,Cooling setpoint,"sp,cool","cool, sp"
193,Heating setpoint,"sp,heat","heat, sp"
194,Fan Enabled,cmd,cmd
195,Space Temp,"sensor, temp, air, zone","air, sensor, temp, zone"
196,Heating Demand,"cmd,heat","cmd, heat"
197,Cooling Demand,"cmd,cool","cmd, cool"
198,Cooling setpoint,"sp,cool","cool, sp"
199,Heating setpoint,"sp,heat","heat, sp"
200,Fan Enabled,cmd,cmd
201,Space Temp,"sensor, temp, air, zone","air, sensor, temp, zone"
202,Heating Demand,"cmd,heat","cmd, heat"
203,Cooling Demand,"cmd,cool","cmd, cool"
204,Cooling setpoint,"sp,cool","cool, sp"
205,Heating setpoint,"sp,heat","heat, sp"
206,Fan Enabled,cmd,cmd
207,Space Temp,"sensor, temp, air, zone","air, sensor, temp, zone"
208,Heating Demand,"cmd,heat","cmd, heat"
209,Cooling Demand,"cmd,cool","cmd, cool"
210,Cooling setpoint,"sp,cool","cool, sp"
211,Heating setpoint,"sp,heat","heat, sp"
212,Fan Enabled,cmd,cmd
213,Space Temp,"sensor, temp, air, zone","air, sensor, temp, zone"
214,Heating Demand,"cmd,heat","cmd, heat"
215,Cooling Demand,"cmd,cool","cmd, cool"
216,Cooling setpoint,"sp,cool","cool, sp"
217,Heating setpoint,"sp,heat","heat, sp"
218,Fan Enabled,cmd,cmd
219,Space Temp,"sensor, temp, air, zone","air, sensor, temp, zone"
220,Heating Demand,"cmd,heat","cmd, heat"
221,Cooling Demand,"cmd,cool","cmd, cool"
222,Cooling setpoint,"sp,cool","cool, sp"
223,Heating setpoint,"sp,heat","heat, sp"
224,Fan Enabled,cmd,cmd
225,Space Temp,"sensor, temp, air, zone","air, sensor, temp, zone"
226,Heating Demand,"cmd,heat","cmd, heat"
227,Cooling Demand,"cmd,cool","cmd, cool"
228,Cooling setpoint,"sp,cool","cool, sp"
229,Heating setpoint,"sp,heat","heat, sp"
230,Fan Enabled,cmd,cmd
231,Space Temp,"sensor, temp, air, zone","air, sensor, temp, zone"
232,Heating Demand,"cmd,heat","cmd, heat"
233,Cooling Demand,"cmd,cool","cmd, cool"
234,Cooling setpoint,"sp,cool","cool, sp"
235,Heating setpoint,"sp,heat","heat, sp"
236,Fan Enabled,cmd,cmd
237,Space Temp,"sensor, temp, air, zone","air, sensor, temp, zone"
238,Heating Demand,"cmd,heat","cmd, heat"
239,Cooling Demand,"cmd,cool","cmd, cool"
240,Cooling setpoint,"sp,cool","cool, sp"
241,Heating setpoint,"sp,heat","heat, sp"
242,Fan Enabled,cmd,cmd
243,Space Temp,"sensor, temp, air, zone","air, sensor, temp, zone"
244,Heating Demand,"cmd,heat","cmd, heat"
245,Cooling Demand,"cmd,cool","cmd, cool"
246,Cooling setpoint,"sp,cool","cool, sp"
247,Heating setpoint,"sp,heat","heat, sp"
248,Fan Enabled,cmd,cmd
249,Space Temp,"sensor, temp, air, zone","air, sensor, temp, zone"
250,Heating Demand,"cmd,heat","cmd, heat"
251,Cooling Demand,"cmd,cool","cmd, cool"
252,Cooling setpoint,"sp,cool","cool, sp"
253,Heating setpoint,"sp,heat","heat, sp"
254,Fan Enabled,cmd,cmd
255,Space Temp,"sensor, temp, air, zone","air, sensor, temp, zone"
256,Heating Demand,"cmd,heat","cmd, heat"
257,Cooling Demand,"cmd,cool","cmd, cool"
258,Cooling setpoint,"sp,cool","cool, sp"
259,Heating setpoint,"sp,heat","heat, sp"
260,Fan Enabled,cmd,cmd
261,Space Temp,"sensor, temp, air, zone","air, sensor, temp, zone"
262,Heating Demand,"cmd,heat","cmd, heat"
263,Cooling Demand,"cmd,cool","cmd, cool"
264,Cooling setpoint,"sp,cool","cool, sp"
265,Heating setpoint,"sp,heat","heat, sp"
266,Fan Enabled,cmd,cmd
267,Space Temp,"sensor, temp, air, zone","air, sensor, temp, zone"
268,Heating Demand,"cmd,heat","cmd, heat"
269,Cooling Demand,"cmd,cool","cmd, cool"
270,Cooling setpoint,"sp,cool","cool, sp"
271,Heating setpoint,"sp,heat","heat, sp"
272,Fan Enabled,cmd,cmd
273,Space Temp,"sensor, temp, air, zone","air, sensor, temp, zone"
274,Heating Demand,"cmd,heat","cmd, heat"
275,Cooling Demand,"cmd,cool","cmd, cool"
276,Cooling setpoint,"sp,cool","cool, sp"
277,Heating setpoint,"sp,heat","heat, sp"
278,Fan Enabled,cmd,cmd
279,Space Temp,"sensor, temp, air, zone","air, sensor, temp, zone"
280,Heating Demand,"cmd,heat","cmd, heat"
281,Cooling Demand,"cmd,cool","cmd, cool"
282,Cooling setpoint,"sp,cool","cool, sp"
283,Heating setpoint,"sp,heat","heat, sp"
284,Fan Enabled,cmd,cmd
285,Space Temp,"sensor, temp, air, zone","air, sensor, temp, zone"
286,Heating Demand,"cmd,heat","cmd, heat"
287,Cooling Demand,"cmd,cool","cmd, cool"
288,Cooling setpoint,"sp,cool","cool, sp"
289,Heating setpoint,"sp,heat","heat, sp"
290,Fan Enabled,cmd,cmd
291,Space Temp,"sensor, temp, air, zone","air, sensor, temp, zone"
292,Heating Demand,"cmd,heat","cmd, heat"
293,Cooling Demand,"cmd,cool","cmd, cool"
294,Cooling setpoint,"sp,cool","cool, sp"
295,Heating setpoint,"sp,heat","heat, sp"
296,Fan Enabled,cmd,cmd
297,Space Temp,"sensor, temp, air, zone","air, sensor, temp, zone"
298,Heating Demand,"cmd,heat","cmd, heat"
299,Cooling Demand,"cmd,cool","cmd, cool"
300,Cooling setpoint,"sp,cool","cool, sp"
301,Heating setpoint,"sp,heat","heat, sp"
302,Fan Enabled,cmd,cmd
303,Space Temp,"sensor, temp, air, zone","air, sensor, temp, zone"
304,Heating Demand,"cmd,heat","cmd, heat"
305,Cooling Demand,"cmd,cool","cmd, cool"
306,Cooling setpoint,"sp,cool","cool, sp"
307,Heating setpoint,"sp,heat","heat, sp"
308,Fan Enabled,cmd,cmd
309,Space Temp,"sensor, temp, air, zone","air, sensor, temp, zone"
310,Heating Demand,"cmd,heat","cmd, heat"
311,Cooling Demand,"cmd,cool","cmd, cool"
312,Cooling setpoint,"sp,cool","cool, sp"
313,Heating setpoint,"sp,heat","heat, sp"
314,Fan Enabled,cmd,cmd
315,Space Temp,"sensor, temp, air, zone","air, sensor, temp, zone"
316,Heating Demand,"cmd,heat","cmd, heat"
317,Cooling Demand,"cmd,cool","cmd, cool"
318,Cooling setpoint,"sp,cool","cool, sp"
319,Heating setpoint,"sp,heat","heat, sp"
320,Fan Enabled,cmd,cmd
321,Space Temp,"sensor, temp, air, zone","air, sensor, temp, zone"
322,Heating Demand,"cmd,heat","cmd, heat"
323,Cooling Demand,"cmd,cool","cmd, cool"
324,Cooling setpoint,"sp,cool","cool, sp"
325,Heating setpoint,"sp,heat","heat, sp"
326,Fan Enabled,cmd,cmd
327,Space Temp,"sensor, temp, air, zone","air, sensor, temp, zone"
328,Heating Demand,"cmd,heat","cmd, heat"
329,Cooling Demand,"cmd,cool","cmd, cool"
330,Cooling setpoint,"sp,cool","cool, sp"
331,Heating setpoint,"sp,heat","heat, sp"
332,Fan Enabled,cmd,cmd
333,Space Temp,"sensor, temp, air, zone","air, sensor, temp, zone"
334,Heating Demand,"cmd,heat","cmd, heat"
335,Cooling Demand,"cmd,cool","cmd, cool"
336,Cooling setpoint,"sp,cool","cool, sp"
337,Heating setpoint,"sp,heat","heat, sp"
338,Fan Enabled,cmd,cmd
339,Space Temp,"sensor, temp, air, zone","air, sensor, temp, zone"
340,Heating Demand,"cmd,heat","cmd, heat"
341,Cooling Demand,"cmd,cool","cmd, cool"
342,Cooling setpoint,"sp,cool","cool, sp"
343,Heating setpoint,"sp,heat","heat, sp"
344,Fan Enabled,cmd,cmd
345,Space Temp,"sensor, temp, air, zone","air, sensor, temp, zone"
346,Heating Demand,"cmd,heat","cmd, heat"
347,Cooling Demand,"cmd,cool","cmd, cool"
348,Cooling setpoint,"sp,cool","cool, sp"
349,Heating setpoint,"sp,heat","heat, sp"
350,Fan Enabled,cmd,cmd
351,Space Temp,"sensor, temp, air, zone","air, sensor, temp, zone"
352,Heating Demand,"cmd,heat","cmd, heat"
353,Cooling Demand,"cmd,cool","cmd, cool"
354,Cooling setpoint,"sp,cool","cool, sp"
355,Heating setpoint,"sp,heat","heat, sp"
356,Fan Enabled,cmd,cmd
357,Space Temp,"sensor, temp, air, zone","air, sensor, temp, zone"
358,Heating Demand,"cmd,heat","cmd, heat"
359,Cooling Demand,"cmd,cool","cmd, cool"
360,Cooling setpoint,"sp,cool","cool, sp"
361,Heating setpoint,"sp,heat","heat, sp"
362,Fan Enabled,cmd,cmd
363,Space Temp,"sensor, temp, air, zone","air, sensor, temp, zone"
364,Heating Demand,"cmd,heat","cmd, heat"
365,Cooling Demand,"cmd,cool","cmd, cool"
366,Cooling setpoint,"sp,cool","cool, sp"
367,Heating setpoint,"sp,heat","heat, sp"
368,Fan Enabled,cmd,cmd
369,Space Temp,"sensor, temp, air, zone","air, sensor, temp, zone"
370,Heating Demand,"cmd,heat","cmd, heat"
371,Cooling Demand,"cmd,cool","cmd, cool"
372,Cooling setpoint,"sp,cool","cool, sp"
373,Heating setpoint,"sp,heat","heat, sp"
374,Fan Enabled,cmd,cmd
375,Space Temp,"sensor, temp, air, zone","air, sensor, temp, zone"
376,Heating Demand,"cmd,heat","cmd, heat"
377,Cooling Demand,"cmd,cool","cmd, cool"
378,Cooling setpoint,"sp,cool","cool, sp"
379,Heating setpoint,"sp,heat","heat, sp"
380,Fan Enabled,cmd,cmd
381,Space Temp,"sensor, temp, air, zone","air, sensor, temp, zone"
382,Heating Demand,"cmd,heat","cmd, heat"
383,Cooling Demand,"cmd,cool","cmd, cool"
384,Cooling setpoint,"sp,cool","cool, sp"
385,Heating setpoint,"sp,heat","heat, sp"
386,Fan Enabled,cmd,cmd
387,Space Temp,"sensor, temp, air, zone","air, sensor, temp, zone"
388,Heating Demand,"cmd,heat","cmd, heat"
389,Cooling Demand,"cmd,cool","cmd, cool"
390,Cooling setpoint,"sp,cool","cool, sp"
391,Heating setpoint,"sp,heat","heat, sp"
392,Fan Enabled,cmd,cmd
393,Space Temp,"sensor, temp, air, zone","air, sensor, temp, zone"
394,Heating Demand,"cmd,heat","cmd, heat"
395,Cooling Demand,"cmd,cool","cmd, cool"
396,Cooling setpoint,"sp,cool","cool, sp"
397,Heating setpoint,"sp,heat","heat, sp"
398,Fan Enabled,cmd,cmd
399,Space Temp,"sensor, temp, air, zone","air, sensor, temp, zone"
400,Heating Demand,"cmd,heat","cmd, heat"
401,Cooling Demand,"cmd,cool","cmd, cool"
402,Cooling setpoint,"sp,cool","cool, sp"
403,Heating setpoint,"sp,heat","heat, sp"
404,Fan Enabled,cmd,cmd
405,Space Temp,"sensor, temp, air, zone","air, sensor, temp, zone"
406,Heating Demand,"cmd,heat","cmd, heat"
407,Cooling Demand,"cmd,cool","cmd, cool"
408,Cooling setpoint,"sp,cool","cool, sp"
409,Heating setpoint,"sp,heat","heat, sp"
410,Fan Enabled,cmd,cmd
411,Space Temp,"sensor, temp, air, zone","air, sensor, temp, zone"
412,Heating Demand,"cmd,heat","cmd, heat"
413,Cooling Demand,"cmd,cool","cmd, cool"
414,Cooling setpoint,"sp,cool","cool, sp"
415,Heating setpoint,"sp,heat","heat, sp"
416,Fan Enabled,cmd,cmd
417,Space Temp,"sensor, temp, air, zone","air, sensor, temp, zone"
418,Heating Demand,"cmd,heat","cmd, heat"
419,Cooling Demand,"cmd,cool","cmd, cool"
420,Cooling setpoint,"sp,cool","cool, sp"
421,Heating setpoint,"sp,heat","heat, sp"
422,Fan Enabled,cmd,cmd
423,Space Temp,"sensor, temp, air, zone","air, sensor, temp, zone"
424,Heating Demand,"cmd,heat","cmd, heat"
425,Cooling Demand,"cmd,cool","cmd, cool"
426,Cooling setpoint,"sp,cool","cool, sp"
427,Heating setpoint,"sp,heat","heat, sp"
428,Fan Enabled,cmd,cmd
429,Space Temp,"sensor, temp, air, zone","air, sensor, temp, zone"
430,Heating Demand,"cmd,heat","cmd, heat"
431,Cooling Demand,"cmd,cool","cmd, cool"
432,Cooling setpoint,"sp,cool","cool, sp"
433,Heating setpoint,"sp,heat","heat, sp"
434,Fan Enabled,cmd,cmd
435,Space Temp,"sensor, temp, air, zone","air, sensor, temp, zone"
436,Heating Demand,"cmd,heat","cmd, heat"
437,Cooling Demand,"cmd,cool","cmd, cool"
438,Cooling setpoint,"sp,cool","cool, sp"
439,Heating setpoint,"sp,heat","heat, sp"
440,Fan Enabled,cmd,cmd
441,Space Temp,"sensor, temp, air, zone","air, sensor, temp, zone"
442,Heating Demand,"cmd,heat","cmd, heat"
443,Cooling Demand,"cmd,cool","cmd, cool"
444,Cooling setpoint,"sp,cool","cool, sp"
445,Heating setpoint,"sp,heat","heat, sp"
446,Fan Enabled,cmd,cmd
447,Space Temp,"sensor, temp, air, zone","air, sensor, temp, zone"
448,Heating Demand,"cmd,heat","cmd, heat"
449,Cooling Demand,"cmd,cool","cmd, cool"
450,Cooling setpoint,"sp,cool","cool, sp"
451,Heating setpoint,"sp,heat","heat, sp"
452,Fan Enabled,cmd,cmd
453,Space Temp,"sensor, temp, air, zone","air, sensor, temp, zone"
454,Heating Demand,"cmd,heat","cmd, heat"
455,Cooling Demand,"cmd,cool","cmd, cool"
456,Cooling setpoint,"sp,cool","cool, sp"
457,Heating setpoint,"sp,heat","heat, sp"
458,Fan Enabled,cmd,cmd
459,Space Temp,"sensor, temp, air, zone","air, sensor, temp, zone"
460,Heating Demand,"cmd,heat","cmd, heat"
461,Cooling Demand,"cmd,cool","cmd, cool"
462,Cooling setpoint,"sp,cool","cool, sp"
463,Heating setpoint,"sp,heat","heat, sp"
464,Fan Enabled,cmd,cmd
465,Space Temp,"sensor, temp, air, zone","air, sensor, temp, zone"
466,Heating Demand,"cmd,heat","cmd, heat"
467,Cooling Demand,"cmd,cool","cmd, cool"
468,Cooling setpoint,"sp,cool","cool, sp"
469,Heating setpoint,"sp,heat","heat, sp"
470,Fan Enabled,cmd,cmd
471,Space Temp,"sensor, temp, air, zone","air, sensor, temp, zone"
472,Heating Demand,"cmd,heat","cmd, heat"
473,Cooling Demand,"cmd,cool","cmd, cool"
474,Cooling setpoint,"sp,cool","cool, sp"
475,Heating setpoint,"sp,heat","heat, sp"
476,Fan Enabled,cmd,cmd
477,Space Temp,"sensor, temp, air, zone","air, sensor, temp, zone"
478,Heating Demand,"cmd,heat","cmd, heat"
479,Cooling Demand,"cmd,cool","cmd, cool"
480,Cooling setpoint,"sp,cool","cool, sp"
481,Heating setpoint,"sp,heat","heat, sp"
482,Fan Enabled,cmd,cmd
483,Space Temp,"sensor, temp, air, zone","air, sensor, temp, zone"
484,Heating Demand,"cmd,heat","cmd, heat"
485,Cooling Demand,"cmd,cool","cmd, cool"
486,Cooling setpoint,"sp,cool","cool, sp"
487,Heating setpoint,"sp,heat","heat, sp"
488,Fan Enabled,cmd,cmd
489,Space Temp,"sensor, temp, air, zone","air, sensor, temp, zone"
490,Heating Demand,"cmd,heat","cmd, heat"
491,Cooling Demand,"cmd,cool","cmd, cool"
492,Cooling setpoint,"sp,cool","cool, sp"
493,Heating setpoint,"sp,heat","heat, sp"
494,Fan Enabled,cmd,cmd
495,Space Temp,"sensor, temp, air, zone","air, sensor, temp, zone"
496,Heating Demand,"cmd,heat","cmd, heat"
497,Cooling Demand,"cmd,cool","cmd, cool"
498,Cooling setpoint,"sp,cool","cool, sp"
499,Heating setpoint,"sp,heat","heat, sp"
500,Fan Enabled,cmd,cmd
501,Space Temp,"sensor, temp, air, zone","air, sensor, temp, zone"
502,Heating Demand,"cmd,heat","cmd, heat"
503,Cooling Demand,"cmd,cool","cmd, cool"
504,Cooling setpoint,"sp,cool","cool, sp"
505,Heating setpoint,"sp,heat","heat, sp"
506,Fan Enabled,cmd,cmd
507,Space Temp,"sensor, temp, air, zone","air, sensor, temp, zone"
508,Heating Demand,"cmd,heat","cmd, heat"
509,Cooling Demand,"cmd,cool","cmd, cool"
510,Cooling setpoint,"sp,cool","cool, sp"
511,Heating setpoint,"sp,heat","heat, sp"
512,Fan Enabled,cmd,cmd
513,Space Temp,"sensor, temp, air, zone","air, sensor, temp, zone"
514,Heating Demand,"cmd,heat","cmd, heat"
515,Cooling Demand,"cmd,cool","cmd, cool"
516,Cooling setpoint,"sp,cool","cool, sp"
517,Heating setpoint,"sp,heat","heat, sp"
518,Fan Enabled,cmd,cmd
519,Space Temp,"sensor, temp, air, zone","air, sensor, temp, zone"
520,Heating Demand,"cmd,heat","cmd, heat"
521,Cooling Demand,"cmd,cool","cmd, cool"
522,Cooling setpoint,"sp,cool","cool, sp"
523,Heating setpoint,"sp,heat","heat, sp"
524,Fan Enabled,cmd,cmd
525,Space Temp,"sensor, temp, air, zone","air, sensor, temp, zone"
526,Heating Demand,"cmd,heat","cmd, heat"
527,Cooling Demand,"cmd,cool","cmd, cool"
528,Cooling setpoint,"sp,cool","cool, sp"
529,Heating setpoint,"sp,heat","heat, sp"
530,Fan Enabled,cmd,cmd
531,Space Temp,"sensor, temp, air, zone","air, sensor, temp, zone"
532,Heating Demand,"cmd,heat","cmd, heat"
533,Cooling Demand,"cmd,cool","cmd, cool"
534,Cooling setpoint,"sp,cool","cool, sp"
535,Heating setpoint,"sp,heat","heat, sp"
536,Fan Enabled,cmd,cmd
537,Space Temp,"sensor, temp, air, zone","air, sensor, temp, zone"
538,Heating Demand,"cmd,heat","cmd, heat"
539,Cooling Demand,"cmd,cool","cmd, cool"
540,Cooling setpoint,"sp,cool","cool, sp"
541,Heating setpoint,"sp,heat","heat, sp"
542,Fan Enabled,cmd,cmd
543,Space Temp,"sensor, temp, air, zone","air, sensor, temp, zone"
544,Heating Demand,"cmd,heat","cmd, heat"
545,Cooling Demand,"cmd,cool","cmd, cool"
546,Cooling setpoint,"sp,cool","cool, sp"
547,Heating setpoint,"sp,heat","heat, sp"
548,Fan Enabled,cmd,cmd
549,Space Temp,"sensor, temp, air, zone","air, sensor, temp, zone"
550,Heating Demand,"cmd,heat","cmd, heat"
551,Cooling Demand,"cmd,cool","cmd, cool"
552,Cooling setpoint,"sp,cool","cool, sp"
553,Heating setpoint,"sp,heat","heat, sp"
554,Fan Enabled,cmd,cmd
555,Space Temp,"sensor, temp, air, zone","air, sensor, temp, zone"
556,Heating Demand,"cmd,heat","cmd, heat"
557,Cooling Demand,"cmd,cool","cmd, cool"
558,Cooling setpoint,"sp,cool","cool, sp"
559,Heating setpoint,"sp,heat","heat, sp"
560,Fan Enabled,cmd,cmd
561,Space Temp,"sensor, temp, air, zone","air, sensor, temp, zone"
562,Heating Demand,"cmd,heat","cmd, heat"
563,Cooling Demand,"cmd,cool","cmd, cool"
564,Cooling setpoint,"sp,cool","cool, sp"
565,Heating setpoint,"sp,heat","heat, sp"
566,Fan Enabled,cmd,cmd
567,Space Temp,"sensor, temp, air, zone","air, sensor, temp, zone"
568,Heating Demand,"cmd,heat","cmd, heat"
569,Cooling Demand,"cmd,cool","cmd, cool"
570,Cooling setpoint,"sp,cool","cool, sp"
571,Heating setpoint,"sp,heat","heat, sp"
572,Fan Enabled,cmd,cmd
573,Space Temp,"sensor, temp, air, zone","air, sensor, temp, zone"
574,Heating Demand,"cmd,heat","cmd, heat"
575,Cooling Demand,"cmd,cool","cmd, cool"
576,Cooling setpoint,"sp,cool","cool, sp"
577,Heating setpoint,"sp,heat","heat, sp"
578,Fan Enabled,cmd,cmd
579,Space Temp,"sensor, temp, air, zone","air, sensor, temp, zone"
580,Heating Demand,"cmd,heat","cmd, heat"
581,Cooling Demand,"cmd,cool","cmd, cool"
582,Cooling setpoint,"sp,cool","cool, sp"
583,Heating setpoint,"sp,heat","heat, sp"
584,Fan Enabled,cmd,cmd
585,Space Temp,"sensor, temp, air, zone","air, sensor, temp, zone"
586,Heating Demand,"cmd,heat","cmd, heat"
587,Cooling Demand,"cmd,cool","cmd, cool"
588,Cooling setpoint,"sp,cool","cool, sp"
589,Heating setpoint,"sp,heat","heat, sp"
590,Fan Enabled,cmd,cmd
591,Space Temp,"sensor, temp, air, zone","air, sensor, temp, zone"
592,Heating Demand,"cmd,heat","cmd, heat"
593,Cooling Demand,"cmd,cool","cmd, cool"
594,Cooling setpoint,"sp,cool","cool, sp"
595,Heating setpoint,"sp,heat","heat, sp"
596,Fan Enabled,cmd,cmd
597,Space Temp,"sensor, temp, air, zone","air, sensor, temp, zone"
598,Heating Demand,"cmd,heat","cmd, heat"
599,Cooling Demand,"cmd,cool","cmd, cool"
600,Cooling setpoint,"sp,cool","cool, sp"
601,Heating setpoint,"sp,heat","heat, sp"
602,Fan Enabled,cmd,cmd
603,Space Temp,"sensor, temp, air, zone","air, sensor, temp, zone"
604,Heating Demand,"cmd,heat","cmd, heat"
605,Cooling Demand,"cmd,cool","cmd, cool"
606,Cooling setpoint,"sp,cool","cool, sp"
607,Heating setpoint,"sp,heat","heat, sp"
608,Fan Enabled,cmd,cmd
609,Space Temp,"sensor, temp, air, zone","air, sensor, temp, zone"
610,Heating Demand,"cmd,heat","cmd, heat"
611,Cooling Demand,"cmd,cool","cmd, cool"
612,Cooling setpoint,"sp,cool","cool, sp"
613,Heating setpoint,"sp,heat","heat, sp"
614,Fan Enabled,cmd,cmd
615,Space Temp,"sensor, temp, air, zone","air, sensor, temp, zone"
616,Heating Demand,"cmd,heat","cmd, heat"
617,Cooling Demand,"cmd,cool","cmd, cool"
618,Cooling setpoint,"sp,cool","cool, sp"
619,Heating setpoint,"sp,heat","heat, sp"
620,Fan Enabled,cmd,cmd
621,Space Temp,"sensor, temp, air, zone","air, sensor, temp, zone"
622,Heating Demand,"cmd,heat","cmd, heat"
623,Cooling Demand,"cmd,cool","cmd, cool"
624,Cooling setpoint,"sp,cool","cool, sp"
625,Heating setpoint,"sp,heat","heat, sp"
626,Fan Enabled,cmd,cmd
627,Space Temp,"sensor, temp, air, zone","air, sensor, temp, zone"
628,Heating Demand,"cmd,heat","cmd, heat"
629,Cooling Demand,"cmd,cool","cmd, cool"
630,Cooling setpoint,"sp,cool","cool, sp"
631,Heating setpoint,"sp,heat","heat, sp"
632,Fan Enabled,cmd,cmd
633,Space Temp,"sensor, temp, air, zone","air, sensor, temp, zone"
634,Heating Demand,"cmd,heat","cmd, heat"
635,Cooling Demand,"cmd,cool","cmd, cool"
636,Cooling setpoint,"sp,cool","cool, sp"
637,Heating setpoint,"sp,heat","heat, sp"
638,Fan Enabled,cmd,cmd
639,Space Temp,"sensor, temp, air, zone","air, sensor, temp, zone"
640,Heating Demand,"cmd,heat","cmd, heat"
641,Cooling Demand,"cmd,cool","cmd, cool"
642,Cooling setpoint,"sp,cool","cool, sp"
643,Heating setpoint,"sp,heat","heat, sp"
644,Fan Enabled,cmd,cmd
645,Space Temp,"sensor, temp, air, zone","air, sensor, temp, zone"
646,Heating Demand,"cmd,heat","cmd, heat"
647,Cooling Demand,"cmd,cool","cmd, cool"
648,Cooling setpoint,"sp,cool","cool, sp"
649,Heating setpoint,"sp,heat","heat, sp"
650,Fan Enabled,cmd,cmd
651,Space Temp,"sensor, temp, air, zone","air, sensor, temp, zone"
652,Heating Demand,"cmd,heat","cmd, heat"
653,Cooling Demand,"cmd,cool","cmd, cool"
654,Cooling setpoint,"sp,cool","cool, sp"
655,Heating setpoint,"sp,heat","heat, sp"
656,Fan Enabled,cmd,cmd
657,Space Temp,"sensor, temp, air, zone","air, sensor, temp, zone"
658,Heating Demand,"cmd,heat","cmd, heat"
659,Cooling Demand,"cmd,cool","cmd, cool"
660,Cooling setpoint,"sp,cool","cool, sp"
661,Heating setpoint,"sp,heat","heat, sp"
662,Fan Enabled,cmd,cmd
663,Space Temp,"sensor, temp, air, zone","air, sensor, temp, zone"
664,Heating Demand,"cmd,heat","cmd, heat"
665,Cooling Demand,"cmd,cool","cmd, cool"
666,Cooling setpoint,"sp,cool","cool, sp"
667,Heating setpoint,"sp,heat","heat, sp"
668,Fan Enabled,cmd,cmd
669,Space Temp,"sensor, temp, air, zone","air, sensor, temp, zone"
670,Heating Demand,"cmd,heat","cmd, heat"
671,Cooling Demand,"cmd,cool","cmd, cool"
672,Cooling setpoint,"sp,cool","cool, sp"
673,Heating setpoint,"sp,heat","heat, sp"
674,Fan Enabled,cmd,cmd
675,Space Temp,"sensor, temp, air, zone","air, sensor, temp, zone"
676,Heating Demand,"cmd,heat","cmd, heat"
677,Cooling Demand,"cmd,cool","cmd, cool"
678,Cooling setpoint,"sp,cool","cool, sp"
679,Heating setpoint,"sp,heat","heat, sp"
680,Fan Enabled,cmd,cmd
681,Space Temp,"sensor, temp, air, zone","air, sensor, temp, zone"
682,Heating Demand,"cmd,heat","cmd, heat"
683,Cooling Demand,"cmd,cool","cmd, cool"
684,Cooling setpoint,"sp,cool","cool, sp"
685,Heating setpoint,"sp,heat","heat, sp"
686,Fan Enabled,cmd,cmd
687,Space Temp,"sensor, temp, air, zone","air, sensor, temp, zone"
688,Heating Demand,"cmd,heat","cmd, heat"
689,Cooling Demand,"cmd,cool","cmd, cool"
690,Cooling setpoint,"sp,cool","cool, sp"
691,Heating setpoint,"sp,heat","heat, sp"
692,Fan Enabled,cmd,cmd
693,Space Temp,"sensor, temp, air, zone","air, sensor, temp, zone"
694,Heating Demand,"cmd,heat","cmd, heat"
695,Cooling Demand,"cmd,cool","cmd, cool"
696,Cooling setpoint,"sp,cool","cool, sp"
697,Heating setpoint,"sp,heat","heat, sp"
698,Fan Enabled,cmd,cmd
699,Space Temp,"sensor, temp, air, zone","air, sensor, temp, zone"
700,Heating Demand,"cmd,heat","cmd, heat"
701,Cooling Demand,"cmd,cool","cmd, cool"
702,Cooling setpoint,"sp,cool","cool, sp"
703,Heating setpoint,"sp,heat","heat, sp"
704,Fan Enabled,cmd,cmd
705,Space Temp,"sensor, temp, air, zone","air, sensor, temp, zone"
706,Heating Demand,"cmd,heat","cmd, heat"
707,Cooling Demand,"cmd,cool","cmd, cool"
708,Cooling setpoint,"sp,cool","cool, sp"
709,Heating setpoint,"sp,heat","heat, sp"
710,Fan Enabled,cmd,cmd
711,Space Temp,"sensor, temp, air, zone","air, sensor, temp, zone"
712,Heating Demand,"cmd,heat","cmd, heat"
713,Cooling Demand,"cmd,cool","cmd, cool"
714,Cooling setpoint,"sp,cool","cool, sp"
715,Heating setpoint,"sp,heat","heat, sp"
716,Fan Enabled,cmd,cmd
717,Space Temp,"sensor, temp, air, zone","air, sensor, temp, zone"
718,Heating Demand,"cmd,heat","cmd, heat"
719,Cooling Demand,"cmd,cool","cmd, cool"
720,Cooling setpoint,"sp,cool","cool, sp"
721,Heating setpoint,"sp,heat","heat, sp"
722,Fan Enabled,cmd,cmd
723,Space Temp,"sensor, temp, air, zone","air, sensor, temp, zone"
724,Heating Demand,"cmd,heat","cmd, heat"
725,Cooling Demand,"cmd,cool","cmd, cool"
726,Cooling setpoint,"sp,cool","cool, sp"
727,Heating setpoint,"sp,heat","heat, sp"
728,Fan Enabled,cmd,cmd
729,Space Temp,"sensor, temp, air, zone","air, sensor, temp, zone"
730,Heating Demand,"cmd,heat","cmd, heat"
731,Cooling Demand,"cmd,cool","cmd, cool"
732,Cooling setpoint,"sp,cool","cool, sp"
733,Heating setpoint,"sp,heat","heat, sp"
734,Fan Enabled,cmd,cmd
735,Space Temp,"sensor, temp, air, zone","air, sensor, temp, zone"
736,Heating Demand,"cmd,heat","cmd, heat"
737,Cooling Demand,"cmd,cool","cmd, cool"
738,Cooling setpoint,"sp,cool","cool, sp"
739,Heating setpoint,"sp,heat","heat, sp"
740,Fan Enabled,cmd,cmd
741,Space Temp,"sensor, temp, air, zone","air, sensor, temp, zone"
742,Heating Demand,"cmd,heat","cmd, heat"
743,Cooling Demand,"cmd,cool","cmd, cool"
744,Frost Valve,cmd,cmd
745,Heating Valve,"cmd, heat","cmd, heat"
746,Cooling Valve,cmd,"cmd, cool"
747,Thermal Wheel Control,cmd,cmd
748,Bag Filter Dirty,sensor,sensor
749,Frost Stat Tripped,"sensor, valve, frost","frost, sensor, valve"
750,Panel Filter Dirty,sensor,sensor
751,Supply Pressure SP,sp,sp
752,Min Fan Speed,sp,sp
753,Extract Offset,sp,sp
754,Frost SP,sp,sp
755,Supply Setpoint,sp,sp
756,Off Frost Temp,"sensor, temp, air","air, sensor, temp"
757,Supply Temp,"sensor, temp, air","air, sensor, temp"
758,Extract Temp,"sensor, temp, air","air, sensor, temp"
759,Supply Pressure,"sensor, pressure, air","air, pressure, sensor"
760,AHU Ventilation,"sp, occupied","occupied, sp"
761,Basement Fans Enable,cmd,cmd
762,Toilet Fan Enable,cmd,cmd
763,Toilet Fan Flow,sensor,sensor
764,Basement Extract Fan Flow,sensor,sensor
765,Extract Fan Enable,cmd,cmd
766,Extract Fan Flow,sensor,sensor
767,Extract Filter Dirty,sensor,sensor
768,Extract Inverter Fault,sensor,"alarm, sensor"
769,Extract Fan Speed,cmd,cmd
770,Supply Fan Enable,cmd,cmd
771,Supply Fan Speed,cmd,cmd
772,Supply Inverter Fault,sensor,"alarm, sensor"
773,Supply Fan Flow,sensor,sensor
774,Basement Supply Fan Flow,sensor,sensor
