%!PS-Adobe-3.0 EPSF-3.0
%%BoundingBox: (atend)
%%LanguageLevel: 2
%%Creator: Grace-5.1.25
%%CreationDate: Tue Sep  3 18:10:34 2019
%%DocumentData: Clean8Bit
%%Orientation: Portrait
%%Title: /home/waki/probabilities histogram
%%For: waki
%%DocumentNeededResources: (atend)
%%EndComments
%%BeginProlog
/m {moveto} def
/l {lineto} def
/s {stroke} def
/n {newpath} def
/c {closepath} def
/RL {rlineto} def
/SLW {setlinewidth} def
/GS {gsave} def
/GR {grestore} def
/SC {setcolor} def
/SGRY {setgray} def
/SRGB {setrgbcolor} def
/SD {setdash} def
/SLC {setlinecap} def
/SLJ {setlinejoin} def
/SCS {setcolorspace} def
/FFSF {findfont setfont} def
/CC {concat} def
/PXL {n m 0 0 RL s} def
/Color0 {1.0000 1.0000 1.0000} def
/Color1 {0.0000 0.0000 0.0000} def
/Color2 {1.0000 0.0000 0.0000} def
/Color3 {0.0000 1.0000 0.0000} def
/Color4 {0.0000 0.0000 1.0000} def
/Color5 {1.0000 1.0000 0.0000} def
/Color6 {0.7373 0.5608 0.5608} def
/Color7 {0.8627 0.8627 0.8627} def
/Color8 {0.5804 0.0000 0.8275} def
/Color9 {0.0000 1.0000 1.0000} def
/Color10 {1.0000 0.0000 1.0000} def
/Color11 {1.0000 0.6471 0.0000} def
/Color12 {0.4471 0.1294 0.7373} def
/Color13 {0.4039 0.0275 0.2824} def
/Color14 {0.2510 0.8784 0.8157} def
/Color15 {0.0000 0.5451 0.0000} def
/Color16 {0.7529 0.7529 0.7529} def
/Color17 {0.5059 0.5059 0.5059} def
/Color18 {0.2588 0.2588 0.2588} def
/PTRN {
 /pat_bits exch def 
 <<
  /PaintType 2
  /PatternType 1 /TilingType 1
  /BBox[0 0 16 16]
  /XStep 16 /YStep 16
  /PaintProc {
   pop
   16 16 true [-1 0 0 -1 16 16] pat_bits imagemask
  }
 >>
 [0.0016 0 0 0.0016 0 0]
 makepattern
} def
/Pattern0 {<0000000000000000000000000000000000000000000000000000000000000000> PTRN} bind def
/Pattern1 {<ffffffffffffffffffffffffffffffffffffffffffffffffffffffffffffffff> PTRN} bind def
/Pattern2 {<eeeeffffbbbbffffeeeeffffbbbbffffeeeeffffbbbbffffeeeeffffbbbbffff> PTRN} bind def
/Pattern3 {<eeeebbbbeeeebbbbeeeebbbbeeeebbbbeeeebbbbeeeebbbbeeeebbbbeeeebbbb> PTRN} bind def
/Pattern4 {<5555aaaa5555aaaa5555aaaa5555aaaa5555aaaa5555aaaa5555aaaa5555aaaa> PTRN} bind def
/Pattern5 {<1111444411114444111144441111444411114444111144441111444411114444> PTRN} bind def
/Pattern6 {<1111000044440000111100004444000011110000444400001111000044440000> PTRN} bind def
/Pattern7 {<1010000000000000010100000000000010100000000000000101000000000000> PTRN} bind def
/Pattern8 {<0000000000000000000000000000000000000000000000000000000000000000> PTRN} bind def
/Pattern9 {<1e1e0f0f8787c3c3e1e1f0f078783c3c1e1e0f0f8787c3c3e1e1f0f078783c3c> PTRN} bind def
/Pattern10 {<7878f0f0e1e1c3c387870f0f1e1e3c3c7878f0f0e1e1c3c387870f0f1e1e3c3c> PTRN} bind def
/Pattern11 {<3333333333333333333333333333333333333333333333333333333333333333> PTRN} bind def
/Pattern12 {<ffffffff00000000ffffffff00000000ffffffff00000000ffffffff00000000> PTRN} bind def
/Pattern13 {<8181424224241818181824244242818181814242242418181818242442428181> PTRN} bind def
/Pattern14 {<8080404020201010080804040202010180804040202010100808040402020101> PTRN} bind def
/Pattern15 {<0101020204040808101020204040808001010202040408081010202040408080> PTRN} bind def
/Pattern16 {<2222222222222222222222222222222222222222222222222222222222222222> PTRN} bind def
/Pattern17 {<0000ffff000000000000ffff000000000000ffff000000000000ffff00000000> PTRN} bind def
/Pattern18 {<2222ffff222222222222ffff222222222222ffff222222222222ffff22222222> PTRN} bind def
/Pattern19 {<ffffffff33333333ffffffff33333333ffffffff33333333ffffffff33333333> PTRN} bind def
/Pattern20 {<0f0f0f0f0f0f0f0ff0f0f0f0f0f0f0f00f0f0f0f0f0f0f0ff0f0f0f0f0f0f0f0> PTRN} bind def
/Pattern21 {<ff00ff00ff00ff00ff00ff00ff00ff0000ff00ff00ff00ff00ff00ff00ff00ff> PTRN} bind def
/Pattern22 {<8001800180018001800180018001ffffffff8001800180018001800180018001> PTRN} bind def
/Pattern23 {<c003c003c003c003c003c003ffffffffffffffffc003c003c003c003c003c003> PTRN} bind def
/Pattern24 {<040404040404ffff404040404040ffff040404040404ffff404040404040ffff> PTRN} bind def
/Pattern25 {<180018001800180018001800ffffffff001800180018001800180018ffffffff> PTRN} bind def
/Pattern26 {<1111b8b87c7c3a3a1111a3a3c7c78b8b1111b8b87c7c3a3a1111a3a3c7c78b8b> PTRN} bind def
/Pattern27 {<101010102828c7c70101010182827c7c101010102828c7c70101010182827c7c> PTRN} bind def
/Pattern28 {<1c1c121211112121c1c12121111112121c1c121211112121c1c1212111111212> PTRN} bind def
/Pattern29 {<3e3e414180808080e3e31414080808083e3e414180808080e3e3141408080808> PTRN} bind def
/Pattern30 {<4848888884848383848488884848383848488888848483838484888848483838> PTRN} bind def
/Pattern31 {<03030404080808080c0c12122121c0c003030404080808080c0c12122121c0c0> PTRN} bind def
/ellipsedict 8 dict def
ellipsedict /mtrx matrix put
/EARC {
 ellipsedict begin
  /endangle exch def
  /startangle exch def
  /yrad exch def
  /xrad exch def
  /y exch def
  /x exch def
  /savematrix mtrx currentmatrix def
  x y translate
  xrad yrad scale
  0 0 1 startangle endangle arc
  savematrix setmatrix
 end
} def
/TL {
  /kcomp exch def
  /linewidth exch def
  /offset exch def
  GS
  0 offset rmoveto
  linewidth SLW
  dup stringwidth exch kcomp add exch RL s
  GR
} def
/KINIT
{
 /kvector exch def
 /kid 0 def
} def
/KPROC
{
 pop pop
 kvector kid get
 0 rmoveto
 /kid 1 kid add def
} def
/DefEncoding [
 /.notdef
 /.notdef
 /.notdef
 /.notdef
 /.notdef
 /.notdef
 /.notdef
 /.notdef
 /.notdef
 /.notdef
 /.notdef
 /.notdef
 /.notdef
 /.notdef
 /.notdef
 /.notdef
 /.notdef
 /.notdef
 /.notdef
 /.notdef
 /.notdef
 /.notdef
 /.notdef
 /.notdef
 /.notdef
 /.notdef
 /.notdef
 /.notdef
 /.notdef
 /.notdef
 /.notdef
 /.notdef
 /space
 /exclam
 /quotedbl
 /numbersign
 /dollar
 /percent
 /ampersand
 /quoteright
 /parenleft
 /parenright
 /asterisk
 /plus
 /comma
 /hyphen
 /period
 /slash
 /zero
 /one
 /two
 /three
 /four
 /five
 /six
 /seven
 /eight
 /nine
 /colon
 /semicolon
 /less
 /equal
 /greater
 /question
 /at
 /A
 /B
 /C
 /D
 /E
 /F
 /G
 /H
 /I
 /J
 /K
 /L
 /M
 /N
 /O
 /P
 /Q
 /R
 /S
 /T
 /U
 /V
 /W
 /X
 /Y
 /Z
 /bracketleft
 /backslash
 /bracketright
 /asciicircum
 /underscore
 /grave
 /a
 /b
 /c
 /d
 /e
 /f
 /g
 /h
 /i
 /j
 /k
 /l
 /m
 /n
 /o
 /p
 /q
 /r
 /s
 /t
 /u
 /v
 /w
 /x
 /y
 /z
 /braceleft
 /bar
 /braceright
 /asciitilde
 /.notdef
 /.notdef
 /.notdef
 /.notdef
 /.notdef
 /.notdef
 /.notdef
 /.notdef
 /.notdef
 /.notdef
 /.notdef
 /.notdef
 /.notdef
 /.notdef
 /.notdef
 /.notdef
 /.notdef
 /.notdef
 /.notdef
 /.notdef
 /.notdef
 /.notdef
 /.notdef
 /.notdef
 /.notdef
 /.notdef
 /.notdef
 /.notdef
 /.notdef
 /.notdef
 /.notdef
 /.notdef
 /.notdef
 /space
 /exclamdown
 /cent
 /sterling
 /currency
 /yen
 /brokenbar
 /section
 /dieresis
 /copyright
 /ordfeminine
 /guillemotleft
 /logicalnot
 /hyphen
 /registered
 /macron
 /degree
 /plusminus
 /twosuperior
 /threesuperior
 /acute
 /mu
 /paragraph
 /periodcentered
 /cedilla
 /onesuperior
 /ordmasculine
 /guillemotright
 /onequarter
 /onehalf
 /threequarters
 /questiondown
 /Agrave
 /Aacute
 /Acircumflex
 /Atilde
 /Adieresis
 /Aring
 /AE
 /Ccedilla
 /Egrave
 /Eacute
 /Ecircumflex
 /Edieresis
 /Igrave
 /Iacute
 /Icircumflex
 /Idieresis
 /Eth
 /Ntilde
 /Ograve
 /Oacute
 /Ocircumflex
 /Otilde
 /Odieresis
 /multiply
 /Oslash
 /Ugrave
 /Uacute
 /Ucircumflex
 /Udieresis
 /Yacute
 /Thorn
 /germandbls
 /agrave
 /aacute
 /acircumflex
 /atilde
 /adieresis
 /aring
 /ae
 /ccedilla
 /egrave
 /eacute
 /ecircumflex
 /edieresis
 /igrave
 /iacute
 /icircumflex
 /idieresis
 /eth
 /ntilde
 /ograve
 /oacute
 /ocircumflex
 /otilde
 /odieresis
 /divide
 /oslash
 /ugrave
 /uacute
 /ucircumflex
 /udieresis
 /yacute
 /thorn
 /ydieresis
] def
%%EndProlog
%%BeginSetup
%%EndSetup
612.00 612.00 scale
n
0.0000 0.0000 m
0.0000 1.0000 l
1.2941 1.0000 l
1.2941 0.0000 l
c
[/DeviceRGB] SCS
Color0 SC
fill
[/DeviceRGB] SCS
Color1 SC
[] 0 SD
0.0015 SLW
0 SLC
0 SLJ
n
0.1500 0.1500 m
0.1500 0.1500 l
0.1550 0.1500 l
0.1550 0.1500 l
0.1600 0.1500 l
0.1600 0.1500 l
0.1650 0.1500 l
0.1650 0.1500 l
0.1700 0.1500 l
0.1700 0.1500 l
0.1750 0.1500 l
0.1750 0.1500 l
0.1800 0.1500 l
0.1800 0.1500 l
0.1850 0.1500 l
0.1850 0.1500 l
0.1900 0.1500 l
0.1900 0.1500 l
0.1950 0.1500 l
0.1950 0.1500 l
0.2000 0.1500 l
0.2000 0.1500 l
0.2050 0.1500 l
0.2050 0.1500 l
0.2100 0.1500 l
0.2100 0.1500 l
0.2150 0.1500 l
0.2150 0.1500 l
0.2200 0.1500 l
0.2200 0.1500 l
0.2250 0.1500 l
0.2250 0.1500 l
0.2300 0.1500 l
0.2300 0.1500 l
0.2350 0.1500 l
0.2350 0.1500 l
0.2400 0.1500 l
0.2400 0.1500 l
0.2450 0.1500 l
0.2450 0.1500 l
0.2500 0.1500 l
0.2500 0.1500 l
0.2550 0.1500 l
0.2550 0.1500 l
0.2600 0.1500 l
0.2600 0.1500 l
0.2650 0.1500 l
0.2650 0.1696 l
0.2700 0.1696 l
0.2700 0.1500 l
0.2750 0.1500 l
0.2750 0.1500 l
0.2800 0.1500 l
0.2800 0.1500 l
0.2850 0.1500 l
0.2850 0.1500 l
0.2900 0.1500 l
0.2900 0.1500 l
0.2950 0.1500 l
0.2950 0.1500 l
0.3000 0.1500 l
0.3000 0.1500 l
0.3050 0.1500 l
0.3050 0.1500 l
0.3100 0.1500 l
0.3100 0.1500 l
0.3150 0.1500 l
0.3150 0.1500 l
0.3200 0.1500 l
0.3200 0.1500 l
0.3250 0.1500 l
0.3250 0.1500 l
0.3300 0.1500 l
0.3300 0.1500 l
0.3350 0.1500 l
0.3350 0.1500 l
0.3400 0.1500 l
0.3400 0.1500 l
0.3450 0.1500 l
0.3450 0.1500 l
0.3500 0.1500 l
0.3500 0.1500 l
0.3550 0.1500 l
0.3550 0.1500 l
0.3600 0.1500 l
0.3600 0.1500 l
0.3650 0.1500 l
0.3650 0.1500 l
0.3700 0.1500 l
0.3700 0.1500 l
0.3750 0.1500 l
0.3750 0.1500 l
0.3800 0.1500 l
0.3800 0.1500 l
0.3850 0.1500 l
0.3850 0.1500 l
0.3900 0.1500 l
0.3900 0.1500 l
0.3950 0.1500 l
0.3950 0.1500 l
0.4000 0.1500 l
0.4000 0.1500 l
0.4050 0.1500 l
0.4050 0.1500 l
0.4100 0.1500 l
0.4100 0.1500 l
0.4150 0.1500 l
0.4150 0.1500 l
0.4200 0.1500 l
0.4200 0.1500 l
0.4250 0.1500 l
0.4250 0.1500 l
0.4300 0.1500 l
0.4300 0.1500 l
0.4350 0.1500 l
0.4350 0.1500 l
0.4400 0.1500 l
0.4400 0.1500 l
0.4450 0.1500 l
0.4450 0.1500 l
0.4500 0.1500 l
0.4500 0.1500 l
0.4550 0.1500 l
0.4550 0.1500 l
0.4600 0.1500 l
0.4600 0.1500 l
0.4650 0.1500 l
0.4650 0.1500 l
0.4700 0.1500 l
0.4700 0.1500 l
0.4750 0.1500 l
0.4750 0.1500 l
0.4800 0.1500 l
0.4800 0.1500 l
0.4850 0.1500 l
0.4850 0.1500 l
0.4900 0.1500 l
0.4900 0.1500 l
0.4950 0.1500 l
0.4950 0.1528 l
0.5000 0.1528 l
0.5000 0.1500 l
0.5050 0.1500 l
0.5050 0.1500 l
0.5100 0.1500 l
0.5100 0.1500 l
0.5150 0.1500 l
0.5150 0.1500 l
0.5200 0.1500 l
0.5200 0.1500 l
0.5250 0.1500 l
0.5250 0.1500 l
0.5300 0.1500 l
0.5300 0.1500 l
0.5350 0.1500 l
0.5350 0.1500 l
0.5400 0.1500 l
0.5400 0.1500 l
0.5450 0.1500 l
0.5450 0.1500 l
0.5500 0.1500 l
0.5500 0.1500 l
0.5550 0.1500 l
0.5550 0.1500 l
0.5600 0.1500 l
0.5600 0.1500 l
0.5650 0.1500 l
0.5650 0.1500 l
0.5700 0.1500 l
0.5700 0.1500 l
0.5750 0.1500 l
0.5750 0.1500 l
0.5800 0.1500 l
0.5800 0.1500 l
0.5850 0.1500 l
0.5850 0.1500 l
0.5900 0.1500 l
0.5900 0.1500 l
0.5950 0.1500 l
0.5950 0.1500 l
0.6000 0.1500 l
0.6000 0.1500 l
0.6050 0.1500 l
0.6050 0.1500 l
0.6100 0.1500 l
0.6100 0.1500 l
0.6150 0.1500 l
0.6150 0.1500 l
0.6200 0.1500 l
0.6200 0.1500 l
0.6250 0.1500 l
0.6250 0.1500 l
0.6300 0.1500 l
0.6300 0.1500 l
0.6350 0.1500 l
0.6350 0.1500 l
0.6400 0.1500 l
0.6400 0.1500 l
0.6450 0.1500 l
0.6450 0.1500 l
0.6500 0.1500 l
0.6500 0.1500 l
0.6550 0.1500 l
0.6550 0.1500 l
0.6600 0.1500 l
0.6600 0.1500 l
0.6650 0.1500 l
0.6650 0.1500 l
0.6700 0.1500 l
0.6700 0.1500 l
0.6750 0.1500 l
0.6750 0.1500 l
0.6800 0.1500 l
0.6800 0.1500 l
0.6850 0.1500 l
0.6850 0.1500 l
0.6900 0.1500 l
0.6900 0.1500 l
0.6950 0.1500 l
0.6950 0.1500 l
0.7000 0.1500 l
0.7000 0.1500 l
0.7050 0.1500 l
0.7050 0.1500 l
0.7100 0.1500 l
0.7100 0.1500 l
0.7150 0.1500 l
0.7150 0.1500 l
0.7200 0.1500 l
0.7200 0.1500 l
0.7250 0.1500 l
0.7250 0.1500 l
0.7300 0.1500 l
0.7300 0.1500 l
0.7350 0.1500 l
0.7350 0.1500 l
0.7400 0.1500 l
0.7400 0.1500 l
0.7450 0.1500 l
0.7450 0.1500 l
0.7500 0.1500 l
0.7500 0.1500 l
0.7550 0.1500 l
0.7550 0.1500 l
0.7600 0.1500 l
0.7600 0.1500 l
0.7650 0.1500 l
0.7650 0.1500 l
0.7700 0.1500 l
0.7700 0.1500 l
0.7750 0.1500 l
0.7750 0.1500 l
0.7800 0.1500 l
0.7800 0.1500 l
0.7850 0.1500 l
0.7850 0.1500 l
0.7900 0.1500 l
0.7900 0.1500 l
0.7950 0.1500 l
0.7950 0.1500 l
0.8000 0.1500 l
0.8000 0.1500 l
0.8050 0.1500 l
0.8050 0.1500 l
0.8100 0.1500 l
0.8100 0.1500 l
0.8150 0.1500 l
0.8150 0.1500 l
0.8200 0.1500 l
0.8200 0.1500 l
0.8250 0.1500 l
0.8250 0.1528 l
0.8300 0.1528 l
0.8300 0.1500 l
0.8350 0.1500 l
0.8350 0.1500 l
0.8400 0.1500 l
0.8400 0.1500 l
0.8450 0.1500 l
0.8450 0.1500 l
0.8500 0.1500 l
0.8500 0.1500 l
0.8550 0.1500 l
0.8550 0.1500 l
0.8600 0.1500 l
0.8600 0.1528 l
0.8650 0.1528 l
0.8650 0.1500 l
0.8700 0.1500 l
0.8700 0.1500 l
0.8750 0.1500 l
0.8750 0.1500 l
0.8800 0.1500 l
0.8800 0.1500 l
0.8850 0.1500 l
0.8850 0.1500 l
0.8900 0.1500 l
0.8900 0.1528 l
0.8950 0.1528 l
0.8950 0.1528 l
0.9000 0.1528 l
0.9000 0.1640 l
0.9050 0.1640 l
0.9050 0.1584 l
0.9100 0.1584 l
0.9100 0.1528 l
0.9150 0.1528 l
0.9150 0.1500 l
0.9200 0.1500 l
0.9200 0.1528 l
0.9250 0.1528 l
0.9250 0.1584 l
0.9300 0.1584 l
0.9300 0.1696 l
0.9350 0.1696 l
0.9350 0.1836 l
0.9400 0.1836 l
0.9400 0.1528 l
0.9450 0.1528 l
0.9450 0.1836 l
0.9500 0.1836 l
0.9500 0.1668 l
0.9550 0.1668 l
0.9550 0.1528 l
0.9600 0.1528 l
0.9600 0.1668 l
0.9650 0.1668 l
0.9650 0.1556 l
0.9700 0.1556 l
0.9700 0.1556 l
0.9750 0.1556 l
0.9750 0.1612 l
0.9800 0.1612 l
0.9800 0.1528 l
0.9850 0.1528 l
0.9850 0.1640 l
0.9900 0.1640 l
0.9900 0.1528 l
0.9950 0.1528 l
0.9950 0.1640 l
1.0000 0.1640 l
1.0000 0.1556 l
1.0050 0.1556 l
1.0050 0.2256 l
1.0100 0.2256 l
1.0100 0.1640 l
1.0150 0.1640 l
1.0150 0.1556 l
1.0200 0.1556 l
1.0200 0.1640 l
1.0250 0.1640 l
1.0250 0.2284 l
1.0300 0.2284 l
1.0300 0.6904 l
1.0350 0.6904 l
1.0350 0.1500 l
1.0400 0.1500 l
1.0400 0.1500 l
1.0450 0.1500 l
1.0450 0.2088 l
1.0500 0.2088 l
1.0500 0.1892 l
1.0550 0.1892 l
1.0550 0.4440 l
1.0600 0.4440 l
1.0600 0.2928 l
1.0650 0.2928 l
1.0650 0.2424 l
1.0700 0.2424 l
1.0700 0.2256 l
1.0750 0.2256 l
1.0750 0.2368 l
1.0800 0.2368 l
1.0800 0.1528 l
1.0850 0.1528 l
1.0850 0.2312 l
1.0900 0.2312 l
1.0900 0.1724 l
1.0950 0.1724 l
1.0950 0.1864 l
1.1000 0.1864 l
1.1000 0.7352 l
1.1050 0.7352 l
1.1050 0.1920 l
1.1100 0.1920 l
1.1100 0.2060 l
1.1150 0.2060 l
1.1150 0.1724 l
1.1200 0.1724 l
1.1200 0.7660 l
1.1250 0.7660 l
1.1250 0.2424 l
1.1300 0.2424 l
1.1300 0.8052 l
1.1350 0.8052 l
1.1350 0.6764 l
1.1400 0.6764 l
1.1400 0.2480 l
1.1450 0.2480 l
1.1450 0.6344 l
1.1500 0.6344 l
s
n
0.1500 0.1500 m
0.1500 0.1500 l
s
n
0.1550 0.1500 m
0.1550 0.1500 l
s
n
0.1600 0.1500 m
0.1600 0.1500 l
s
n
0.1650 0.1500 m
0.1650 0.1500 l
s
n
0.1700 0.1500 m
0.1700 0.1500 l
s
n
0.1750 0.1500 m
0.1750 0.1500 l
s
n
0.1800 0.1500 m
0.1800 0.1500 l
s
n
0.1850 0.1500 m
0.1850 0.1500 l
s
n
0.1900 0.1500 m
0.1900 0.1500 l
s
n
0.1950 0.1500 m
0.1950 0.1500 l
s
n
0.2000 0.1500 m
0.2000 0.1500 l
s
n
0.2050 0.1500 m
0.2050 0.1500 l
s
n
0.2100 0.1500 m
0.2100 0.1500 l
s
n
0.2150 0.1500 m
0.2150 0.1500 l
s
n
0.2200 0.1500 m
0.2200 0.1500 l
s
n
0.2250 0.1500 m
0.2250 0.1500 l
s
n
0.2300 0.1500 m
0.2300 0.1500 l
s
n
0.2350 0.1500 m
0.2350 0.1500 l
s
n
0.2400 0.1500 m
0.2400 0.1500 l
s
n
0.2450 0.1500 m
0.2450 0.1500 l
s
n
0.2500 0.1500 m
0.2500 0.1500 l
s
n
0.2550 0.1500 m
0.2550 0.1500 l
s
n
0.2600 0.1500 m
0.2600 0.1500 l
s
n
0.2650 0.1500 m
0.2650 0.1500 l
s
n
0.2700 0.1500 m
0.2700 0.1696 l
s
n
0.2750 0.1500 m
0.2750 0.1500 l
s
n
0.2800 0.1500 m
0.2800 0.1500 l
s
n
0.2850 0.1500 m
0.2850 0.1500 l
s
n
0.2900 0.1500 m
0.2900 0.1500 l
s
n
0.2950 0.1500 m
0.2950 0.1500 l
s
n
0.3000 0.1500 m
0.3000 0.1500 l
s
n
0.3050 0.1500 m
0.3050 0.1500 l
s
n
0.3100 0.1500 m
0.3100 0.1500 l
s
n
0.3150 0.1500 m
0.3150 0.1500 l
s
n
0.3200 0.1500 m
0.3200 0.1500 l
s
n
0.3250 0.1500 m
0.3250 0.1500 l
s
n
0.3300 0.1500 m
0.3300 0.1500 l
s
n
0.3350 0.1500 m
0.3350 0.1500 l
s
n
0.3400 0.1500 m
0.3400 0.1500 l
s
n
0.3450 0.1500 m
0.3450 0.1500 l
s
n
0.3500 0.1500 m
0.3500 0.1500 l
s
n
0.3550 0.1500 m
0.3550 0.1500 l
s
n
0.3600 0.1500 m
0.3600 0.1500 l
s
n
0.3650 0.1500 m
0.3650 0.1500 l
s
n
0.3700 0.1500 m
0.3700 0.1500 l
s
n
0.3750 0.1500 m
0.3750 0.1500 l
s
n
0.3800 0.1500 m
0.3800 0.1500 l
s
n
0.3850 0.1500 m
0.3850 0.1500 l
s
n
0.3900 0.1500 m
0.3900 0.1500 l
s
n
0.3950 0.1500 m
0.3950 0.1500 l
s
n
0.4000 0.1500 m
0.4000 0.1500 l
s
n
0.4050 0.1500 m
0.4050 0.1500 l
s
n
0.4100 0.1500 m
0.4100 0.1500 l
s
n
0.4150 0.1500 m
0.4150 0.1500 l
s
n
0.4200 0.1500 m
0.4200 0.1500 l
s
n
0.4250 0.1500 m
0.4250 0.1500 l
s
n
0.4300 0.1500 m
0.4300 0.1500 l
s
n
0.4350 0.1500 m
0.4350 0.1500 l
s
n
0.4400 0.1500 m
0.4400 0.1500 l
s
n
0.4450 0.1500 m
0.4450 0.1500 l
s
n
0.4500 0.1500 m
0.4500 0.1500 l
s
n
0.4550 0.1500 m
0.4550 0.1500 l
s
n
0.4600 0.1500 m
0.4600 0.1500 l
s
n
0.4650 0.1500 m
0.4650 0.1500 l
s
n
0.4700 0.1500 m
0.4700 0.1500 l
s
n
0.4750 0.1500 m
0.4750 0.1500 l
s
n
0.4800 0.1500 m
0.4800 0.1500 l
s
n
0.4850 0.1500 m
0.4850 0.1500 l
s
n
0.4900 0.1500 m
0.4900 0.1500 l
s
n
0.4950 0.1500 m
0.4950 0.1500 l
s
n
0.5000 0.1500 m
0.5000 0.1528 l
s
n
0.5050 0.1500 m
0.5050 0.1500 l
s
n
0.5100 0.1500 m
0.5100 0.1500 l
s
n
0.5150 0.1500 m
0.5150 0.1500 l
s
n
0.5200 0.1500 m
0.5200 0.1500 l
s
n
0.5250 0.1500 m
0.5250 0.1500 l
s
n
0.5300 0.1500 m
0.5300 0.1500 l
s
n
0.5350 0.1500 m
0.5350 0.1500 l
s
n
0.5400 0.1500 m
0.5400 0.1500 l
s
n
0.5450 0.1500 m
0.5450 0.1500 l
s
n
0.5500 0.1500 m
0.5500 0.1500 l
s
n
0.5550 0.1500 m
0.5550 0.1500 l
s
n
0.5600 0.1500 m
0.5600 0.1500 l
s
n
0.5650 0.1500 m
0.5650 0.1500 l
s
n
0.5700 0.1500 m
0.5700 0.1500 l
s
n
0.5750 0.1500 m
0.5750 0.1500 l
s
n
0.5800 0.1500 m
0.5800 0.1500 l
s
n
0.5850 0.1500 m
0.5850 0.1500 l
s
n
0.5900 0.1500 m
0.5900 0.1500 l
s
n
0.5950 0.1500 m
0.5950 0.1500 l
s
n
0.6000 0.1500 m
0.6000 0.1500 l
s
n
0.6050 0.1500 m
0.6050 0.1500 l
s
n
0.6100 0.1500 m
0.6100 0.1500 l
s
n
0.6150 0.1500 m
0.6150 0.1500 l
s
n
0.6200 0.1500 m
0.6200 0.1500 l
s
n
0.6250 0.1500 m
0.6250 0.1500 l
s
n
0.6300 0.1500 m
0.6300 0.1500 l
s
n
0.6350 0.1500 m
0.6350 0.1500 l
s
n
0.6400 0.1500 m
0.6400 0.1500 l
s
n
0.6450 0.1500 m
0.6450 0.1500 l
s
n
0.6500 0.1500 m
0.6500 0.1500 l
s
n
0.6550 0.1500 m
0.6550 0.1500 l
s
n
0.6600 0.1500 m
0.6600 0.1500 l
s
n
0.6650 0.1500 m
0.6650 0.1500 l
s
n
0.6700 0.1500 m
0.6700 0.1500 l
s
n
0.6750 0.1500 m
0.6750 0.1500 l
s
n
0.6800 0.1500 m
0.6800 0.1500 l
s
n
0.6850 0.1500 m
0.6850 0.1500 l
s
n
0.6900 0.1500 m
0.6900 0.1500 l
s
n
0.6950 0.1500 m
0.6950 0.1500 l
s
n
0.7000 0.1500 m
0.7000 0.1500 l
s
n
0.7050 0.1500 m
0.7050 0.1500 l
s
n
0.7100 0.1500 m
0.7100 0.1500 l
s
n
0.7150 0.1500 m
0.7150 0.1500 l
s
n
0.7200 0.1500 m
0.7200 0.1500 l
s
n
0.7250 0.1500 m
0.7250 0.1500 l
s
n
0.7300 0.1500 m
0.7300 0.1500 l
s
n
0.7350 0.1500 m
0.7350 0.1500 l
s
n
0.7400 0.1500 m
0.7400 0.1500 l
s
n
0.7450 0.1500 m
0.7450 0.1500 l
s
n
0.7500 0.1500 m
0.7500 0.1500 l
s
n
0.7550 0.1500 m
0.7550 0.1500 l
s
n
0.7600 0.1500 m
0.7600 0.1500 l
s
n
0.7650 0.1500 m
0.7650 0.1500 l
s
n
0.7700 0.1500 m
0.7700 0.1500 l
s
n
0.7750 0.1500 m
0.7750 0.1500 l
s
n
0.7800 0.1500 m
0.7800 0.1500 l
s
n
0.7850 0.1500 m
0.7850 0.1500 l
s
n
0.7900 0.1500 m
0.7900 0.1500 l
s
n
0.7950 0.1500 m
0.7950 0.1500 l
s
n
0.8000 0.1500 m
0.8000 0.1500 l
s
n
0.8050 0.1500 m
0.8050 0.1500 l
s
n
0.8100 0.1500 m
0.8100 0.1500 l
s
n
0.8150 0.1500 m
0.8150 0.1500 l
s
n
0.8200 0.1500 m
0.8200 0.1500 l
s
n
0.8250 0.1500 m
0.8250 0.1500 l
s
n
0.8300 0.1500 m
0.8300 0.1528 l
s
n
0.8350 0.1500 m
0.8350 0.1500 l
s
n
0.8400 0.1500 m
0.8400 0.1500 l
s
n
0.8450 0.1500 m
0.8450 0.1500 l
s
n
0.8500 0.1500 m
0.8500 0.1500 l
s
n
0.8550 0.1500 m
0.8550 0.1500 l
s
n
0.8600 0.1500 m
0.8600 0.1500 l
s
n
0.8650 0.1500 m
0.8650 0.1528 l
s
n
0.8700 0.1500 m
0.8700 0.1500 l
s
n
0.8750 0.1500 m
0.8750 0.1500 l
s
n
0.8800 0.1500 m
0.8800 0.1500 l
s
n
0.8850 0.1500 m
0.8850 0.1500 l
s
n
0.8900 0.1500 m
0.8900 0.1500 l
s
n
0.8950 0.1500 m
0.8950 0.1528 l
s
n
0.9000 0.1500 m
0.9000 0.1528 l
s
n
0.9050 0.1500 m
0.9050 0.1640 l
s
n
0.9100 0.1500 m
0.9100 0.1584 l
s
n
0.9150 0.1500 m
0.9150 0.1528 l
s
n
0.9200 0.1500 m
0.9200 0.1500 l
s
n
0.9250 0.1500 m
0.9250 0.1528 l
s
n
0.9300 0.1500 m
0.9300 0.1584 l
s
n
0.9350 0.1500 m
0.9350 0.1696 l
s
n
0.9400 0.1500 m
0.9400 0.1836 l
s
n
0.9450 0.1500 m
0.9450 0.1528 l
s
n
0.9500 0.1500 m
0.9500 0.1836 l
s
n
0.9550 0.1500 m
0.9550 0.1668 l
s
n
0.9600 0.1500 m
0.9600 0.1528 l
s
n
0.9650 0.1500 m
0.9650 0.1668 l
s
n
0.9700 0.1500 m
0.9700 0.1556 l
s
n
0.9750 0.1500 m
0.9750 0.1556 l
s
n
0.9800 0.1500 m
0.9800 0.1612 l
s
n
0.9850 0.1500 m
0.9850 0.1528 l
s
n
0.9900 0.1500 m
0.9900 0.1640 l
s
n
0.9950 0.1500 m
0.9950 0.1528 l
s
n
1.0000 0.1500 m
1.0000 0.1640 l
s
n
1.0050 0.1500 m
1.0050 0.1556 l
s
n
1.0100 0.1500 m
1.0100 0.2256 l
s
n
1.0150 0.1500 m
1.0150 0.1640 l
s
n
1.0200 0.1500 m
1.0200 0.1556 l
s
n
1.0250 0.1500 m
1.0250 0.1640 l
s
n
1.0300 0.1500 m
1.0300 0.2284 l
s
n
1.0350 0.1500 m
1.0350 0.6904 l
s
n
1.0400 0.1500 m
1.0400 0.1500 l
s
n
1.0450 0.1500 m
1.0450 0.1500 l
s
n
1.0500 0.1500 m
1.0500 0.2088 l
s
n
1.0550 0.1500 m
1.0550 0.1892 l
s
n
1.0600 0.1500 m
1.0600 0.4440 l
s
n
1.0650 0.1500 m
1.0650 0.2928 l
s
n
1.0700 0.1500 m
1.0700 0.2424 l
s
n
1.0750 0.1500 m
1.0750 0.2256 l
s
n
1.0800 0.1500 m
1.0800 0.2368 l
s
n
1.0850 0.1500 m
1.0850 0.1528 l
s
n
1.0900 0.1500 m
1.0900 0.2312 l
s
n
1.0950 0.1500 m
1.0950 0.1724 l
s
n
1.1000 0.1500 m
1.1000 0.1864 l
s
n
1.1050 0.1500 m
1.1050 0.7352 l
s
n
1.1100 0.1500 m
1.1100 0.1920 l
s
n
1.1150 0.1500 m
1.1150 0.2060 l
s
n
1.1200 0.1500 m
1.1200 0.1724 l
s
n
1.1250 0.1500 m
1.1250 0.7660 l
s
n
1.1300 0.1500 m
1.1300 0.2424 l
s
n
1.1350 0.1500 m
1.1350 0.8052 l
s
n
1.1400 0.1500 m
1.1400 0.6764 l
s
n
1.1450 0.1500 m
1.1450 0.2480 l
s
n
1.1500 0.1500 m
1.1500 0.6344 l
s
n
0.1500 0.1500 m
1.1500 0.1500 l
s
n
0.1500 0.8500 m
1.1500 0.8500 l
s
n
0.2500 0.1500 m
0.2500 0.1600 l
s
n
0.2500 0.8500 m
0.2500 0.8400 l
s
n
0.4500 0.1500 m
0.4500 0.1600 l
s
n
0.4500 0.8500 m
0.4500 0.8400 l
s
n
0.6500 0.1500 m
0.6500 0.1600 l
s
n
0.6500 0.8500 m
0.6500 0.8400 l
s
n
0.8500 0.1500 m
0.8500 0.1600 l
s
n
0.8500 0.8500 m
0.8500 0.8400 l
s
n
1.0500 0.1500 m
1.0500 0.1600 l
s
n
1.0500 0.8500 m
1.0500 0.8400 l
s
n
0.1500 0.1500 m
0.1500 0.1700 l
s
n
0.1500 0.8500 m
0.1500 0.8300 l
s
n
0.3500 0.1500 m
0.3500 0.1700 l
s
n
0.3500 0.8500 m
0.3500 0.8300 l
s
n
0.5500 0.1500 m
0.5500 0.1700 l
s
n
0.5500 0.8500 m
0.5500 0.8300 l
s
n
0.7500 0.1500 m
0.7500 0.1700 l
s
n
0.7500 0.8500 m
0.7500 0.8300 l
s
n
0.9500 0.1500 m
0.9500 0.1700 l
s
n
0.9500 0.8500 m
0.9500 0.8300 l
s
n
1.1500 0.1500 m
1.1500 0.1700 l
s
n
1.1500 0.8500 m
1.1500 0.8300 l
s
/Times-Roman findfont
dup length dict begin
 {1 index /FID ne {def} {pop pop} ifelse} forall
 /Encoding DefEncoding def
 currentdict
end
/Font41 exch definefont pop
/Font41 FFSF
0.1433 0.1212 m
GS
[0.0280 0.0000 0.0000 0.0280 0 0] CC
(0) show
GR
/Font41 FFSF
0.3327 0.1212 m
GS
[0.0280 0.0000 0.0000 0.0280 0 0] CC
(0.2) show
GR
/Font41 FFSF
0.5327 0.1212 m
GS
[0.0280 0.0000 0.0000 0.0280 0 0] CC
(0.4) show
GR
/Font41 FFSF
0.7329 0.1208 m
GS
[0.0280 0.0000 0.0000 0.0280 0 0] CC
(0.6) show
GR
/Font41 FFSF
0.9331 0.1212 m
GS
[0.0280 0.0000 0.0000 0.0280 0 0] CC
(0.8) show
GR
/Font41 FFSF
1.1445 0.1212 m
GS
[0.0280 0.0000 0.0000 0.0280 0 0] CC
(1) show
GR
/Font41 FFSF
0.5798 0.0912 m
GS
[0.0280 0.0000 0.0000 0.0280 0 0] CC
(Probabilities) show
GR
n
0.1500 0.1500 m
0.1500 0.8500 l
s
n
1.1500 0.1500 m
1.1500 0.8500 l
s
n
0.1500 0.2200 m
0.1600 0.2200 l
s
n
1.1500 0.2200 m
1.1400 0.2200 l
s
n
0.1500 0.3600 m
0.1600 0.3600 l
s
n
1.1500 0.3600 m
1.1400 0.3600 l
s
n
0.1500 0.5000 m
0.1600 0.5000 l
s
n
1.1500 0.5000 m
1.1400 0.5000 l
s
n
0.1500 0.6400 m
0.1600 0.6400 l
s
n
1.1500 0.6400 m
1.1400 0.6400 l
s
n
0.1500 0.7800 m
0.1600 0.7800 l
s
n
1.1500 0.7800 m
1.1400 0.7800 l
s
n
0.1500 0.1500 m
0.1700 0.1500 l
s
n
1.1500 0.1500 m
1.1300 0.1500 l
s
n
0.1500 0.2900 m
0.1700 0.2900 l
s
n
1.1500 0.2900 m
1.1300 0.2900 l
s
n
0.1500 0.4300 m
0.1700 0.4300 l
s
n
1.1500 0.4300 m
1.1300 0.4300 l
s
n
0.1500 0.5700 m
0.1700 0.5700 l
s
n
1.1500 0.5700 m
1.1300 0.5700 l
s
n
0.1500 0.7100 m
0.1700 0.7100 l
s
n
1.1500 0.7100 m
1.1300 0.7100 l
s
n
0.1500 0.8500 m
0.1700 0.8500 l
s
n
1.1500 0.8500 m
1.1300 0.8500 l
s
/Font41 FFSF
0.1267 0.1408 m
GS
[0.0280 0.0000 0.0000 0.0280 0 0] CC
(0) show
GR
/Font41 FFSF
0.1125 0.2806 m
GS
[0.0280 0.0000 0.0000 0.0280 0 0] CC
(50) show
GR
/Font41 FFSF
0.0988 0.4208 m
GS
[0.0280 0.0000 0.0000 0.0280 0 0] CC
(100) show
GR
/Font41 FFSF
0.0988 0.5606 m
GS
[0.0280 0.0000 0.0000 0.0280 0 0] CC
(150) show
GR
/Font41 FFSF
0.0988 0.7008 m
GS
[0.0280 0.0000 0.0000 0.0280 0 0] CC
(200) show
GR
/Font41 FFSF
0.0988 0.8406 m
GS
[0.0280 0.0000 0.0000 0.0280 0 0] CC
(250) show
GR
/Font41 FFSF
0.0829 0.4412 m
GS
[0.0000 0.0280 -0.0280 0.0000 0 0] CC
(Frequency) show
GR
n
0.1500 0.1500 m
0.1500 0.8500 l
1.1500 0.8500 l
1.1500 0.1500 l
0.1500 0.1500 l
c
s
%%Trailer
%%BoundingBox: 38 54 709 528
%%DocumentNeededResources: font Times-Roman
%%EOF
