\relax 
\providecommand\zref@newlabel[2]{}
\providecommand \acro@used@once [4]{}
\providecommand \acro@used@twice [4]{}
\providecommand \acro@pages [2]{}
\providecommand \acro@rerun@check {}
\providecommand \acro@print@list {}
\providecommand \acro@barriers [2]{}
\citation{dalal2011automatic}
\providecommand \oddpage@label [2]{}
\@writefile{toc}{\contentsline {section}{\numberline {1}Background}{1}}
\newlabel{background}{{1}{1}}
\@writefile{toc}{\contentsline {subsection}{\numberline {1.1}Text classification}{1}}
\citation{mccallum1998comparison}
\citation{liu2002partially}
\citation{chai2002bayesian}
\citation{harrag2009improving}
\citation{ali2012random}
\citation{akinyelu2014classification}
\citation{xu2012improved}
\citation{joachims1998text}
\citation{joachims2001statistical}
\citation{joachims1999transductive}
\citation{tong2001support}
\citation{alsaleem2011automated}
\citation{sun2009strategies}
\citation{genkin2007large}
\citation{ifrim2008fast}
\citation{lee2003learning}
\citation{zhang2003modified}
\citation{liu2017deep}
\citation{zhang2015character}
\citation{lai2015recurrent}
\citation{goodman2001bit}
\citation{brown1992class}
\citation{zhang2010understanding}
\citation{ramos2003using}
\@writefile{toc}{\contentsline {subsection}{\numberline {1.2}Text processing and categorisation}{2}}
\citation{mikolov2013linguistic}
\citation{mikolov2013efficient}
\citation{mikolov2013exploiting}
\citation{dalal2011automatic}
\citation{haystacksite}
\@writefile{toc}{\contentsline {section}{\numberline {2}Problem description}{3}}
\newlabel{problem description}{{2}{3}}
\citation{haystacksite}
\@writefile{lot}{\contentsline {table}{\numberline {1}{\ignorespaces Extraction of BMS raw data\relax }}{4}}
\providecommand*\caption@xref[2]{\@setref\relax\@undefined{#1}}
\newlabel{tab:outputExtraction}{{1}{4}}
\@writefile{lot}{\contentsline {table}{\numberline {2}{\ignorespaces Example of tagged data (other categories have been removed from the table for simplicity)\relax }}{4}}
\newlabel{tab:TagsExamples}{{2}{4}}
\@writefile{toc}{\contentsline {section}{\numberline {3}Methodology}{4}}
\newlabel{methodology}{{3}{4}}
\@writefile{toc}{\contentsline {subsection}{\numberline {3.1}Process overview}{4}}
\@writefile{lof}{\contentsline {figure}{\numberline {1}{\ignorespaces BMS label classification process for pre-processing data and predicting categories.\relax }}{4}}
\newlabel{fig:processWhole}{{1}{4}}
\citation{sklearnsite}
\@writefile{toc}{\contentsline {subsection}{\numberline {3.2}Classification methodologies}{5}}
\@writefile{toc}{\contentsline {subsubsection}{\numberline {3.2.1}Logistic regression classification}{5}}
\newlabel{eq:1}{{1}{5}}
\newlabel{eq:2}{{2}{5}}
\@writefile{toc}{\contentsline {subsubsection}{\numberline {3.2.2}Decision trees}{5}}
\citation{quinlan1986induction}
\citation{barandiaran1998random}
\citation{chen2016xgboost}
\citation{maron1961automatic}
\citation{mccallum1998comparison}
\@writefile{lof}{\contentsline {figure}{\numberline {2}{\ignorespaces Generic example of decision table and decision tree.\relax }}{6}}
\newlabel{fig:TL}{{2}{6}}
\@writefile{toc}{\contentsline {subsubsection}{\numberline {3.2.3}Random Forests}{6}}
\@writefile{toc}{\contentsline {subsubsection}{\numberline {3.2.4}XGBoost}{6}}
\citation{vapnik1963recognition}
\citation{boser1992training}
\@writefile{toc}{\contentsline {subsubsection}{\numberline {3.2.5}Multinomial Naive Bayes}{7}}
\newlabel{eq:3}{{3}{7}}
\newlabel{eq:4}{{4}{7}}
\@writefile{toc}{\contentsline {subsubsection}{\numberline {3.2.6}Support vector machines classification}{7}}
\newlabel{eq:5}{{5}{7}}
\newlabel{eq:6}{{6}{7}}
\newlabel{eq:7}{{7}{7}}
\@writefile{toc}{\contentsline {section}{\numberline {4}Experiments}{7}}
\newlabel{experiments}{{4}{7}}
\@writefile{toc}{\contentsline {subsection}{\numberline {4.1}Results}{7}}
\citation{gneiting2007strictly}
\@writefile{lot}{\contentsline {table}{\numberline {3}{\ignorespaces Results of applying five techniques and their \% of absolute and relative accuracy\relax }}{8}}
\newlabel{tab:Exps1}{{3}{8}}
\@writefile{lot}{\contentsline {table}{\numberline {4}{\ignorespaces Results of applying five techniques to the individual tags, \% of accuracy per tag type. Bold font denotes the algorithm which produced the highest score for each tag type.\relax }}{8}}
\newlabel{tab:Exps2}{{4}{8}}
\@writefile{toc}{\contentsline {subsection}{\numberline {4.2}Assessment}{8}}
\newlabel{Errors}{{4.2}{8}}
\@writefile{lof}{\contentsline {figure}{\numberline {3}{\ignorespaces Prediction probabilities histogram of test set.\relax }}{8}}
\newlabel{fig:Probs}{{3}{8}}
\newlabel{eq:8}{{8}{8}}
\bibdata{references}
\bibcite{dalal2011automatic}{1}
\bibcite{mccallum1998comparison}{2}
\bibcite{liu2002partially}{3}
\@writefile{lof}{\contentsline {figure}{\numberline {4}{\ignorespaces Prediction confidence of test set calculated according to Eq 8\hbox {}. The dashed line represents the boundary, currently set to 0.85.\relax }}{9}}
\newlabel{fig:Conf}{{4}{9}}
\@writefile{lot}{\contentsline {table}{\numberline {5}{\ignorespaces Percentages of true/false positives/negatives with respect to the total length of the test set, 1875 labels.\relax }}{9}}
\newlabel{tab:ROC}{{5}{9}}
\@writefile{toc}{\contentsline {section}{\numberline {5}Conclusions}{9}}
\newlabel{conclusions}{{5}{9}}
\bibcite{chai2002bayesian}{4}
\bibcite{harrag2009improving}{5}
\bibcite{ali2012random}{6}
\bibcite{akinyelu2014classification}{7}
\bibcite{xu2012improved}{8}
\bibcite{joachims1998text}{9}
\bibcite{joachims2001statistical}{10}
\bibcite{joachims1999transductive}{11}
\bibcite{tong2001support}{12}
\bibcite{alsaleem2011automated}{13}
\bibcite{sun2009strategies}{14}
\bibcite{genkin2007large}{15}
\bibcite{ifrim2008fast}{16}
\bibcite{lee2003learning}{17}
\bibcite{zhang2003modified}{18}
\bibcite{liu2017deep}{19}
\bibcite{zhang2015character}{20}
\bibcite{lai2015recurrent}{21}
\bibcite{goodman2001bit}{22}
\bibcite{brown1992class}{23}
\bibcite{zhang2010understanding}{24}
\bibcite{ramos2003using}{25}
\bibcite{mikolov2013linguistic}{26}
\bibcite{mikolov2013efficient}{27}
\bibcite{mikolov2013exploiting}{28}
\bibcite{haystacksite}{29}
\bibcite{sklearnsite}{30}
\bibcite{quinlan1986induction}{31}
\bibcite{barandiaran1998random}{32}
\bibcite{chen2016xgboost}{33}
\bibcite{maron1961automatic}{34}
\bibcite{vapnik1963recognition}{35}
\bibcite{boser1992training}{36}
\bibcite{gneiting2007strictly}{37}
\bibstyle{elsarticle-num}
\acro@rerun@check 
