This is BibTeX, Version 0.99d (TeX Live 2017/Debian)
Capacity: max_strings=100000, hash_size=100000, hash_prime=85009
The top-level auxiliary file: Tagging.aux
The style file: elsarticle-num.bst
Database file #1: references.bib
Warning--can't use both volume and number fields in mccallum1998comparison
You've used 37 entries,
            2937 wiz_defined-function locations,
            895 strings with 11707 characters,
and the built_in function-call counts, 12991 in all, are:
= -- 1281
> -- 310
< -- 24
+ -- 128
- -- 91
* -- 797
:= -- 1595
add.period$ -- 37
call.type$ -- 37
change.case$ -- 39
chr.to.int$ -- 0
cite$ -- 38
duplicate$ -- 485
empty$ -- 1530
format.name$ -- 117
if$ -- 3472
int.to.chr$ -- 0
int.to.str$ -- 37
missing$ -- 35
newline$ -- 121
num.names$ -- 36
pop$ -- 276
preamble$ -- 1
purify$ -- 0
quote$ -- 0
skip$ -- 946
stack$ -- 0
substring$ -- 878
swap$ -- 176
text.length$ -- 24
text.prefix$ -- 0
top$ -- 0
type$ -- 0
warning$ -- 1
while$ -- 116
width$ -- 39
write$ -- 324
(There was 1 warning)
